epoch,loss,mean_squared_error,val_loss,val_mean_squared_error
0,0.12546832859516144,0.03694479539990425,0.07866336405277252,0.017713410779833794
1,0.08357617259025574,0.019684849306941032,0.06450967490673065,0.013478870503604412
2,0.0726456418633461,0.015584754757583141,0.05870172381401062,0.01135729905217886
3,0.06701214611530304,0.013843158259987831,0.0538276843726635,0.00952419824898243
4,0.06207143887877464,0.0120443319901824,0.050931476056575775,0.009116941131651402
5,0.0591299943625927,0.010865287855267525,0.050689030438661575,0.0084003284573555
6,0.056748732924461365,0.010430410504341125,0.049244869500398636,0.00885850377380848
7,0.054819896817207336,0.01000939030200243,0.047694865614175797,0.008240853436291218
8,0.05463537946343422,0.009887078776955605,0.04411455616354942,0.006840141955763102
9,0.05175550654530525,0.008815404959022999,0.045577384531497955,0.0074980310164391994
10,0.05122159421443939,0.008797179907560349,0.044721201062202454,0.006500963121652603
11,0.05071946606040001,0.008482664823532104,0.04185038059949875,0.006368658971041441
12,0.04795471206307411,0.007901005446910858,0.041635651141405106,0.006117627490311861
13,0.0475788414478302,0.007550468668341637,0.040566496551036835,0.0058892350643873215
14,0.04645858705043793,0.007385502569377422,0.04292619228363037,0.006600736640393734
15,0.04651976376771927,0.007383748423308134,0.04070819541811943,0.005692047532647848
16,0.04572469741106033,0.00729357497766614,0.0390356071293354,0.005523687228560448
17,0.04504938796162605,0.006957459729164839,0.03666308522224426,0.005085434764623642
18,0.04416264593601227,0.006852220743894577,0.03730238229036331,0.005451370496302843
19,0.04314519837498665,0.006635549012571573,0.04211645945906639,0.006599413696676493
20,0.04349218308925629,0.006590938661247492,0.03626348823308945,0.005022019147872925
21,0.04249152913689613,0.006473601795732975,0.03800394758582115,0.005077634938061237
22,0.04225189611315727,0.006218706723302603,0.03888072445988655,0.0053949314169585705
23,0.04157109558582306,0.006190876010805368,0.03701082244515419,0.005110002122819424
24,0.04090213030576706,0.005934405606240034,0.03603009507060051,0.00478727463632822
25,0.04159383475780487,0.0062253111973404884,0.035059187561273575,0.004790081642568111
26,0.039417605847120285,0.005603512283414602,0.03501949831843376,0.004635933320969343
27,0.03933310508728027,0.005859632510691881,0.035711824893951416,0.00496186688542366
28,0.039250776171684265,0.005601626820862293,0.03806156665086746,0.005595494527369738
29,0.03898516297340393,0.005476944148540497,0.034747909754514694,0.004494218621402979
30,0.03940949961543083,0.005640183109790087,0.0333113968372345,0.004423103295266628
31,0.03868550434708595,0.005503329914063215,0.03509197011590004,0.004819370340555906
32,0.0382433719933033,0.005381089635193348,0.03600646182894707,0.005009287968277931
33,0.037427712231874466,0.005194046534597874,0.03336065262556076,0.004155001603066921
34,0.03753703832626343,0.005127454176545143,0.03400387242436409,0.004513055086135864
35,0.03677923232316971,0.004986907355487347,0.036583129316568375,0.005092874635010958
36,0.03826814517378807,0.005331540014594793,0.033622875809669495,0.0046128504909574986
37,0.037240203469991684,0.0052190073765814304,0.0364401675760746,0.004936580080538988
38,0.03654715046286583,0.00501231150701642,0.03394000977277756,0.0045555029064416885
39,0.03545761853456497,0.0047096991911530495,0.03289375826716423,0.004244465380907059
40,0.03686009719967842,0.0048623159527778625,0.03312523290514946,0.004353179596364498
41,0.03681815788149834,0.0050269742496311665,0.031797852367162704,0.0040592774748802185
42,0.036996159702539444,0.005160646513104439,0.03431559354066849,0.004865070804953575
43,0.03629335016012192,0.004900575615465641,0.03262319415807724,0.004055336583405733
44,0.036297913640737534,0.004998405929654837,0.032678138464689255,0.004123864229768515
45,0.03547864407300949,0.004735229071229696,0.032796766608953476,0.0041513219475746155
46,0.03568369895219803,0.0047170501202344894,0.031895626336336136,0.0041169095784425735
47,0.035428788512945175,0.004715344402939081,0.0311169121414423,0.004017902072519064
48,0.03519541025161743,0.004658396355807781,0.033531304448843,0.004413099959492683
49,0.0345328226685524,0.004623425658792257,0.031827498227357864,0.004196064081043005
50,0.034859634935855865,0.004504576325416565,0.03287515044212341,0.004041569773107767
51,0.03447764739394188,0.004460799042135477,0.03184794262051582,0.003907672129571438
52,0.03590387850999832,0.004709255415946245,0.03275507315993309,0.004345874302089214
53,0.035097718238830566,0.004694710951298475,0.031499601900577545,0.00419451342895627
54,0.03416088595986366,0.004559102468192577,0.03227505832910538,0.004018000327050686
55,0.0346834659576416,0.004663721192628145,0.0312802754342556,0.003664995077997446
56,0.03428253158926964,0.004445213824510574,0.03069186583161354,0.0037022526375949383
57,0.033941324800252914,0.004277065396308899,0.032773006707429886,0.004156602080911398
58,0.03364453464746475,0.0043662129901349545,0.031138118356466293,0.003797487122938037
59,0.032798293977975845,0.004086723085492849,0.03094371221959591,0.0036117322742938995
60,0.03323357552289963,0.004160920158028603,0.03104645200073719,0.0040525696240365505
61,0.03334442153573036,0.0041323439218103886,0.03020818531513214,0.0037368168123066425
62,0.03279517963528633,0.004006735514849424,0.03207724913954735,0.003916420042514801
63,0.03384382650256157,0.004367026966065168,0.031771883368492126,0.004073780495673418
64,0.03290066868066788,0.004184787627309561,0.0317104309797287,0.004170212894678116
65,0.03354640677571297,0.004328690469264984,0.031136969104409218,0.003762679174542427
66,0.03263186663389206,0.004085632972419262,0.0313355028629303,0.003827321110293269
67,0.03221103176474571,0.004083882085978985,0.03136666864156723,0.003997020423412323
68,0.03259603679180145,0.004073531832545996,0.029710665345191956,0.0035816452000290155
69,0.03232910856604576,0.004016762133687735,0.033142246305942535,0.004192819353193045
70,0.032907985150814056,0.004255566280335188,0.029798468574881554,0.003705668728798628
71,0.033020906150341034,0.004120871424674988,0.030435344204306602,0.003606207435950637
72,0.031777217984199524,0.0038198239635676146,0.029717791825532913,0.0033993376418948174
73,0.03206004947423935,0.003975691273808479,0.030232056975364685,0.0036225595977157354
74,0.03154655918478966,0.003865255741402507,0.03096465766429901,0.0035116251092404127
75,0.03129400312900543,0.0038111384492367506,0.029519613832235336,0.003691206220537424
76,0.03172038495540619,0.003764726687222719,0.029488617554306984,0.0036123439203947783
77,0.03220313787460327,0.004041239619255066,0.030237676575779915,0.0035694006364792585
78,0.03200741484761238,0.00391980167478323,0.02952130325138569,0.0031859572045505047
79,0.031579986214637756,0.003879072144627571,0.02903805300593376,0.0032180987764149904
80,0.031874705106019974,0.004023147746920586,0.031086651608347893,0.0035800300538539886
81,0.031422633677721024,0.0037596006877720356,0.029828783124685287,0.0033204469364136457
82,0.030892731621861458,0.0036521507427096367,0.029192330315709114,0.003206155262887478
83,0.03209087997674942,0.003927695099264383,0.02855103090405464,0.003336705733090639
84,0.031036123633384705,0.0038651316426694393,0.029272614046931267,0.0032513225451111794
85,0.030914809554815292,0.003659765003249049,0.028746744617819786,0.0032896941993385553
86,0.03090951032936573,0.003668383462354541,0.02959214150905609,0.0034728136379271746
87,0.031407080590724945,0.003747781738638878,0.03097434900701046,0.0034727014135569334
88,0.03137216717004776,0.0038516181521117687,0.030765386298298836,0.0038247904740273952
89,0.0306919626891613,0.0036500049754977226,0.02860787883400917,0.0033138063736259937
90,0.030504150316119194,0.003730492200702429,0.02919674851000309,0.0035372471902519464
91,0.031218906864523888,0.00380358612164855,0.028893442824482918,0.003283481812104583
92,0.03015146777033806,0.003670440288260579,0.028443779796361923,0.003209671936929226
93,0.030836617574095726,0.0036950225476175547,0.029411816969513893,0.003322496311739087
94,0.03103959746658802,0.003830595873296261,0.02824517711997032,0.0032657599076628685
95,0.030293582007288933,0.003751914482563734,0.028306102380156517,0.003312613582238555
96,0.03018486686050892,0.003604152472689748,0.028035767376422882,0.0031734295189380646
97,0.02986808307468891,0.003502041567116976,0.028625385835766792,0.0031888214871287346
98,0.02997082658112049,0.0035719808656722307,0.029645370319485664,0.0034043516498059034
99,0.030266940593719482,0.0035630064085125923,0.02970965765416622,0.0033384738489985466
100,0.02976267598569393,0.003377605928108096,0.02801302634179592,0.0031525744125247
101,0.029210634529590607,0.0033179130405187607,0.029509682208299637,0.0034512800630182028
102,0.02950252592563629,0.0033110901713371277,0.028447939082980156,0.003162471344694495
103,0.029145656153559685,0.003324301214888692,0.029208773747086525,0.0033136236015707254
104,0.029943911358714104,0.0036302851513028145,0.028127286583185196,0.003243348328396678
105,0.0289177056401968,0.0033469044137746096,0.02841096930205822,0.003150407923385501
106,0.029775504022836685,0.0034689109306782484,0.02829997055232525,0.0031561353243887424
107,0.030032329261302948,0.0036648667883127928,0.027744131162762642,0.003087952034547925
108,0.02969026379287243,0.0035613460931926966,0.02792879194021225,0.003131256904453039
109,0.029341179877519608,0.0034026752691715956,0.027375353500247,0.003055344335734844
110,0.029616061598062515,0.0036030602641403675,0.027849704027175903,0.003144266316667199
111,0.029272714629769325,0.00355770462192595,0.02833287976682186,0.0031523825600743294
112,0.02860177867114544,0.003247710643336177,0.027073588222265244,0.002962830476462841
113,0.02919558621942997,0.00346392928622663,0.02775036357343197,0.0030506053008139133
114,0.028834829106926918,0.003254119772464037,0.027303185313940048,0.0030249417759478092
115,0.029212405905127525,0.0033791849855333567,0.027132678776979446,0.0029761798214167356
116,0.0302859116345644,0.0037510672118514776,0.027777085080742836,0.003155030542984605
117,0.029447833076119423,0.0035066837444901466,0.026846015825867653,0.002913552336394787
118,0.029711637645959854,0.0036320111248642206,0.027698727324604988,0.003071812679991126
119,0.0302639901638031,0.003700453555211425,0.029661057516932487,0.003230841364711523
120,0.028507282957434654,0.003239262383431196,0.028395140543580055,0.0031732735224068165
121,0.029099317267537117,0.0034382168669253588,0.02784339338541031,0.003134103026241064
122,0.0287722647190094,0.003296065842732787,0.027076968923211098,0.00311794551089406
123,0.028703873977065086,0.003352371510118246,0.027277063578367233,0.0030637180898338556
124,0.029001612216234207,0.003318077651783824,0.027878787368535995,0.0031204659026116133
125,0.028685368597507477,0.003279923228546977,0.026672011241316795,0.002945253159850836
126,0.028501903638243675,0.0032614965457469225,0.02771051973104477,0.0032392856664955616
127,0.028262784704566002,0.0032013203017413616,0.028138667345046997,0.0031226491555571556
128,0.02904953621327877,0.003305391874164343,0.02677508257329464,0.002899792278185487
129,0.028733443468809128,0.0032572615891695023,0.02700892835855484,0.0029975909274071455
130,0.028530234470963478,0.0033323965035378933,0.02800564095377922,0.003058316186070442
131,0.028538277372717857,0.00328323757275939,0.028807807713747025,0.003102856455370784
132,0.028879394754767418,0.003403505776077509,0.028144827112555504,0.003017381066456437
133,0.028074344620108604,0.003041299991309643,0.02757398597896099,0.003152579767629504
134,0.028241245076060295,0.003251380054280162,0.02748202160000801,0.002963403007015586
135,0.02808305434882641,0.003096248023211956,0.026988038793206215,0.002809387631714344
136,0.028352580964565277,0.0032553905621170998,0.02720908261835575,0.0029370142146945
137,0.02825297974050045,0.0032741038594394922,0.029285898432135582,0.003193398006260395
138,0.029020898044109344,0.0033454843796789646,0.027105504646897316,0.002862653462216258
139,0.027955571189522743,0.003158094361424446,0.02672651968896389,0.0027483764570206404
140,0.028683112934231758,0.0032962639816105366,0.027348527684807777,0.0029167388565838337
141,0.02844373509287834,0.003316473914310336,0.026664266362786293,0.0028081131167709827
142,0.028563255444169044,0.003282911144196987,0.027117973193526268,0.002954431576654315
143,0.027999132871627808,0.0031199236400425434,0.028454957529902458,0.0031147701665759087
144,0.028074858710169792,0.003242229111492634,0.027233360335230827,0.0028217339422553778
145,0.027348801493644714,0.0030185095965862274,0.027412015944719315,0.003093633335083723
146,0.028873862698674202,0.0034202723763883114,0.028677361086010933,0.0030671488493680954
147,0.02696995437145233,0.0029493875335901976,0.027069931849837303,0.0030013641808182
148,0.027537276968359947,0.003066238947212696,0.028101496398448944,0.003253842005506158
149,0.028773004189133644,0.00334573513828218,0.026578640565276146,0.0028446719516068697
150,0.027254614979028702,0.003108564531430602,0.026978902518749237,0.002838799962773919
151,0.027935458347201347,0.003052092855796218,0.02780846878886223,0.0029284863267093897
152,0.028146620839834213,0.00321790250018239,0.027264850214123726,0.003073766129091382
153,0.028363604098558426,0.003305475926026702,0.028414197266101837,0.0029840879142284393
154,0.027843797579407692,0.0031133510638028383,0.027582550421357155,0.002898332430049777
155,0.027860302478075027,0.0030634808354079723,0.028941091150045395,0.003168943803757429
156,0.027534514665603638,0.0029709243681281805,0.027283892035484314,0.002921474166214466
157,0.027816690504550934,0.0031440199818462133,0.02755163609981537,0.002971317619085312
158,0.027122141793370247,0.003018168034031987,0.0268765389919281,0.0028458265587687492
159,0.026596471667289734,0.0028143255040049553,0.027860891073942184,0.0032260348089039326
160,0.02699403464794159,0.002960630925372243,0.027012793347239494,0.002901561325415969
161,0.02668464556336403,0.002861559158191085,0.02743011899292469,0.002959255129098892
162,0.027391280978918076,0.003149084048345685,0.026702629402279854,0.0029095185454934835
163,0.027667943388223648,0.0030895157251507044,0.026676030829548836,0.002778448862954974
164,0.027161305770277977,0.0029628474730998278,0.026900235563516617,0.0028956267051398754
165,0.02784571424126625,0.0031419408041983843,0.026425933465361595,0.002815058222040534
166,0.028070569038391113,0.0032267675269395113,0.027984395623207092,0.0030372217297554016
167,0.02672983892261982,0.003024873323738575,0.02796495147049427,0.003093444276601076
168,0.027089575305581093,0.0029762962367385626,0.028203265741467476,0.003135524457320571
169,0.027257855981588364,0.0029655960388481617,0.026240617036819458,0.002800861606374383
170,0.027505168691277504,0.0031223322730511427,0.026893185451626778,0.0028397594578564167
171,0.027377864345908165,0.0030122227035462856,0.026514049619436264,0.003056608373299241
172,0.026761552318930626,0.0029411157593131065,0.02767542190849781,0.002912618685513735
173,0.02753628045320511,0.003147110575810075,0.027174513787031174,0.002792301122099161
174,0.027668442577123642,0.003232516348361969,0.027766471728682518,0.0030976671259850264
175,0.027272438630461693,0.002955547533929348,0.027399348095059395,0.0029036588966846466
176,0.02728336676955223,0.0030921129509806633,0.026541277766227722,0.002812641905620694
177,0.027201609686017036,0.002988159190863371,0.027269430458545685,0.003004882950335741
178,0.026700284332036972,0.0028539765626192093,0.029364118352532387,0.003300375770777464
179,0.027336250990629196,0.003111102618277073,0.0273406021296978,0.0028094814624637365
180,0.02792496792972088,0.0031332604121416807,0.026277786120772362,0.0028341154102236032
181,0.027074677869677544,0.002972919028252363,0.025815777480602264,0.002718961099162698
182,0.02718617394566536,0.0030149403028190136,0.026342084631323814,0.0026739707682281733
183,0.02630016766488552,0.002848068019375205,0.0275705698877573,0.0029619813431054354
184,0.0264359712600708,0.00275677558965981,0.026749836280941963,0.003025420941412449
185,0.027213728055357933,0.0030160292517393827,0.025867024436593056,0.002720433520153165
186,0.026933720335364342,0.0029800510965287685,0.02705223485827446,0.0030818087980151176
187,0.027073951438069344,0.0029275838751345873,0.02622961439192295,0.0027747575659304857
188,0.02732555754482746,0.003063918324187398,0.025806739926338196,0.002704826882109046
189,0.027280842885375023,0.002930867951363325,0.02562542073428631,0.0027684529777616262
190,0.02644437924027443,0.002875935286283493,0.026290088891983032,0.0027485655155032873
191,0.026395106688141823,0.002882796572521329,0.026963694021105766,0.002894534496590495
192,0.02664790116250515,0.002974493894726038,0.026173759251832962,0.0027159443125128746
193,0.02594928629696369,0.0027183934580534697,0.027565231546759605,0.0029295205604285
194,0.026003021746873856,0.002687319414690137,0.025786273181438446,0.002730368636548519
195,0.026612715795636177,0.0029215028043836355,0.026628397405147552,0.002813529223203659
196,0.025961220264434814,0.0027829515747725964,0.026543568819761276,0.0029476976487785578
197,0.026221204549074173,0.0027770111337304115,0.026422584429383278,0.0027401756960898638
198,0.02725183591246605,0.003025785321369767,0.026154113933444023,0.0027394136413931847
199,0.026564516127109528,0.002881167456507683,0.025894086807966232,0.0026914654299616814
200,0.026835480704903603,0.002997426548972726,0.026888860389590263,0.002842172747477889
201,0.02668987214565277,0.002920818515121937,0.02727370895445347,0.0028756638057529926
202,0.026155680418014526,0.002828241093084216,0.025955284014344215,0.0027325910050421953
203,0.025910215452313423,0.002751199994236231,0.02627512626349926,0.00279128085821867
204,0.025737635791301727,0.002798408502712846,0.027096601203083992,0.0029992125928401947
205,0.026701563969254494,0.002915955614298582,0.027037443593144417,0.0029886336997151375
206,0.026018476113677025,0.002796446206048131,0.02671649307012558,0.002898232312873006
207,0.026274744421243668,0.0027995917480438948,0.02491985820233822,0.0026610111817717552
208,0.026269987225532532,0.002858929568901658,0.027023574337363243,0.0028777678962796926
209,0.026232749223709106,0.002917197532951832,0.026932328939437866,0.002659619553014636
210,0.026655247434973717,0.002807760378345847,0.02712722308933735,0.002772632287815213
211,0.02586738020181656,0.0026379625778645277,0.02735019102692604,0.0029380812775343657
212,0.025904010981321335,0.002694288967177272,0.026211194694042206,0.0028658125083893538
213,0.02631070651113987,0.0028549700509756804,0.026194006204605103,0.0027226884849369526
214,0.026122428476810455,0.0028565493412315845,0.02594878152012825,0.002648930996656418
215,0.025802355259656906,0.002733348635956645,0.025773707777261734,0.0026993590872734785
216,0.026287877932190895,0.002765085082501173,0.02523212879896164,0.002544582122936845
217,0.025339623913168907,0.0026134534273296595,0.02666115015745163,0.002905166009441018
218,0.025749603286385536,0.002709671389311552,0.025944586843252182,0.002747930586338043
219,0.026795286685228348,0.0028713862411677837,0.026426469907164574,0.002773839980363846
220,0.02628043293952942,0.0028179443906992674,0.02624681033194065,0.002831009915098548
221,0.025964122265577316,0.0027950918301939964,0.026773609220981598,0.0027382331900298595
222,0.025962430983781815,0.002804706571623683,0.026221144944429398,0.002815165789797902
223,0.025382796302437782,0.002680270466953516,0.027041224762797356,0.002809542464092374
224,0.02551945298910141,0.0026455686893314123,0.026824651286005974,0.0029236299451440573
225,0.02577310986816883,0.0027739291545003653,0.025936810299754143,0.002622214611619711
226,0.02571253664791584,0.0026466106064617634,0.02634940668940544,0.0028040388133376837
227,0.026270344853401184,0.00282350555062294,0.026968492195010185,0.002823344198986888
228,0.025432245805859566,0.0026316186413168907,0.025829073041677475,0.002813293831422925
229,0.026352278888225555,0.0027349062729626894,0.02572762407362461,0.0027100141160190105
230,0.025538945570588112,0.002649366855621338,0.02698989398777485,0.0029499223455786705
231,0.02598405070602894,0.0027967419009655714,0.026293452829122543,0.002745700301602483
232,0.02593492716550827,0.0028164773248136044,0.026991579681634903,0.0028890271205455065
233,0.02608305588364601,0.002824918134137988,0.02549486979842186,0.002618104452267289
234,0.02490045689046383,0.0026348771061748266,0.026351692155003548,0.0027605663053691387
235,0.02497269958257675,0.002548516495153308,0.027072252705693245,0.002908594673499465
236,0.02582264505326748,0.002698007971048355,0.026326850056648254,0.0027958047576248646
237,0.02548348903656006,0.0026885203551501036,0.025683721527457237,0.0026475496124476194
238,0.026301376521587372,0.002898758975788951,0.026590317487716675,0.0027600754983723164
239,0.025975337252020836,0.0027732590679079294,0.02603454701602459,0.0027042790316045284
240,0.025380246341228485,0.0026867438573390245,0.025266800075769424,0.0026634088717401028
241,0.02529868111014366,0.002754814922809601,0.026200219988822937,0.0026866549160331488
242,0.025982452556490898,0.0026873836759477854,0.027474038302898407,0.0031094711739569902
243,0.025887135416269302,0.0027352641336619854,0.02583174593746662,0.0027735314797610044
244,0.02497740648686886,0.002652789233252406,0.025288734585046768,0.00274469843134284
245,0.025191305205225945,0.0026782050263136625,0.02608264796435833,0.002718536648899317
246,0.026348097249865532,0.0028421489987522364,0.027472754940390587,0.002949707442894578
247,0.025927037000656128,0.0028221362736076117,0.02517322637140751,0.0026885943952947855
248,0.025345979258418083,0.002742937533184886,0.02537037618458271,0.0026999982073903084
249,0.02490941248834133,0.002506593242287636,0.025680242106318474,0.002698622178286314
250,0.025979816913604736,0.002848926233127713,0.02615474909543991,0.0027669265400618315
251,0.025080252438783646,0.0026069434825330973,0.025776920840144157,0.002664164872840047
252,0.02468312717974186,0.0024960320442914963,0.02534852735698223,0.0026578863617032766
253,0.025733288377523422,0.0027583884075284004,0.02611115574836731,0.0027579970192164183
254,0.02402326837182045,0.002406519604846835,0.026483483612537384,0.002760663628578186
255,0.024891991168260574,0.002580721164122224,0.025267092511057854,0.0027216386515647173
256,0.025005077943205833,0.0025300304405391216,0.026319583877921104,0.0027173152193427086
257,0.025420336052775383,0.0025859870947897434,0.02529561147093773,0.0026736375875771046
258,0.0259521696716547,0.002742294454947114,0.026548752561211586,0.0028023661579936743
259,0.025257673114538193,0.002720761578530073,0.026485459879040718,0.0028653049375861883
260,0.02572304755449295,0.002826313255354762,0.02617989107966423,0.002762984484434128
261,0.025409340858459473,0.002588119590654969,0.026643624529242516,0.0029126715380698442
262,0.025312194600701332,0.0027630156837403774,0.026394564658403397,0.002829258795827627
263,0.025407494977116585,0.002617060672491789,0.02784280851483345,0.0030228004325181246
264,0.024620894342660904,0.002555091166868806,0.02665829472243786,0.002848015632480383
265,0.02540748193860054,0.0027100946754217148,0.0265886839479208,0.002881259424611926
266,0.026190513744950294,0.0028400395531207323,0.026258796453475952,0.002749911043792963
267,0.02552097849547863,0.002661702688783407,0.02611844800412655,0.0028533509466797113
268,0.02568075619637966,0.0027667733374983072,0.026105348020792007,0.0029016046319156885
269,0.025241496041417122,0.00264067598618567,0.025174707174301147,0.002598006511107087
270,0.024670569226145744,0.0025060700718313456,0.026302127167582512,0.002651947783306241
271,0.024969549849629402,0.002539797918871045,0.025502409785985947,0.00267997570335865
272,0.025214053690433502,0.0025771213695406914,0.025672603398561478,0.002669096924364567
273,0.024269195273518562,0.00246637687087059,0.026045547798275948,0.002832557074725628
274,0.025014083832502365,0.0026633157394826412,0.025087423622608185,0.0027533399406820536
275,0.02508939430117607,0.002664945088326931,0.025832876563072205,0.0028428887017071247
276,0.024065986275672913,0.0023834898602217436,0.02463582344353199,0.0026135649532079697
277,0.02521704137325287,0.002660989761352539,0.02631380222737789,0.002765235025435686
278,0.02513648197054863,0.0026148685719817877,0.02500678412616253,0.0025710142217576504
279,0.02516723796725273,0.002713695866987109,0.02667894959449768,0.0028891509864479303
280,0.025282759219408035,0.002735959831625223,0.025682082399725914,0.002662145532667637
281,0.024851292371749878,0.0026083728298544884,0.025607941672205925,0.002782372524961829
282,0.025251479819417,0.0026573436334729195,0.025976277887821198,0.002825642703101039
283,0.024987230077385902,0.002556040184572339,0.02580772526562214,0.002776004374027252
284,0.024425150826573372,0.002458874834701419,0.025029372423887253,0.0026156986132264137
285,0.024700798094272614,0.0025525286328047514,0.025132762268185616,0.0026525845751166344
286,0.024255475029349327,0.0024010189808905125,0.0248408205807209,0.0026458906941115856
287,0.025092996656894684,0.0025901005137711763,0.02457992173731327,0.002365127904340625
288,0.024447256699204445,0.0023892575409263372,0.02570110745728016,0.0026428585406392813
289,0.023975227028131485,0.0023143647704273462,0.025555286556482315,0.0026404126547276974
290,0.02571149542927742,0.0028018271550536156,0.02525935508310795,0.0025268036406487226
291,0.02464069426059723,0.0024767182767391205,0.02539094351232052,0.0027243345975875854
292,0.024478819221258163,0.002427231753244996,0.02540895715355873,0.002686813473701477
293,0.025423651561141014,0.002756737172603607,0.024735210463404655,0.0026290458627045155
294,0.024908918887376785,0.002482046140357852,0.025378866121172905,0.0026935716159641743
295,0.024999050423502922,0.002622929634526372,0.02580760419368744,0.002770825754851103
296,0.02500741370022297,0.0025884222704917192,0.02637922577559948,0.002868127077817917
297,0.024525700137019157,0.0024515471886843443,0.02553665079176426,0.002570133190602064
298,0.02453046664595604,0.0024728644639253616,0.025943908840417862,0.002723509445786476
299,0.02501550130546093,0.002571991179138422,0.02499113418161869,0.0026747898664325476
