epoch,loss,mean_squared_error,val_loss,val_mean_squared_error
0,0.10068579763174057,0.028598688542842865,0.06514804065227509,0.012918101623654366
1,0.06191624328494072,0.012515995651483536,0.05333367735147476,0.00936860777437687
2,0.05359625443816185,0.00958350207656622,0.043800804764032364,0.0074773868545889854
3,0.04842439293861389,0.007996568456292152,0.04448151960968971,0.006691372022032738
4,0.04429309070110321,0.007123805116862059,0.04556456208229065,0.008705660700798035
5,0.042498040944337845,0.006686434615403414,0.04160047695040703,0.005738330539315939
6,0.04032912105321884,0.005870604421943426,0.03918030485510826,0.005444702226668596
7,0.03954264521598816,0.0057807075791060925,0.03640403971076012,0.004897122271358967
8,0.037676263600587845,0.005304630380123854,0.0388774648308754,0.005027545150369406
9,0.037323568016290665,0.005327266175299883,0.03607814386487007,0.005163512192666531
10,0.036487650126218796,0.005076201632618904,0.03527536988258362,0.004662721883505583
11,0.03537788614630699,0.004912042990326881,0.037195999175310135,0.005028714891523123
12,0.03411027789115906,0.0045070163905620575,0.036993078887462616,0.005525803193449974
13,0.033914096653461456,0.004545347765088081,0.03717253729701042,0.005527893081307411
14,0.033969391137361526,0.004655650816857815,0.03795987367630005,0.005808461457490921
15,0.032561950385570526,0.004230453632771969,0.03672478348016739,0.004938669502735138
16,0.03239348530769348,0.004200585186481476,0.03418039530515671,0.005416864529252052
17,0.03138795122504234,0.004014285281300545,0.0330393984913826,0.004202360287308693
18,0.03189034014940262,0.004196345806121826,0.03410106897354126,0.0046823397278785706
19,0.031084032729268074,0.0038499890360981226,0.03755040466785431,0.0060530840419232845
20,0.03119140863418579,0.003875183407217264,0.03475144878029823,0.004892432596534491
21,0.029986277222633362,0.0037211431190371513,0.033219389617443085,0.004211023915559053
22,0.02983115054666996,0.003611017018556595,0.03807817026972771,0.005803172010928392
23,0.030099770054221153,0.00374814635142684,0.034985944628715515,0.005202214699238539
24,0.030026875436306,0.0036976479459553957,0.03425772488117218,0.004945474211126566
25,0.028842134401202202,0.0034211892634630203,0.03078131191432476,0.003910370171070099
26,0.02847069688141346,0.0032852778676897287,0.03311309218406677,0.004537180997431278
27,0.02826833724975586,0.0032558718230575323,0.030280182138085365,0.004099316895008087
28,0.028010204434394836,0.003112577134743333,0.03155725076794624,0.004444474820047617
29,0.029404040426015854,0.0034710755571722984,0.03113456256687641,0.004037453792989254
30,0.026408493518829346,0.00278041185811162,0.033438969403505325,0.004293023142963648
31,0.027561740949749947,0.0030057192780077457,0.027722757309675217,0.003215352538973093
32,0.02604552172124386,0.0027562181930989027,0.028726456686854362,0.0035443028900772333
33,0.02604367397725582,0.002769852988421917,0.03043139912188053,0.003685556584969163
34,0.026030084118247032,0.002723775105550885,0.03253515809774399,0.0040235198102891445
35,0.025259530171751976,0.002641886007040739,0.03101322613656521,0.0037658168002963066
36,0.02533949911594391,0.002619644859805703,0.0291153434664011,0.0036164592020213604
37,0.02513648383319378,0.0025196278002113104,0.030467992648482323,0.003966071177273989
38,0.024823905900120735,0.0025973969604820013,0.02952050045132637,0.003671321552246809
39,0.024431167170405388,0.002501936163753271,0.02736901119351387,0.003327677957713604
40,0.024456921964883804,0.002465752186253667,0.03026198036968708,0.003843350801616907
41,0.02441095933318138,0.002435301896184683,0.027903204783797264,0.003075412940233946
42,0.023553134873509407,0.0023143496364355087,0.029444484040141106,0.0033988659270107746
43,0.02406766079366207,0.002417625393718481,0.027937784790992737,0.0031712613999843597
44,0.023508751764893532,0.0023406692780554295,0.029855361208319664,0.003662161761894822
45,0.023146547377109528,0.0023061090614646673,0.02905506081879139,0.003487158566713333
46,0.02336510829627514,0.002292859135195613,0.028625650331377983,0.003448715666308999
47,0.023553993552923203,0.002327527618035674,0.02995997853577137,0.003862075274810195
48,0.022832319140434265,0.002259248634800315,0.02877967245876789,0.00367940915748477
49,0.022682877257466316,0.002169489860534668,0.025840578600764275,0.003053110558539629
50,0.022035757079720497,0.002035906771197915,0.0290642399340868,0.0033009436447173357
51,0.02225016988813877,0.0020736034493893385,0.0297006256878376,0.0035955277271568775
52,0.02261943556368351,0.0021846983581781387,0.02849716506898403,0.003866182640194893
53,0.021815253421664238,0.0020491352770477533,0.027329545468091965,0.0034307842142879963
54,0.02243003062903881,0.0020894829649478197,0.029048088937997818,0.003493477590382099
55,0.021420326083898544,0.001984710106626153,0.03019184246659279,0.0035352851264178753
56,0.02157502993941307,0.0019428413361310959,0.0282374806702137,0.003767053596675396
57,0.021710382774472237,0.00202192016877234,0.02737518399953842,0.0033587657380849123
58,0.021351929754018784,0.001983106369152665,0.025346914306282997,0.0031223788391798735
59,0.02077479660511017,0.0018313736654818058,0.028096064925193787,0.0031844142358750105
60,0.021283021196722984,0.0019436086295172572,0.028043242171406746,0.0033649755641818047
61,0.020745784044265747,0.001823668135330081,0.02731194905936718,0.0032653738744556904
62,0.021007806062698364,0.0018763168482109904,0.02680913731455803,0.0032263114117085934
63,0.02007029950618744,0.001766157802194357,0.029140619561076164,0.0034180511720478535
64,0.02018478326499462,0.0017812439473345876,0.029427966102957726,0.00351133500225842
65,0.019641611725091934,0.0017172637162730098,0.027877556160092354,0.003418209031224251
66,0.01996825821697712,0.0017234390834346414,0.02550702728331089,0.003102408954873681
67,0.0194358192384243,0.0016769173089414835,0.02627413533627987,0.0030731293372809887
68,0.019568976014852524,0.0016612939070910215,0.026108305901288986,0.003000675467774272
69,0.019829299300909042,0.0017517486121505499,0.027372566983103752,0.0033138375729322433
70,0.019825775176286697,0.0016786822816357017,0.02666957676410675,0.002998612355440855
71,0.01893043704330921,0.001586748519912362,0.02482418157160282,0.0029530616011470556
72,0.018726244568824768,0.0015737299108877778,0.02430140972137451,0.002726515755057335
73,0.01861235499382019,0.0015545039204880595,0.025814805179834366,0.0029603722505271435
74,0.01832522824406624,0.001492223935201764,0.026117751374840736,0.003081910079345107
75,0.018619176000356674,0.001544064492918551,0.025650708004832268,0.0030541664455085993
76,0.018969092518091202,0.0015461891889572144,0.026857325807213783,0.0030448618344962597
77,0.018707308918237686,0.0015431613428518176,0.027478329837322235,0.0031070606783032417
78,0.01886172965168953,0.0015528978547081351,0.027096496894955635,0.003430589335039258
79,0.018428504467010498,0.0015107986982911825,0.02672826312482357,0.003022243967279792
80,0.018579969182610512,0.0015176307642832398,0.02558807283639908,0.0030276153702288866
81,0.018190821632742882,0.0014624065952375531,0.026349756866693497,0.003245414700359106
82,0.01782926172018051,0.0014152157818898559,0.024537600576877594,0.003036846173927188
83,0.018581384792923927,0.0015295762568712234,0.027798091992735863,0.0036641540937125683
84,0.01836264319717884,0.0015281270025298,0.025316646322607994,0.0032546124421060085
85,0.01812872476875782,0.0014709362294524908,0.02495422586798668,0.003077136352658272
86,0.017812378704547882,0.0014431375311687589,0.02696368657052517,0.0032803239300847054
87,0.018185945227742195,0.0014496137155219913,0.025790417566895485,0.003222750499844551
88,0.017331691458821297,0.0013648908352479339,0.02437620609998703,0.0029176734387874603
89,0.017520491033792496,0.0013529174029827118,0.026072951033711433,0.003316204994916916
90,0.01712416484951973,0.0013594002230092883,0.023916983976960182,0.0028516415040940046
91,0.01720000058412552,0.0013289593625813723,0.026033170521259308,0.002847159281373024
92,0.016751259565353394,0.001287634833715856,0.025414155796170235,0.0029788955580443144
93,0.017266085371375084,0.001318837981671095,0.023969868198037148,0.0026401812210679054
94,0.017235977575182915,0.0013424258213490248,0.025392744690179825,0.003035094356164336
95,0.017136994749307632,0.0012936334824189544,0.025700392201542854,0.0028955850284546614
96,0.01722114160656929,0.0012816226808354259,0.02694394625723362,0.0030480397399514914
97,0.0168079175055027,0.0012427419424057007,0.026846246793866158,0.0028906804509460926
98,0.016851060092449188,0.001258639618754387,0.028412390500307083,0.003476722864434123
99,0.017080239951610565,0.0013108572456985712,0.02433948963880539,0.003012613859027624
100,0.01641673594713211,0.0011892912443727255,0.025143662467598915,0.0029327720403671265
101,0.015939516946673393,0.001186545705422759,0.023907702416181564,0.002896005054935813
102,0.016057753935456276,0.0011594109237194061,0.024911923334002495,0.00299379276111722
103,0.01627287268638611,0.0011865702690556645,0.023247823119163513,0.002619414357468486
104,0.0166990514844656,0.0012410754570737481,0.02579943835735321,0.0030520083382725716
105,0.01625213958323002,0.0011885268613696098,0.024387389421463013,0.002850970020517707
106,0.016543924808502197,0.001302017131820321,0.025113603100180626,0.0029281529132276773
107,0.01647019200026989,0.0012218250194564462,0.024308115243911743,0.00321488780900836
108,0.016141701489686966,0.0012092393590137362,0.0262360367923975,0.00344450562261045
109,0.016672266647219658,0.0012160665355622768,0.023449376225471497,0.002807697979733348
110,0.015671174973249435,0.001104856259189546,0.024819787591695786,0.0029122077394276857
111,0.015672750771045685,0.0011007704306393862,0.02401287667453289,0.002557337749749422
112,0.016054512932896614,0.0011420156806707382,0.022623879835009575,0.0024710793513804674
113,0.01596967689692974,0.00116534938570112,0.024728791788220406,0.0028888157103210688
114,0.016419459134340286,0.0012148394016548991,0.02338220365345478,0.0025935557205229998
115,0.015961837023496628,0.0011378538329154253,0.025032391771674156,0.0027707635890692472
116,0.01649920828640461,0.0012197423493489623,0.02352072298526764,0.0027093335520476103
117,0.01591075211763382,0.0011345616076141596,0.023820355534553528,0.002676032017916441
118,0.01526542380452156,0.0010925453389063478,0.02453092485666275,0.002766640856862068
119,0.015531860291957855,0.001050613704137504,0.022730352357029915,0.0025113546289503574
120,0.015697050839662552,0.0010821191826835275,0.02284976653754711,0.0026275801938027143
121,0.01626153104007244,0.0011749893892556429,0.02349868230521679,0.0028154829051345587
122,0.015995671972632408,0.001152517506852746,0.023294975981116295,0.0026702536270022392
123,0.015186783857643604,0.0011084008729085326,0.023245781660079956,0.002597337355837226
124,0.015267005190253258,0.0010473337024450302,0.02351873740553856,0.002673617098480463
125,0.015085828490555286,0.001045054872520268,0.02444484457373619,0.0024956329725682735
126,0.015335436910390854,0.0010553344618529081,0.023861417546868324,0.0026477568317204714
127,0.014810331165790558,0.0009960803436115384,0.02572971023619175,0.0029708819929510355
128,0.015023311600089073,0.0010184551356360316,0.023582298308610916,0.0025498319882899523
129,0.014842069707810879,0.0009831860661506653,0.023883629590272903,0.0028210049495100975
130,0.014681280590593815,0.000979076256044209,0.02433083951473236,0.0027181783225387335
131,0.015046919696033001,0.0010405894136056304,0.022471068426966667,0.002528178272768855
132,0.015108747407793999,0.0010372943943366408,0.0222836434841156,0.002551177516579628
133,0.01468044426292181,0.0010062664514407516,0.02315486967563629,0.002823668997734785
134,0.014089117757976055,0.0009195991442538798,0.023366978392004967,0.002686780644580722
135,0.014685849659144878,0.0009651374421082437,0.024949392303824425,0.002925283508375287
136,0.014504347927868366,0.0009399651316925883,0.023910701274871826,0.0026635793037712574
137,0.014728585258126259,0.0009874900570139289,0.02433128096163273,0.002795505104586482
138,0.014554820954799652,0.0009689126745797694,0.023990169167518616,0.002853508573025465
139,0.014731481671333313,0.0009845976019278169,0.02288518100976944,0.002725658006966114
140,0.0148260947316885,0.0009957122383639216,0.023312576115131378,0.002712442772462964
141,0.014424233697354794,0.0009209088748320937,0.02351376600563526,0.002596957143396139
142,0.014582538977265358,0.00095512589905411,0.02284141629934311,0.0026766329538077116
143,0.014495613053441048,0.0009297950891777873,0.023304112255573273,0.0028570315334945917
144,0.014167013578116894,0.0009173774742521346,0.022377101704478264,0.0023276489228010178
145,0.013937272131443024,0.0008931446354836226,0.02325422130525112,0.002502782503142953
146,0.014318615198135376,0.0009654530440457165,0.022967593744397163,0.002425749320536852
147,0.01376865804195404,0.0008556211250834167,0.025758787989616394,0.00296320510096848
148,0.014289661310613155,0.0009090639650821686,0.023756908252835274,0.0026524749118834734
149,0.014161382801830769,0.0009443954331800342,0.023852985352277756,0.0027991386596113443
150,0.014135373756289482,0.0008986814646050334,0.022364243865013123,0.0026682065799832344
151,0.014343198388814926,0.0009878850542008877,0.02449820376932621,0.0027232628781348467
152,0.014778690412640572,0.0009621274075470865,0.024182872846722603,0.002792706247419119
153,0.014177631586790085,0.0008924983558245003,0.02228812500834465,0.0026679246220737696
154,0.014379126951098442,0.0008789675775915384,0.023083172738552094,0.002767327707260847
155,0.013753082603216171,0.0008487807353958488,0.022199975326657295,0.0026468124706298113
156,0.013851914554834366,0.0008646844071336091,0.023541873320937157,0.0029109064489603043
157,0.013694534078240395,0.0008491957560181618,0.023524820804595947,0.0029546264559030533
158,0.013885674066841602,0.0008414695039391518,0.023836012929677963,0.002757969545200467
159,0.013458083383738995,0.0008158782147802413,0.022222213447093964,0.0028123913798481226
160,0.013435508124530315,0.0008192791719920933,0.021952925249934196,0.0025419979356229305
161,0.013748720288276672,0.0008625325281172991,0.022471684962511063,0.0024665738455951214
162,0.013750806450843811,0.0008375441539101303,0.022511515766382217,0.00248688249848783
163,0.01360976044088602,0.0008436368661932647,0.02133501134812832,0.0023816595785319805
164,0.01347474753856659,0.0008159423596225679,0.021813606843352318,0.002645723056048155
165,0.013433050364255905,0.0008269163663499057,0.021840928122401237,0.0021307619754225016
166,0.013259229250252247,0.0007985976990312338,0.022437429055571556,0.0024545020423829556
167,0.012989873066544533,0.0007451685378327966,0.021639136597514153,0.002490916522219777
168,0.01348860189318657,0.0008207247010432184,0.022339127957820892,0.0025198059156537056
169,0.013436325825750828,0.0008500742260366678,0.02207440324127674,0.0023879415821284056
170,0.013034375384449959,0.0007607872830703855,0.022808106616139412,0.0026245235931128263
171,0.0133361192420125,0.0007987933931872249,0.022530628368258476,0.0026027646381407976
172,0.013421064242720604,0.000829986936878413,0.020534057170152664,0.00217161001637578
173,0.01342327706515789,0.0008435697527602315,0.022311463952064514,0.002670695772394538
174,0.013460544869303703,0.0008289470570161939,0.02204183302819729,0.002664032392203808
175,0.013530725613236427,0.0008226807112805545,0.022861411795020103,0.002603889675810933
176,0.012912425212562084,0.0007296499679796398,0.022275974974036217,0.00242883269675076
177,0.013348482549190521,0.0008097027312032878,0.022474009543657303,0.002682914026081562
178,0.013100609183311462,0.0007718837005086243,0.023782186210155487,0.0027332506142556667
179,0.013356096111238003,0.0008087897440418601,0.023810680955648422,0.003078422974795103
180,0.013577521778643131,0.0008098006364889443,0.023894350975751877,0.0026121113914996386
181,0.013101049698889256,0.000764551863539964,0.021849093958735466,0.002375427633523941
182,0.01272963173687458,0.0007348944782279432,0.022101495414972305,0.002594185061752796
183,0.013098721392452717,0.0007818543817847967,0.024022605270147324,0.0029114701319485903
184,0.01301951427012682,0.0007755306432954967,0.023757945746183395,0.0025408719666302204
185,0.012757927179336548,0.0007437476306222379,0.023154644295573235,0.0027156269643455744
186,0.013001751154661179,0.0007161761750467122,0.021936876699328423,0.002796138171106577
187,0.012766938656568527,0.0008273234125226736,0.021654251962900162,0.002625266555696726
188,0.0131068741902709,0.0007714833482168615,0.02285183221101761,0.002922791987657547
189,0.012548515573143959,0.0006884622853249311,0.022447971627116203,0.0027077863924205303
190,0.012491555884480476,0.0007071172585710883,0.022503405809402466,0.0028419492300599813
191,0.012955859303474426,0.0007687397883273661,0.02204171195626259,0.0025879014283418655
192,0.012330562807619572,0.0007103278185240924,0.022440651431679726,0.0026620428543537855
193,0.012951849028468132,0.0007578214863315225,0.023495418950915337,0.0027071547228842974
194,0.012368312105536461,0.000693792593665421,0.02276563085615635,0.00262626726180315
195,0.012991569936275482,0.0007669526385143399,0.02367190271615982,0.002651918912306428
196,0.012749521993100643,0.0007495167665183544,0.022296423092484474,0.0026885601691901684
197,0.012847122736275196,0.0007388204103335738,0.02270686812698841,0.0027434183284640312
198,0.01243690773844719,0.0006828221376053989,0.022129464894533157,0.0026398422196507454
199,0.012160648591816425,0.0006600832566618919,0.02318170666694641,0.002735316986218095
200,0.012739867903292179,0.0007291451911441982,0.023089753463864326,0.002879749285057187
201,0.012180508114397526,0.0006759775569662452,0.022203441709280014,0.0027109449729323387
202,0.012802614830434322,0.0007636583177372813,0.021707696840167046,0.0026037755887955427
203,0.01243535801768303,0.0007084776880219579,0.023814022541046143,0.002905118279159069
204,0.011977379210293293,0.0006525677163153887,0.022157466039061546,0.002791322534903884
205,0.012075655162334442,0.0006815053639002144,0.023790298029780388,0.002915716264396906
206,0.012156404554843903,0.0006744327838532627,0.02191975712776184,0.0024773585610091686
207,0.011944102123379707,0.0006456242990680039,0.02272610180079937,0.0027536959387362003
208,0.012711657211184502,0.000740033749025315,0.022718161344528198,0.002598600462079048
209,0.012429038062691689,0.0007065723766572773,0.02246103808283806,0.0026258935686200857
210,0.012009967118501663,0.0006429215427488089,0.022113636136054993,0.0023636799305677414
211,0.01224155817180872,0.0007024594815447927,0.02140510454773903,0.002219610847532749
212,0.012392495758831501,0.0006815819651819766,0.02158472314476967,0.0026841755025088787
213,0.011821010150015354,0.0006002160953357816,0.022991253063082695,0.00283103808760643
214,0.012439705431461334,0.0006708549917675555,0.022462932392954826,0.0026643506716936827
215,0.012026629410684109,0.00063536741072312,0.022944947704672813,0.002704106504097581
216,0.012034203857183456,0.0006279948865994811,0.022792555391788483,0.002756894798949361
217,0.01233243104070425,0.0006915832054801285,0.024365803226828575,0.0030009804759174585
218,0.012447220273315907,0.0006755161448381841,0.023387892171740532,0.0028572368901222944
219,0.01186285074800253,0.0006449850043281913,0.02235829271376133,0.0026594281662255526
220,0.012174561619758606,0.0006828992045484483,0.023074710741639137,0.0026797140017151833
221,0.011631280183792114,0.0006049820221960545,0.022247780114412308,0.0026572628412395716
222,0.011975333094596863,0.000673821137752384,0.022568954154849052,0.002569708041846752
223,0.011915896087884903,0.0006377046229317784,0.023595113307237625,0.0028234440833330154
224,0.012292862869799137,0.000681217759847641,0.022626541554927826,0.002762352582067251
225,0.011768463999032974,0.0006003239541314542,0.02093890868127346,0.0025179730728268623
226,0.011744407936930656,0.0006236531189642847,0.021821077913045883,0.002574480604380369
227,0.011650463566184044,0.0005782223306596279,0.021145980805158615,0.002369524911046028
228,0.011861000210046768,0.0006171848508529365,0.022498885169625282,0.0025203765835613012
229,0.011914183385670185,0.0006060146261006594,0.021274974569678307,0.002532260725274682
230,0.011807447299361229,0.0006486778729595244,0.02169913239777088,0.002445730147883296
231,0.012066544033586979,0.0006550144753418863,0.021928777918219566,0.00280683021992445
232,0.011861140839755535,0.0006406400352716446,0.021512048318982124,0.0023554465733468533
233,0.011821169406175613,0.0006306481081992388,0.021018579602241516,0.0022737886756658554
234,0.011775453574955463,0.0006036589038558304,0.023283693939447403,0.0029700861778110266
235,0.011927645653486252,0.0006421059952117503,0.020770622417330742,0.0023514956701546907
236,0.01117873564362526,0.0005805047112517059,0.022201208397746086,0.002483262214809656
237,0.01187190506607294,0.0006080544553697109,0.023053115233778954,0.002652232302352786
238,0.011543512344360352,0.0005829920410178602,0.023402905091643333,0.002745559671893716
239,0.011684934608638287,0.0006431040237657726,0.021670561283826828,0.0023236486595124006
240,0.012179172597825527,0.0006743067060597241,0.022485803812742233,0.002516380278393626
241,0.011812293902039528,0.0006089124944992363,0.02224412001669407,0.002650405978783965
242,0.01145987119525671,0.0005949874175712466,0.02127726376056671,0.002378063043579459
243,0.011360733769834042,0.0005727308453060687,0.021438226103782654,0.002432660898193717
244,0.01133478619158268,0.0005557433469220996,0.0217038094997406,0.002552047837525606
245,0.011328748427331448,0.0005762101500295103,0.02180483005940914,0.0025671119801700115
246,0.011668876744806767,0.0005867627332918346,0.0204335805028677,0.002302039647474885
247,0.011625521816313267,0.0006307062576524913,0.022403130307793617,0.002360113663598895
248,0.011395063251256943,0.0005806740373373032,0.021713675931096077,0.0025647133588790894
249,0.011966313235461712,0.0006252249586395919,0.02189190313220024,0.002395992400124669
250,0.011901947669684887,0.0008364571258425713,0.023992089554667473,0.002686230232939124
251,0.011547606438398361,0.0005799065111204982,0.021461121737957,0.002708437852561474
252,0.011512814089655876,0.000610147719271481,0.02075798064470291,0.0023107819724828005
253,0.011461070738732815,0.000587026181165129,0.020559635013341904,0.0023817657493054867
254,0.010928765870630741,0.0005250857793726027,0.021682657301425934,0.002411575522273779
255,0.011257200501859188,0.0005366588593460619,0.02168535441160202,0.0025472992565482855
256,0.01081252284348011,0.0005218969308771193,0.021558048203587532,0.0024922925513237715
257,0.011440922506153584,0.0005679684109054506,0.0214617308229208,0.0023284873459488153
258,0.011385437101125717,0.0005570894572883844,0.022070128470659256,0.002488466212525964
259,0.011157415807247162,0.000542336783837527,0.021939678117632866,0.0022744927555322647
260,0.011533185839653015,0.0005482229753397405,0.021956956014037132,0.002586975460872054
261,0.011700192466378212,0.0006855250685475767,0.022395486012101173,0.0025211218744516373
262,0.011341565288603306,0.000579122337512672,0.023287372663617134,0.0026681269519031048
263,0.01125357672572136,0.0005387258133850992,0.02123130112886429,0.00236010761000216
264,0.011076084338128567,0.0005575913819484413,0.020639946684241295,0.0023444697726517916
265,0.011035848408937454,0.0005588278872892261,0.02263607829809189,0.0025908059906214476
266,0.01114011649042368,0.0005449502496048808,0.02173968218266964,0.002313340315595269
267,0.011331013403832912,0.0005895008216612041,0.021178925409913063,0.002309002447873354
268,0.01104708667844534,0.0005607573548331857,0.023113735020160675,0.002761364448815584
269,0.010843654163181782,0.0005347037804313004,0.021725034341216087,0.002500017872080207
270,0.010983144864439964,0.0005679884343408048,0.02266222983598709,0.002731575397774577
271,0.011165105737745762,0.0005494587821885943,0.023649083450436592,0.002668880159035325
272,0.011061047203838825,0.0005438457010313869,0.02153373323380947,0.0025445353239774704
273,0.011232751421630383,0.0005665566422976553,0.022930722683668137,0.0027972226962447166
274,0.011200502514839172,0.0005620221490971744,0.023246724158525467,0.002457090886309743
275,0.011294221505522728,0.000520858564414084,0.0224151611328125,0.0025961296632885933
276,0.011267594061791897,0.0005601531593129039,0.022194551303982735,0.002755211666226387
277,0.011262299492955208,0.0005432324833236635,0.021363887935876846,0.00248401565477252
278,0.011386968195438385,0.0006079981103539467,0.022540370002388954,0.002799407811835408
279,0.010805073194205761,0.0005127429030835629,0.02173754759132862,0.0024791089817881584
280,0.010703600943088531,0.0004947551060467958,0.021314235404133797,0.002337205223739147
281,0.011051014065742493,0.0005361741059459746,0.022126225754618645,0.002415946451947093
282,0.010585098527371883,0.00047357898438349366,0.02328631840646267,0.0025220264215022326
283,0.010509009473025799,0.00048253260320052505,0.02137577347457409,0.0022582984529435635
284,0.010928431525826454,0.000536035920958966,0.020671211183071136,0.0023143617436289787
285,0.010488901287317276,0.0004824905772693455,0.021923789754509926,0.0027002738788723946
286,0.01102360151708126,0.0005326280370354652,0.02210881933569908,0.0026279750745743513
287,0.010478323325514793,0.00047353774425573647,0.021146519109606743,0.0024606536608189344
288,0.011345284059643745,0.000582246866542846,0.02281113900244236,0.002915367018431425
289,0.010889272205531597,0.0005110431229695678,0.0224407110363245,0.002453497378155589
290,0.010653231292963028,0.0005009993328712881,0.021637633442878723,0.0025941934436559677
291,0.010638655163347721,0.0004924727836623788,0.02244100719690323,0.002853025682270527
292,0.011338463984429836,0.0005447936709970236,0.022974247112870216,0.002787126461043954
293,0.010767974890768528,0.0005259299650788307,0.020735636353492737,0.0024303889367729425
294,0.011108133010566235,0.0005556800751946867,0.02087276428937912,0.0024257772602140903
295,0.010430091992020607,0.0004486728576011956,0.021318651735782623,0.0024748097639530897
296,0.010801385156810284,0.0005362513475120068,0.020873017609119415,0.002422695280984044
297,0.011012584902346134,0.0005360312643460929,0.021143615245819092,0.0024781273677945137
298,0.010355507954955101,0.0004565657873172313,0.020807519555091858,0.0023040713276714087
299,0.010886558331549168,0.0005161096341907978,0.02153792604804039,0.0026301490142941475
