Epochs: 300
Input shape: 256
Loss function: mean_absolute_error
Metric: mean_squared_error
Test Percentage: 0.2
Test Part: 4
Train data length: 1960
Test data length: 490

MODEL SUMMARY
===========================
Model: "sequential"
_________________________________________________________________
 Layer (type)                Output Shape              Param #   
=================================================================
 Dense (Dense)               (None, 256)               65792     
                                                                 
 Dense2 (Dense)              (None, 256)               65792     
                                                                 
 dropout (Dropout)           (None, 256)               0         
                                                                 
 Final_Dense (Dense)         (None, 512)               131584    
                                                                 
 output (Dense)              (None, 1)                 513       
                                                                 
=================================================================
Total params: 263,681
Trainable params: 263,681
Non-trainable params: 0
_________________________________________________________________

[0.12209555506706238, 0.08002009987831116, 0.0686793401837349, 0.06146936118602753, 0.05906697362661362, 0.05484253540635109, 0.055034082382917404, 0.05064302310347557, 0.05208982899785042, 0.04796559736132622, 0.047698862850666046, 0.04464663192629814, 0.04340009391307831, 0.04387747496366501, 0.042360372841358185, 0.042502403259277344, 0.03946048766374588, 0.04009037837386131, 0.03937313333153725, 0.038883812725543976, 0.036876510828733444, 0.03657874837517738, 0.036500707268714905, 0.036358967423439026, 0.03643262758851051, 0.035832785069942474, 0.033962227404117584, 0.03428400680422783, 0.03378470242023468, 0.03401181474328041, 0.032927006483078, 0.03176688030362129, 0.03174743428826332, 0.031632911413908005, 0.032071299850940704, 0.031018560752272606, 0.030196964740753174, 0.029297230765223503, 0.03079867921769619, 0.02953178808093071, 0.02924436517059803, 0.02958662621676922, 0.02986232191324234, 0.027955852448940277, 0.028878862038254738, 0.027274100109934807, 0.02842523716390133, 0.027565348893404007, 0.026282556354999542, 0.027546918019652367, 0.02701708674430847, 0.026513881981372833, 0.027242794632911682, 0.02641458623111248, 0.028170274570584297, 0.02653556503355503, 0.02555183880031109, 0.026379447430372238, 0.026138080283999443, 0.02553575113415718, 0.02526889182627201, 0.0251560527831316, 0.025027435272932053, 0.025352979078888893, 0.02430606633424759, 0.024136263877153397, 0.025213558226823807, 0.02446526661515236, 0.02449750527739525, 0.024166807532310486, 0.025089047849178314, 0.024550413712859154, 0.02386578358709812, 0.02355145290493965, 0.0242648683488369, 0.023318814113736153, 0.022753018885850906, 0.02380792424082756, 0.022316375747323036, 0.024309201166033745, 0.0232256893068552, 0.0226286593824625, 0.023279525339603424, 0.022208353504538536, 0.022516869008541107, 0.022011741995811462, 0.02288425713777542, 0.021920274943113327, 0.021222040057182312, 0.02189522050321102, 0.02122323401272297, 0.0202670618891716, 0.021855713799595833, 0.021464992314577103, 0.020808011293411255, 0.020611649379134178, 0.02122756838798523, 0.02127218060195446, 0.02051292173564434, 0.019936025142669678, 0.02030119299888611, 0.021382924169301987, 0.0215842854231596, 0.020382991060614586, 0.020120861008763313, 0.01962340995669365, 0.020824095234274864, 0.019128508865833282, 0.020170286297798157, 0.019153054803609848, 0.019014574587345123, 0.02025694213807583, 0.020131923258304596, 0.020241089165210724, 0.020964551717042923, 0.019410623237490654, 0.019266504794359207, 0.01940855383872986, 0.01938934624195099, 0.019842972978949547, 0.01817791908979416, 0.01930181123316288, 0.018479319289326668, 0.01781831867992878, 0.018209755420684814, 0.019044525921344757, 0.018975621089339256, 0.018961964175105095, 0.018196798861026764, 0.018351221457123756, 0.018127383664250374, 0.018201543018221855, 0.01811145804822445, 0.018172884359955788, 0.017786793410778046, 0.018823562189936638, 0.01788676343858242, 0.017742745578289032, 0.0182636845856905, 0.01812128908932209, 0.017050229012966156, 0.017293980345129967, 0.017277592793107033, 0.017118249088525772, 0.01687539927661419, 0.017625825479626656, 0.016830207780003548, 0.016748471185564995, 0.017028091475367546, 0.017445525154471397, 0.017722591757774353, 0.01748795248568058, 0.017142634838819504, 0.01668170839548111, 0.016414303332567215, 0.01695474423468113, 0.01614040695130825, 0.016712822020053864, 0.016255469992756844, 0.017019590362906456, 0.016579022631049156, 0.016059810295701027, 0.01552596502006054, 0.01645941287279129, 0.016003349795937538, 0.016337914392352104, 0.01730034500360489, 0.017062673345208168, 0.01645657978951931, 0.01652367413043976, 0.016022000461816788, 0.0172932930290699, 0.016693705692887306, 0.015570991672575474, 0.01660950481891632, 0.016128642484545708, 0.016024628654122353, 0.016608024016022682, 0.015149800106883049, 0.01491360180079937, 0.014693939127027988, 0.015465050004422665, 0.015618440695106983, 0.016269441694021225, 0.015050167217850685, 0.015451410785317421, 0.014720873907208443, 0.014272468164563179, 0.015315230004489422, 0.015069746412336826, 0.015037202276289463, 0.015159578062593937, 0.014770102687180042, 0.014612426981329918, 0.014584990218281746, 0.014680920168757439, 0.01453056838363409, 0.015504463575780392, 0.014442309737205505, 0.01391900796443224, 0.014810396358370781, 0.014158705249428749, 0.01452773716300726, 0.015176156535744667, 0.014244073070585728, 0.0146097457036376, 0.014233776368200779, 0.01363782025873661, 0.01606280542910099, 0.014434142969548702, 0.014610208570957184, 0.013655882328748703, 0.01301164086908102, 0.013879734091460705, 0.014310570433735847, 0.013083912432193756, 0.014179064892232418, 0.013825985603034496, 0.013272657059133053, 0.013554254546761513, 0.013573833741247654, 0.013745438307523727, 0.013645718805491924, 0.013484994880855083, 0.013312818482518196, 0.013684888370335102, 0.013660768046975136, 0.013908488675951958, 0.013547377660870552, 0.013591966591775417, 0.013443701900541782, 0.013693959452211857, 0.013578287325799465, 0.013576442375779152, 0.01351335272192955, 0.013455724343657494, 0.012871472164988518, 0.012858103029429913, 0.013166302815079689, 0.012254257686436176, 0.012452836148440838, 0.012653381563723087, 0.013256301172077656, 0.013450528495013714, 0.013628721237182617, 0.012273773550987244, 0.012753334827721119, 0.012736691161990166, 0.012927321717143059, 0.012575274333357811, 0.012792935594916344, 0.012784951366484165, 0.013116463087499142, 0.012605341151356697, 0.012169267050921917, 0.012585833668708801, 0.013248928822577, 0.01298939436674118, 0.01246635988354683, 0.01207043044269085, 0.012077325023710728, 0.012372110038995743, 0.013696764595806599, 0.012993009760975838, 0.013447541743516922, 0.012155982665717602, 0.012191420421004295, 0.013127721846103668, 0.012068776413798332, 0.012007386423647404, 0.012743821367621422, 0.01177037414163351, 0.012400282546877861, 0.012288235127925873, 0.012248465791344643, 0.011681726202368736, 0.012024130672216415, 0.012366997078061104, 0.011694644577801228, 0.012006175704300404, 0.012897253967821598, 0.012084254994988441, 0.011556449346244335, 0.012175355106592178, 0.011927065439522266, 0.01160306017845869, 0.011719227768480778, 0.011591474525630474, 0.01126608345657587, 0.012308790348470211, 0.01240841019898653, 0.012644774280488491, 0.011487684212625027, 0.011253478936851025, 0.011637339368462563, 0.011702285148203373, 0.01164539810270071, 0.011667115613818169, 0.01156136579811573, 0.011760212481021881]
[0.09508034586906433, 0.07435346394777298, 0.06200801581144333, 0.05784042924642563, 0.06280463933944702, 0.056877825409173965, 0.053371790796518326, 0.051939353346824646, 0.054833509027957916, 0.04862784221768379, 0.05124479904770851, 0.04709310084581375, 0.052687350660562515, 0.055326908826828, 0.050341829657554626, 0.04747576266527176, 0.04392821714282036, 0.04812997579574585, 0.05302521213889122, 0.043920207768678665, 0.04304127022624016, 0.04425790533423424, 0.045476704835891724, 0.04355088621377945, 0.04576053470373154, 0.044801611453294754, 0.043379686772823334, 0.04300817474722862, 0.04347440227866173, 0.04450695589184761, 0.04011284187436104, 0.040479354560375214, 0.0446850061416626, 0.042132388800382614, 0.03993651643395424, 0.041573408991098404, 0.038921989500522614, 0.038183748722076416, 0.041009873151779175, 0.04033441096544266, 0.038954634219408035, 0.03894190862774849, 0.043522078543901443, 0.04152626171708107, 0.03978782892227173, 0.04070214554667473, 0.0385478138923645, 0.03568854555487633, 0.03840253874659538, 0.03810856118798256, 0.03703410178422928, 0.03905589506030083, 0.03729754313826561, 0.0358908586204052, 0.0359688475728035, 0.03701844811439514, 0.035215966403484344, 0.04012927785515785, 0.03870844841003418, 0.03795776516199112, 0.036755211651325226, 0.038007669150829315, 0.03859459608793259, 0.03843903914093971, 0.0362020842730999, 0.03616888448596001, 0.038741324096918106, 0.03632273152470589, 0.0369681753218174, 0.036767903715372086, 0.03797892853617668, 0.03773537278175354, 0.03682060167193413, 0.034350305795669556, 0.0386795811355114, 0.03735364228487015, 0.038445357233285904, 0.03476539999246597, 0.03561905026435852, 0.03755504637956619, 0.0370430052280426, 0.036927495151758194, 0.03588598966598511, 0.03531042858958244, 0.033510707318782806, 0.03135824576020241, 0.034142863005399704, 0.03317238762974739, 0.03217142075300217, 0.034894295036792755, 0.03135773539543152, 0.03384234011173248, 0.03528173267841339, 0.032442737370729446, 0.033275917172431946, 0.03330374136567116, 0.032126422971487045, 0.034148070961236954, 0.034377191215753555, 0.033528055995702744, 0.03509225323796272, 0.03209247812628746, 0.03467874974012375, 0.03511391580104828, 0.0323176346719265, 0.0350014753639698, 0.03470592200756073, 0.03313107416033745, 0.035408250987529755, 0.03408367559313774, 0.03393007814884186, 0.03536136820912361, 0.03427132964134216, 0.033603131771087646, 0.03368883579969406, 0.037844687700271606, 0.03462739288806915, 0.03474125266075134, 0.034219980239868164, 0.03525880351662636, 0.03441011533141136, 0.03193889930844307, 0.03264822065830231, 0.033765219151973724, 0.034770943224430084, 0.03227425739169121, 0.03200212121009827, 0.03269015997648239, 0.030955830588936806, 0.030632557347416878, 0.03355336934328079, 0.03046198934316635, 0.03210858628153801, 0.03277314081788063, 0.03550012782216072, 0.032254137098789215, 0.03336278721690178, 0.031408485025167465, 0.034510619938373566, 0.03238939493894577, 0.032838232815265656, 0.0328291580080986, 0.03097180277109146, 0.032071303576231, 0.031290676444768906, 0.03239201381802559, 0.03244798630475998, 0.03210029378533363, 0.03251729533076286, 0.03447546064853668, 0.03112625889480114, 0.033704377710819244, 0.032024454325437546, 0.03303109481930733, 0.03200247511267662, 0.03271165117621422, 0.03312081843614578, 0.03130029886960983, 0.03183262422680855, 0.030182920396327972, 0.032670747488737106, 0.03134537488222122, 0.03180026635527611, 0.03258248418569565, 0.0302673801779747, 0.030304793268442154, 0.030216149985790253, 0.031432438641786575, 0.03257635980844498, 0.031215688213706017, 0.033848606050014496, 0.03431377932429314, 0.032642971724271774, 0.0315457284450531, 0.034141916781663895, 0.030271824449300766, 0.03272377699613571, 0.02887287735939026, 0.028847336769104004, 0.029441555961966515, 0.03117968887090683, 0.029830975458025932, 0.032768890261650085, 0.03056221455335617, 0.030308624729514122, 0.029184790328145027, 0.029664987698197365, 0.02941373735666275, 0.03455987945199013, 0.029880523681640625, 0.029248669743537903, 0.03046775795519352, 0.029393671080470085, 0.029781624674797058, 0.028528233990073204, 0.028753139078617096, 0.028785035014152527, 0.031092623248696327, 0.029816480353474617, 0.029653575271368027, 0.03070288710296154, 0.029864363372325897, 0.03238685429096222, 0.029214655980467796, 0.02981487847864628, 0.02947249263525009, 0.03137724846601486, 0.031444914638996124, 0.0310991033911705, 0.02792023867368698, 0.03025706857442856, 0.029016612097620964, 0.02946455404162407, 0.031720906496047974, 0.030436281114816666, 0.03137550503015518, 0.03054521046578884, 0.029460588470101357, 0.030039576813578606, 0.02918713539838791, 0.030444329604506493, 0.028263984248042107, 0.030994838103652, 0.028413904830813408, 0.02918841317296028, 0.032410092651844025, 0.028032081201672554, 0.03094504028558731, 0.0314992293715477, 0.03105621412396431, 0.02863967977464199, 0.030912650749087334, 0.028054602444171906, 0.029138198122382164, 0.029120853170752525, 0.029516318812966347, 0.029310880228877068, 0.028847914189100266, 0.03036121279001236, 0.02912241593003273, 0.030356626957654953, 0.03144506737589836, 0.02911285124719143, 0.03110053576529026, 0.029606664553284645, 0.0299376267939806, 0.029316404834389687, 0.02997421845793724, 0.028339577838778496, 0.030108783394098282, 0.029929472133517265, 0.030282169580459595, 0.02906329184770584, 0.029978709295392036, 0.02951696142554283, 0.028542913496494293, 0.03342168405652046, 0.028730563819408417, 0.02871404029428959, 0.027857128530740738, 0.028392957523465157, 0.03040298819541931, 0.03017466515302658, 0.031274061650037766, 0.029743105173110962, 0.030314749106764793, 0.028627650812268257, 0.02998458407819271, 0.029833713546395302, 0.029159899801015854, 0.02896043099462986, 0.03050347790122032, 0.029032068327069283, 0.029210787266492844, 0.029216695576906204, 0.030255679041147232, 0.03101998195052147, 0.029455985873937607, 0.029374415054917336, 0.0305533055216074, 0.028320441022515297, 0.028815587982535362, 0.028987670317292213, 0.029762743040919304, 0.028832949697971344, 0.028803065419197083, 0.027975983917713165, 0.028223956003785133, 0.028819724917411804, 0.028602970764040947, 0.03038015030324459, 0.029347538948059082, 0.029696336016058922, 0.028940474614501, 0.02901960164308548, 0.028333760797977448, 0.02787586860358715, 0.02843259461224079, 0.028810439631342888, 0.028789399191737175]