Epochs: 75
Input shape: (1000, 1000, 1)
Loss function: mean_absolute_error
Metric: mean_squared_error
Seed: 1
Test Percentage: 0.2
Test Part: 3
Train data length: 3428
Test data length: 857
shuffle_train_seed: 44207
shuffle_test_seed: 26381

MODEL SUMMARY
===========================
Model: "sequential"
_________________________________________________________________
 Layer (type)                Output Shape              Param #   
=================================================================
 Block0_Conv (Conv2D)        (None, 1000, 1000, 16)    160       
                                                                 
 Block0_Pool (MaxPooling2D)  (None, 500, 500, 16)      0         
                                                                 
 Block0_Norm (BatchNormaliza  (None, 500, 500, 16)     64        
 tion)                                                           
                                                                 
 Block1_Conv (Conv2D)        (None, 500, 500, 32)      4640      
                                                                 
 Block1_Pool (MaxPooling2D)  (None, 250, 250, 32)      0         
                                                                 
 Block1_Norm (BatchNormaliza  (None, 250, 250, 32)     128       
 tion)                                                           
                                                                 
 Block2_Conv (Conv2D)        (None, 250, 250, 64)      18496     
                                                                 
 Block2_Pool (MaxPooling2D)  (None, 125, 125, 64)      0         
                                                                 
 Block2_Norm (BatchNormaliza  (None, 125, 125, 64)     256       
 tion)                                                           
                                                                 
 Block3_Conv (Conv2D)        (None, 125, 125, 128)     73856     
                                                                 
 Block3_Pool (MaxPooling2D)  (None, 62, 62, 128)       0         
                                                                 
 Block3_Norm (BatchNormaliza  (None, 62, 62, 128)      512       
 tion)                                                           
                                                                 
 GlobalMaxPooling (GlobalMax  (None, 128)              0         
 Pooling2D)                                                      
                                                                 
 dropout (Dropout)           (None, 128)               0         
                                                                 
 Final_Dense (Dense)         (None, 256)               33024     
                                                                 
 output (Dense)              (None, 1)                 257       
                                                                 
=================================================================
Total params: 131,393
Trainable params: 130,913
Non-trainable params: 480
_________________________________________________________________

[0.47464025020599365, 0.49374401569366455, 0.3632107079029083, 0.34397071599960327, 0.3475175201892853, 0.3756939768791199, 0.2935198247432709, 0.21767646074295044, 0.20022131502628326, 0.1871234029531479, 0.17763487994670868, 0.1659609079360962, 0.15694229304790497, 0.14824116230010986, 0.13754937052726746, 0.1354798972606659, 0.13159401714801788, 0.1289387047290802, 0.12159885466098785, 0.11892786622047424, 0.11434754729270935, 0.11337222158908844, 0.10868501663208008, 0.10751236230134964, 0.10651981830596924, 0.10392378270626068, 0.0997900441288948, 0.09845896810293198, 0.10030141472816467, 0.097120001912117, 0.09353769570589066, 0.09081313014030457, 0.0910852774977684, 0.08851129561662674, 0.08657635748386383, 0.08423597365617752, 0.08366715162992477, 0.08364857733249664, 0.07954588532447815, 0.08021006733179092, 0.0758831799030304, 0.07807356119155884, 0.07417561113834381, 0.07374412566423416, 0.0723506286740303, 0.06781430542469025, 0.06681345403194427, 0.0669318437576294, 0.0650404691696167, 0.06181526929140091, 0.061759062111377716, 0.06049301475286484, 0.060776323080062866, 0.05830857902765274, 0.057914793491363525, 0.05488297715783119, 0.054396141320466995, 0.05351763963699341, 0.05208834260702133, 0.05077026039361954, 0.04809604585170746, 0.04902010038495064, 0.0485190711915493, 0.04670865461230278, 0.046523917466402054, 0.04807896167039871, 0.046244990080595016, 0.0441788025200367, 0.045524876564741135, 0.04585740342736244, 0.04394882544875145, 0.04327614605426788, 0.04215069115161896, 0.04224516823887825, 0.042991891503334045]
[0.6286378502845764, 0.34522658586502075, 0.4099220037460327, 0.31265178322792053, 0.3678685426712036, 0.344430536031723, 0.20553937554359436, 0.18850748240947723, 0.18133679032325745, 0.159572571516037, 0.15800392627716064, 0.1483592391014099, 0.14295454323291779, 0.13872458040714264, 0.14871348440647125, 0.12915556132793427, 0.1470659375190735, 0.15449294447898865, 0.1200307235121727, 0.12227851152420044, 0.12466312199831009, 0.12928412854671478, 0.11352033168077469, 0.11507081240415573, 0.11481428891420364, 0.11624135076999664, 0.10705451667308807, 0.10299656540155411, 0.10797745734453201, 0.10896948724985123, 0.1070009246468544, 0.10331904143095016, 0.09988141059875488, 0.09655120223760605, 0.09671371430158615, 0.09687372297048569, 0.09518743306398392, 0.10420408844947815, 0.1023876965045929, 0.09548252820968628, 0.12717773020267487, 0.09272848069667816, 0.10192990303039551, 0.09800303727388382, 0.09689788520336151, 0.09283140301704407, 0.08753877133131027, 0.0913604125380516, 0.10133607685565948, 0.087051622569561, 0.09759589284658432, 0.09076587110757828, 0.08862326294183731, 0.0843392014503479, 0.08090033382177353, 0.08592303097248077, 0.08386366069316864, 0.0830639973282814, 0.08294502645730972, 0.08037137985229492, 0.07613509893417358, 0.08023079484701157, 0.07756683230400085, 0.07996118068695068, 0.07516702264547348, 0.07833433151245117, 0.07251457870006561, 0.07622871547937393, 0.07399369031190872, 0.07334256172180176, 0.07853410392999649, 0.07923832535743713, 0.09381874650716782, 0.0901109129190445, 0.07549538463354111]