epoch,loss,mean_squared_error,val_loss,val_mean_squared_error
0,0.2520742118358612,0.10427185893058777,0.1809910088777542,0.052441488951444626
1,0.17682357132434845,0.051514632999897,0.14794248342514038,0.0363728366792202
2,0.15671294927597046,0.04128757864236832,0.13362859189510345,0.030428240075707436
3,0.13648457825183868,0.03213616833090782,0.12861832976341248,0.02776399441063404
4,0.12636122107505798,0.027935901656746864,0.11655360460281372,0.023000914603471756
5,0.1141459122300148,0.023416001349687576,0.11781679838895798,0.024028070271015167
6,0.10229416191577911,0.019097620621323586,0.10193803161382675,0.019467366859316826
7,0.09397774934768677,0.01612299308180809,0.10273362696170807,0.01860879734158516
8,0.08814605325460434,0.01394356694072485,0.10320000350475311,0.018256956711411476
9,0.08482172340154648,0.013104544952511787,0.09875515848398209,0.017723333090543747
10,0.07874219864606857,0.011370193213224411,0.10412009060382843,0.0194767527282238
11,0.07383821159601212,0.0101324999704957,0.09948081523180008,0.017601246014237404
12,0.07164030522108078,0.009445593692362309,0.09895753115415573,0.017358988523483276
13,0.06694535911083221,0.008368454873561859,0.09960712492465973,0.017529236152768135
14,0.06560338288545609,0.007855620235204697,0.11222811788320541,0.022088663652539253
15,0.06549933552742004,0.007799528073519468,0.0953720286488533,0.01608027145266533
16,0.0618671253323555,0.006912305485457182,0.0925326719880104,0.015682538971304893
17,0.05948307737708092,0.006488951854407787,0.0897897481918335,0.014979064464569092
0,0.05696967616677284,0.0059880660846829414,0.08853641897439957,0.014273862354457378
1,0.0555293969810009,0.005653162021189928,0.09977947920560837,0.017659947276115417
2,0.055490512400865555,0.005545195657759905,0.09604107588529587,0.016229839995503426
3,0.05197220295667648,0.005010583437979221,0.09226779639720917,0.014782263897359371
4,0.051397860050201416,0.004836122505366802,0.087196946144104,0.013993035070598125
5,0.051859501749277115,0.00487986346706748,0.08830896764993668,0.013880633749067783
6,0.05289098620414734,0.005101068411022425,0.09202813357114792,0.014876787550747395
7,0.048616450279951096,0.004294160753488541,0.08462264388799667,0.012854238040745258
8,0.04679512605071068,0.003994216676801443,0.08678065240383148,0.013214548118412495
9,0.04497080296278,0.003683050163090229,0.09206656366586685,0.014810827560722828
10,0.046448249369859695,0.003946362528949976,0.08792102336883545,0.014131849631667137
11,0.04541661590337753,0.0037188029382377863,0.0889996886253357,0.013891462236642838
12,0.04342564940452576,0.003472027601674199,0.08422765880823135,0.013425109907984734
13,0.042876966297626495,0.003325898665934801,0.08619777113199234,0.014138415455818176
14,0.0436607226729393,0.0034443330951035023,0.08749930560588837,0.014327876269817352
15,0.042081642895936966,0.0032096104696393013,0.09210110455751419,0.015775874257087708
16,0.04148556664586067,0.0031054795254021883,0.08612512797117233,0.013921082951128483
17,0.04005599766969681,0.0029249421786516905,0.0813022032380104,0.012429511174559593
18,0.0415828675031662,0.0031091494020074606,0.08510108292102814,0.013192599639296532
19,0.04014507681131363,0.0029485689010471106,0.08752336353063583,0.01392890140414238
20,0.04000524803996086,0.0029064221307635307,0.08672201633453369,0.01429933961480856
21,0.03975220024585724,0.002871780190616846,0.08779595792293549,0.014130651950836182
22,0.03950349986553192,0.0027992429677397013,0.0856974869966507,0.013601219281554222
23,0.03781626373529434,0.002544405870139599,0.09414517134428024,0.016097530722618103
24,0.03734293580055237,0.002504577161744237,0.08403308689594269,0.01283116452395916
25,0.038125116378068924,0.0026113570202142,0.08418330550193787,0.013044238090515137
26,0.03541241213679314,0.00225175847299397,0.08350944519042969,0.012873534113168716
27,0.03563607111573219,0.0022803782485425472,0.08332650363445282,0.012813004665076733
28,0.035550639033317566,0.00225844606757164,0.0831637755036354,0.012543579563498497
29,0.03563464805483818,0.0022890446707606316,0.08567667007446289,0.013147915713489056
30,0.0368940569460392,0.002428351901471615,0.08299333602190018,0.01269749365746975
31,0.03760075941681862,0.002544442191720009,0.08254943788051605,0.012445591390132904
32,0.03567366302013397,0.002294643549248576,0.08077152073383331,0.012541933916509151
33,0.03687567636370659,0.0024108500219881535,0.08840633183717728,0.015035239048302174
34,0.03357590734958649,0.0020171748474240303,0.08063854277133942,0.01221498753875494
35,0.03512722998857498,0.002208354650065303,0.0841519758105278,0.0129390899091959
36,0.03402961045503616,0.002062300918623805,0.08256746083498001,0.012367267161607742
37,0.03482644632458687,0.002162323333323002,0.08140134811401367,0.012447320856153965
38,0.03261890634894371,0.00189141312148422,0.08274918049573898,0.012710865586996078
39,0.032892659306526184,0.0019262982532382011,0.08503471314907074,0.012578928843140602
40,0.032374169677495956,0.0019183263648301363,0.08289305865764618,0.012255688197910786
41,0.033505555242300034,0.0019523873925209045,0.08547092974185944,0.012741598300635815
42,0.03332863003015518,0.0019696198869496584,0.08127737045288086,0.012175272218883038
43,0.032341696321964264,0.0018623067298904061,0.08542294055223465,0.013129539787769318
44,0.030287059023976326,0.0016240963013842702,0.08186779171228409,0.012021458707749844
45,0.030368085950613022,0.0016387182986363769,0.0844157338142395,0.012663083150982857
46,0.030475514009594917,0.00164671684615314,0.07990320771932602,0.012121482752263546
47,0.030344873666763306,0.0016430856194347143,0.08314008265733719,0.01312443520873785
48,0.03194320574402809,0.0018430361524224281,0.08304858207702637,0.012780709192156792
49,0.02998882345855236,0.0016217948868870735,0.08370951563119888,0.01315101608633995
50,0.029263146221637726,0.001538397860713303,0.08288895338773727,0.012720974162220955
51,0.030918005853891373,0.0017037546494975686,0.08092454820871353,0.012109031900763512
52,0.02955915965139866,0.001574304304085672,0.0788254514336586,0.011829208582639694
53,0.028604712337255478,0.001449133618734777,0.08086015284061432,0.011914368718862534
54,0.02754015289247036,0.001343712443485856,0.08198126405477524,0.012194715440273285
55,0.02972852811217308,0.0015388003084808588,0.08164223283529282,0.012228199280798435
56,0.031026996672153473,0.0017427520360797644,0.08042004704475403,0.011910105124115944
57,0.028569284826517105,0.0014486020663753152,0.08018051087856293,0.012022796086966991
58,0.028638556599617004,0.0014764182269573212,0.07849524170160294,0.01155818160623312
59,0.028983324766159058,0.0015139828901737928,0.07985513657331467,0.011919180862605572
60,0.02712971530854702,0.0013062764192000031,0.08027800172567368,0.011712636798620224
61,0.0271233469247818,0.0013157749781385064,0.08130710572004318,0.012004704214632511
62,0.029136307537555695,0.0015007129404693842,0.08145013451576233,0.012173941358923912
63,0.028105024248361588,0.001428350224159658,0.0806313306093216,0.011813628487288952
64,0.028073826804757118,0.001425794791430235,0.07977541536092758,0.011706392280757427
65,0.0271006990224123,0.001318327966146171,0.08224665373563766,0.012203974649310112
66,0.027691222727298737,0.0013816960854455829,0.0813995823264122,0.011916529387235641
67,0.026188138872385025,0.0012337215011939406,0.0795912891626358,0.011679176241159439
68,0.02660553902387619,0.0012946202186867595,0.08110292255878448,0.012074806727468967
69,0.026683637872338295,0.001285369973629713,0.08291621506214142,0.011992690153419971
70,0.028248293325304985,0.0014456993667408824,0.08294404298067093,0.01199033111333847
71,0.0275673009455204,0.001375054125674069,0.08281542360782623,0.011889193207025528
72,0.026358138769865036,0.0012399243423715234,0.08381778001785278,0.012677964754402637
73,0.026805028319358826,0.0012749526649713516,0.08222919702529907,0.012284396216273308
74,0.02635611593723297,0.0012232073349878192,0.08251722902059555,0.012145603075623512
75,0.026122894138097763,0.001256830058991909,0.08071077615022659,0.01183357648551464
76,0.02590569667518139,0.0012120563769713044,0.07821755111217499,0.011674931272864342
77,0.026235783472657204,0.001229037414304912,0.07893919199705124,0.011723875999450684
78,0.0259073656052351,0.00119307532440871,0.08249210566282272,0.012145787477493286
79,0.0262443870306015,0.0012361722765490413,0.07971642911434174,0.011890038847923279
80,0.027271078899502754,0.0013244784204289317,0.08353203535079956,0.012902609072625637
