Epochs: 75
Input shape: (1120, 1120, 2)
Loss function: mean_absolute_error
Metric: mean_squared_error
Seed: 1
Test Percentage: 0.2
Test Part: 1
Train data length: 2287
Test data length: 571

MODEL SUMMARY
===========================
Model: "sequential"
_________________________________________________________________
 Layer (type)                Output Shape              Param #   
=================================================================
 Block0_Conv (Conv2D)        (None, 1120, 1120, 16)    1168      
                                                                 
 Block0_Pool (MaxPooling2D)  (None, 560, 560, 16)      0         
                                                                 
 Block0_Norm (BatchNormaliza  (None, 560, 560, 16)     64        
 tion)                                                           
                                                                 
 Block1_Conv (Conv2D)        (None, 560, 560, 32)      4640      
                                                                 
 Block1_Pool (MaxPooling2D)  (None, 280, 280, 32)      0         
                                                                 
 Block1_Norm (BatchNormaliza  (None, 280, 280, 32)     128       
 tion)                                                           
                                                                 
 Block2_Conv (Conv2D)        (None, 280, 280, 64)      18496     
                                                                 
 Block2_Pool (MaxPooling2D)  (None, 140, 140, 64)      0         
                                                                 
 Block2_Norm (BatchNormaliza  (None, 140, 140, 64)     256       
 tion)                                                           
                                                                 
 Block3_Conv (Conv2D)        (None, 140, 140, 128)     73856     
                                                                 
 Block3_Pool (MaxPooling2D)  (None, 70, 70, 128)       0         
                                                                 
 Block3_Norm (BatchNormaliza  (None, 70, 70, 128)      512       
 tion)                                                           
                                                                 
 GlobalMaxPooling (GlobalMax  (None, 128)              0         
 Pooling2D)                                                      
                                                                 
 dropout (Dropout)           (None, 128)               0         
                                                                 
 Final_Dense (Dense)         (None, 256)               33024     
                                                                 
 output (Dense)              (None, 1)                 257       
                                                                 
=================================================================
Total params: 132,401
Trainable params: 131,921
Non-trainable params: 480
_________________________________________________________________

[0.19313640892505646, 0.15016046166419983, 0.14068938791751862, 0.13145551085472107, 0.12910039722919464, 0.12835942208766937, 0.12744171917438507, 0.12783873081207275, 0.1260673701763153, 0.1263532191514969, 0.12562304735183716, 0.12507405877113342, 0.12511561810970306, 0.1251181960105896, 0.12471675127744675, 0.12434384226799011, 0.12457211315631866, 0.1261056363582611, 0.12521269917488098, 0.1239902675151825, 0.12410540878772736, 0.12410539388656616, 0.12343750894069672, 0.1245625838637352, 0.12300274521112442, 0.12382442504167557, 0.12367402762174606, 0.12392804026603699, 0.12351884692907333, 0.12287285923957825, 0.12379142642021179, 0.1223740503191948, 0.12112916260957718, 0.1232256069779396, 0.12165839970111847, 0.1219717264175415, 0.12119586020708084, 0.12058864533901215, 0.12235679477453232, 0.11929908394813538, 0.11932938545942307, 0.11929581314325333, 0.11802719533443451, 0.1175246313214302, 0.11583887040615082, 0.1166049987077713, 0.11677131801843643, 0.11750323325395584, 0.115357406437397, 0.11271487921476364, 0.11422155797481537, 0.11316993832588196, 0.11266320198774338, 0.11278495192527771, 0.1104196235537529, 0.1104828342795372, 0.1115000918507576, 0.10884081572294235, 0.10858434438705444, 0.10970370471477509, 0.107703797519207, 0.10851393640041351, 0.1063167080283165, 0.1062130481004715, 0.10536887496709824, 0.10461128503084183, 0.1028694435954094, 0.10495942831039429, 0.10336849838495255, 0.10236526280641556, 0.10135644674301147, 0.10134325176477432, 0.10169976204633713, 0.10071368515491486, 0.09968116879463196]
[0.14858795702457428, 0.15704132616519928, 0.14463621377944946, 0.14833460748195648, 0.14630542695522308, 0.1500242054462433, 0.1493546962738037, 0.1527615636587143, 0.1526174247264862, 0.15111535787582397, 0.15495198965072632, 0.15097424387931824, 0.1521281898021698, 0.15417693555355072, 0.15243485569953918, 0.15434768795967102, 0.14096377789974213, 0.1524498462677002, 0.1522602140903473, 0.14548908174037933, 0.15390723943710327, 0.1518646776676178, 0.1519721895456314, 0.15362384915351868, 0.14430786669254303, 0.15380051732063293, 0.150037482380867, 0.15258587896823883, 0.15411409735679626, 0.15226976573467255, 0.15343911945819855, 0.15302570164203644, 0.15416604280471802, 0.1515418440103531, 0.15544630587100983, 0.15286800265312195, 0.15480872988700867, 0.15736939013004303, 0.1574646681547165, 0.15622955560684204, 0.15249280631542206, 0.15317875146865845, 0.15498735010623932, 0.15880215167999268, 0.15367548167705536, 0.15709318220615387, 0.15877175331115723, 0.15985694527626038, 0.15926067531108856, 0.16387403011322021, 0.16016142070293427, 0.1600397825241089, 0.16393285989761353, 0.15877819061279297, 0.15810203552246094, 0.1515657603740692, 0.16253671050071716, 0.14916932582855225, 0.1576310098171234, 0.1474251002073288, 0.15201076865196228, 0.16720466315746307, 0.16283170878887177, 0.14857086539268494, 0.16635330021381378, 0.1645648181438446, 0.16252562403678894, 0.16372399032115936, 0.15676093101501465, 0.17578883469104767, 0.16873836517333984, 0.16503560543060303, 0.16043302416801453, 0.17312587797641754, 0.1608705371618271]