Epochs: 300
Input shape: 256
Loss function: mean_absolute_error
Metric: mean_squared_error
Test Percentage: 0.2
Test Part: 4
Train data length: 1960
Test data length: 490

MODEL SUMMARY
===========================
Model: "sequential"
_________________________________________________________________
 Layer (type)                Output Shape              Param #   
=================================================================
 Dense (Dense)               (None, 25)                150       
                                                                 
 dropout (Dropout)           (None, 25)                0         
                                                                 
 Final_Dense (Dense)         (None, 25)                650       
                                                                 
 output (Dense)              (None, 1)                 26        
                                                                 
=================================================================
Total params: 826
Trainable params: 826
Non-trainable params: 0
_________________________________________________________________

[0.28564146161079407, 0.23786932229995728, 0.23470035195350647, 0.22969897091388702, 0.2267027497291565, 0.2228018045425415, 0.22002258896827698, 0.21884624660015106, 0.21773689985275269, 0.2145080864429474, 0.2156541347503662, 0.21418975293636322, 0.21391038596630096, 0.21404817700386047, 0.21364836394786835, 0.21360747516155243, 0.21296881139278412, 0.2119513899087906, 0.21160505712032318, 0.20931503176689148, 0.21139606833457947, 0.2104252129793167, 0.20941965281963348, 0.2103138267993927, 0.21065402030944824, 0.2094326913356781, 0.21000158786773682, 0.2105271816253662, 0.20875687897205353, 0.21025066077709198, 0.20712408423423767, 0.20783331990242004, 0.2083527147769928, 0.208542138338089, 0.20926763117313385, 0.20838366448879242, 0.2072296440601349, 0.20714595913887024, 0.20612676441669464, 0.2059374451637268, 0.20677070319652557, 0.20597492158412933, 0.20794013142585754, 0.20684443414211273, 0.2059754729270935, 0.20412559807300568, 0.20608653128147125, 0.20535165071487427, 0.20499010384082794, 0.20501594245433807, 0.20443764328956604, 0.20575104653835297, 0.20379507541656494, 0.20442508161067963, 0.20297673344612122, 0.2024007886648178, 0.20173217356204987, 0.20229125022888184, 0.20082369446754456, 0.20088569819927216, 0.20105011761188507, 0.19874770939350128, 0.2004697024822235, 0.19931240379810333, 0.19893068075180054, 0.19792236387729645, 0.19658337533473969, 0.19761109352111816, 0.19679923355579376, 0.1955239176750183, 0.1966599076986313, 0.19567887485027313, 0.1954789012670517, 0.19396187365055084, 0.19342952966690063, 0.19365887343883514, 0.19418810307979584, 0.194930762052536, 0.19376567006111145, 0.1941690295934677, 0.19426074624061584, 0.19411657750606537, 0.1931912899017334, 0.1937575787305832, 0.19335606694221497, 0.1938188672065735, 0.19323930144309998, 0.19337378442287445, 0.19175322353839874, 0.1921709030866623, 0.19083043932914734, 0.19477081298828125, 0.19294297695159912, 0.19219109416007996, 0.19243736565113068, 0.1934763491153717, 0.19142106175422668, 0.19032876193523407, 0.19035694003105164, 0.1908913403749466, 0.19088372588157654, 0.1911303550004959, 0.19119739532470703, 0.19060850143432617, 0.19253681600093842, 0.18933358788490295, 0.19110676646232605, 0.19033166766166687, 0.19105872511863708, 0.1906745582818985, 0.19138073921203613, 0.1933729201555252, 0.19064883887767792, 0.19153130054473877, 0.19015975296497345, 0.18980279564857483, 0.18912561237812042, 0.19099043309688568, 0.18961915373802185, 0.1876438558101654, 0.18962575495243073, 0.18821510672569275, 0.19017940759658813, 0.19057925045490265, 0.18928305804729462, 0.1902874857187271, 0.18976351618766785, 0.1908184140920639, 0.190537229180336, 0.19028659164905548, 0.18960781395435333, 0.1872134804725647, 0.19011832773685455, 0.19008685648441315, 0.19224116206169128, 0.18898051977157593, 0.1894930750131607, 0.18983252346515656, 0.1902334839105606, 0.18875816464424133, 0.19045604765415192, 0.18939508497714996, 0.19076165556907654, 0.18956336379051208, 0.19165657460689545, 0.19083167612552643, 0.19017291069030762, 0.18965278565883636, 0.1886763870716095, 0.19039003551006317, 0.1898469179868698, 0.18897488713264465, 0.1888020932674408, 0.1898987889289856, 0.18727990984916687, 0.1877470463514328, 0.18863804638385773, 0.1899457573890686, 0.18909958004951477, 0.18928727507591248, 0.1876378208398819, 0.19050641357898712, 0.18770968914031982, 0.1908072531223297, 0.1902793049812317, 0.1871468722820282, 0.18902766704559326, 0.18900389969348907, 0.18966814875602722, 0.18878056108951569, 0.18907873332500458, 0.18643227219581604, 0.19008061289787292, 0.1897333562374115, 0.18678107857704163, 0.186971053481102, 0.1879819631576538, 0.1878664791584015, 0.18771116435527802, 0.1889268308877945, 0.18548060953617096, 0.18897394835948944, 0.18979693949222565, 0.1861163228750229, 0.18730513751506805, 0.18825320899486542, 0.18734757602214813, 0.18828420341014862, 0.18920347094535828, 0.18899202346801758, 0.18706543743610382, 0.1858062595129013, 0.18674568831920624, 0.1834452599287033, 0.18530859053134918, 0.18681493401527405, 0.1838330626487732, 0.18260785937309265, 0.18567198514938354, 0.18883582949638367, 0.18517246842384338, 0.1842634379863739, 0.18763934075832367, 0.18450753390789032, 0.18601785600185394, 0.1858670860528946, 0.18696795403957367, 0.1853400021791458, 0.18524686992168427, 0.1877109259366989, 0.18501926958560944, 0.18562345206737518, 0.18581226468086243, 0.18097558617591858, 0.1868826150894165, 0.18629330396652222, 0.18500319123268127, 0.18563291430473328, 0.1850651502609253, 0.18605723977088928, 0.18524566292762756, 0.1859002709388733, 0.18553344905376434, 0.18500511348247528, 0.18352089822292328, 0.18444643914699554, 0.18646810948848724, 0.18354494869709015, 0.1862035095691681, 0.18252694606781006, 0.1849512904882431, 0.18439257144927979, 0.18337896466255188, 0.18349075317382812, 0.18603694438934326, 0.18172329664230347, 0.18605594336986542, 0.18304722011089325, 0.1814751923084259, 0.18510545790195465, 0.1823473870754242, 0.18296343088150024, 0.18159691989421844, 0.18364432454109192, 0.18553070724010468, 0.1822185218334198, 0.18425171077251434, 0.18190404772758484, 0.18406009674072266, 0.18246448040008545, 0.1827353537082672, 0.18373553454875946, 0.18374532461166382, 0.18242791295051575, 0.1837819665670395, 0.18499581515789032, 0.1840061992406845, 0.18112005293369293, 0.18214496970176697, 0.1811954826116562, 0.18595588207244873, 0.18085810542106628, 0.18132326006889343, 0.1803978532552719, 0.1840691715478897, 0.18161816895008087, 0.18226264417171478, 0.1833392083644867, 0.1821916550397873, 0.18070624768733978, 0.1845315545797348, 0.18054892122745514, 0.1815958172082901, 0.18024605512619019, 0.18103179335594177, 0.1830587387084961, 0.1815984547138214, 0.18044626712799072, 0.1803979128599167, 0.1792813092470169, 0.17907597124576569, 0.1802145391702652, 0.18261843919754028, 0.1819479763507843, 0.18001440167427063, 0.1800345927476883, 0.18006454408168793, 0.18256165087223053, 0.18069082498550415, 0.17983552813529968, 0.18287687003612518, 0.1796136200428009, 0.18248504400253296, 0.17935164272785187, 0.1845601201057434, 0.1809522807598114, 0.1808173507452011, 0.18403778970241547, 0.18113382160663605, 0.18124644458293915]
[0.25648748874664307, 0.2546112537384033, 0.2512306571006775, 0.24710479378700256, 0.24368318915367126, 0.24016769230365753, 0.23893021047115326, 0.23814164102077484, 0.23771817982196808, 0.23741936683654785, 0.2370472252368927, 0.2366999387741089, 0.23649023473262787, 0.23598450422286987, 0.23621368408203125, 0.23569802939891815, 0.23565270006656647, 0.23513762652873993, 0.23477299511432648, 0.2344123274087906, 0.23395395278930664, 0.23358391225337982, 0.2337074726819992, 0.2329879105091095, 0.23268865048885345, 0.23305505514144897, 0.2326241433620453, 0.23242826759815216, 0.23298105597496033, 0.2327919602394104, 0.23228062689304352, 0.23108628392219543, 0.23117056488990784, 0.23123571276664734, 0.23034411668777466, 0.22989536821842194, 0.2295481264591217, 0.2300097495317459, 0.22884391248226166, 0.22853772342205048, 0.22797095775604248, 0.22927764058113098, 0.2298087626695633, 0.22621862590312958, 0.22779566049575806, 0.22626365721225739, 0.22622254490852356, 0.22695927321910858, 0.2263423651456833, 0.22535473108291626, 0.22458969056606293, 0.2238069325685501, 0.22276028990745544, 0.22355590760707855, 0.22217318415641785, 0.22272349894046783, 0.22093172371387482, 0.22113484144210815, 0.21910442411899567, 0.21942217648029327, 0.21823301911354065, 0.21814276278018951, 0.21816733479499817, 0.2177027016878128, 0.21591734886169434, 0.21442162990570068, 0.21471339464187622, 0.21419736742973328, 0.21290011703968048, 0.21249543130397797, 0.2124447524547577, 0.21354079246520996, 0.21175791323184967, 0.21108734607696533, 0.21085426211357117, 0.211287260055542, 0.21092991530895233, 0.21075181663036346, 0.2104910910129547, 0.21038807928562164, 0.2107590287923813, 0.2103259116411209, 0.21032150089740753, 0.20990844070911407, 0.20987577736377716, 0.20941832661628723, 0.210081085562706, 0.20931367576122284, 0.2082788646221161, 0.2090045064687729, 0.209178626537323, 0.20913268625736237, 0.20829302072525024, 0.20878495275974274, 0.20917142927646637, 0.20824915170669556, 0.20833668112754822, 0.207389697432518, 0.20922957360744476, 0.20773343741893768, 0.208737313747406, 0.20809130370616913, 0.20624881982803345, 0.20733392238616943, 0.20673909783363342, 0.20568743348121643, 0.20628657937049866, 0.2065112143754959, 0.206232488155365, 0.2074805349111557, 0.20646710693836212, 0.20631590485572815, 0.20620399713516235, 0.20580168068408966, 0.20603731274604797, 0.20611310005187988, 0.20614305138587952, 0.20579101145267487, 0.20542727410793304, 0.20556823909282684, 0.20572419464588165, 0.20512117445468903, 0.20673005282878876, 0.2058979719877243, 0.2054203301668167, 0.20460756123065948, 0.20678076148033142, 0.2053501009941101, 0.20456281304359436, 0.20499002933502197, 0.20502163469791412, 0.20521606504917145, 0.20488309860229492, 0.2044307291507721, 0.20491737127304077, 0.20539262890815735, 0.20711733400821686, 0.20477727055549622, 0.20435316860675812, 0.2047969251871109, 0.20625925064086914, 0.20454661548137665, 0.20387907326221466, 0.20625033974647522, 0.2043318897485733, 0.2040087729692459, 0.2042396515607834, 0.20396342873573303, 0.20435436069965363, 0.2052663415670395, 0.2056356817483902, 0.20433780550956726, 0.2071530818939209, 0.20346678793430328, 0.20306028425693512, 0.2044658064842224, 0.2027824968099594, 0.20319965481758118, 0.2040138989686966, 0.2056858241558075, 0.20381851494312286, 0.20321469008922577, 0.20481039583683014, 0.2065405249595642, 0.20473122596740723, 0.20403942465782166, 0.2030695378780365, 0.20351846516132355, 0.203428253531456, 0.20393185317516327, 0.2036048173904419, 0.2045762985944748, 0.2041994035243988, 0.20375725626945496, 0.20289871096611023, 0.2047213613986969, 0.20499084889888763, 0.2026490420103073, 0.20311181247234344, 0.2052515149116516, 0.20382393896579742, 0.20802780985832214, 0.20473718643188477, 0.20529688894748688, 0.20463263988494873, 0.2060970515012741, 0.2038840502500534, 0.20307764410972595, 0.20333954691886902, 0.20196650922298431, 0.20152731239795685, 0.2022194266319275, 0.2017189860343933, 0.20292869210243225, 0.20262353122234344, 0.2033572793006897, 0.2047012597322464, 0.20457792282104492, 0.2012336701154709, 0.20301078259944916, 0.1999046951532364, 0.2021269053220749, 0.20103198289871216, 0.1991429477930069, 0.2065374106168747, 0.2017011046409607, 0.20069098472595215, 0.2000393271446228, 0.20047414302825928, 0.20087392628192902, 0.20209722220897675, 0.20017579197883606, 0.19846594333648682, 0.2041991949081421, 0.19968369603157043, 0.20239917933940887, 0.20147253572940826, 0.19953475892543793, 0.19990713894367218, 0.20194171369075775, 0.20077019929885864, 0.20109111070632935, 0.20248699188232422, 0.19950225949287415, 0.19769173860549927, 0.20007960498332977, 0.19851969182491302, 0.19909244775772095, 0.1981607973575592, 0.20005592703819275, 0.20095692574977875, 0.19872422516345978, 0.1970098316669464, 0.19834019243717194, 0.1991925835609436, 0.19881337881088257, 0.2016286551952362, 0.19775551557540894, 0.19842424988746643, 0.19676163792610168, 0.19747674465179443, 0.19868122041225433, 0.1992131471633911, 0.20229612290859222, 0.19797581434249878, 0.19707605242729187, 0.19754041731357574, 0.2014644294977188, 0.2000996172428131, 0.1996273249387741, 0.19777411222457886, 0.2009289562702179, 0.19895169138908386, 0.20114757120609283, 0.20126424729824066, 0.20063205063343048, 0.1983046978712082, 0.19980008900165558, 0.19966678321361542, 0.19881321489810944, 0.19802434742450714, 0.20004583895206451, 0.20008988678455353, 0.19756849110126495, 0.1996619552373886, 0.19917796552181244, 0.2007507085800171, 0.19571933150291443, 0.1983344852924347, 0.19763606786727905, 0.20088334381580353, 0.19979311525821686, 0.19691181182861328, 0.19718968868255615, 0.1977241188287735, 0.19702772796154022, 0.199131041765213, 0.1969868242740631, 0.19993266463279724, 0.19669635593891144, 0.1980898529291153, 0.1981225609779358, 0.19608622789382935, 0.19523195922374725, 0.20134228467941284, 0.19559723138809204, 0.19769595563411713, 0.19718489050865173, 0.19933770596981049, 0.20150718092918396, 0.20011846721172333, 0.19997113943099976, 0.19684378802776337, 0.19701707363128662, 0.1959274858236313, 0.1985667645931244, 0.1991230845451355, 0.1941656917333603, 0.19740091264247894, 0.19979217648506165]