epoch,loss,mean_squared_error,val_loss,val_mean_squared_error
0,0.2801882326602936,0.1229250580072403,0.19252550601959229,0.05468633398413658
1,0.20867876708507538,0.06670262664556503,0.16384002566337585,0.04273047298192978
2,0.18963918089866638,0.056580498814582825,0.15870633721351624,0.03668533265590668
3,0.175016850233078,0.04955841600894928,0.14355581998825073,0.033259134739637375
4,0.16458220779895782,0.04402662813663483,0.13649867475032806,0.02906668186187744
5,0.15345746278762817,0.03878147900104523,0.1340869665145874,0.028489530086517334
6,0.14712406694889069,0.0361255519092083,0.14143489301204681,0.03023647516965866
7,0.13673610985279083,0.031853970140218735,0.1376238763332367,0.028825849294662476
8,0.1339048147201538,0.03030954860150814,0.11631235480308533,0.02311711199581623
9,0.12783506512641907,0.028206899762153625,0.12557664513587952,0.02518167346715927
10,0.1250343918800354,0.026539059355854988,0.1345207244157791,0.027872875332832336
11,0.12109404057264328,0.02560441382229328,0.1469125896692276,0.03272879868745804
12,0.11674011498689651,0.02388053759932518,0.11449840664863586,0.0211868267506361
13,0.11513541638851166,0.022906672209501266,0.15519952774047852,0.03872218355536461
14,0.11248994618654251,0.022240251302719116,0.11122717708349228,0.019684413447976112
15,0.10733810067176819,0.020206907764077187,0.11734583228826523,0.02209595777094364
16,0.10510263592004776,0.019363967701792717,0.11047988384962082,0.01901228539645672
17,0.10298886895179749,0.01879572682082653,0.1017923355102539,0.017871441319584846
18,0.09942612051963806,0.017596960067749023,0.10857928544282913,0.019663281738758087
19,0.0954054743051529,0.016368871554732323,0.10689933598041534,0.020490966737270355
20,0.09144885838031769,0.015145878307521343,0.0943024531006813,0.015455066226422787
21,0.08850224316120148,0.014251694083213806,0.09282086789608002,0.015429731458425522
22,0.0846511647105217,0.013151957653462887,0.09029124677181244,0.014263724908232689
23,0.08140839636325836,0.012300941161811352,0.08405304700136185,0.012912594713270664
24,0.0772218257188797,0.011180241592228413,0.0819132998585701,0.01241432037204504
25,0.07675770670175552,0.010898977518081665,0.08393591642379761,0.012730235233902931
26,0.07312972098588943,0.010049620643258095,0.08170011639595032,0.012195920571684837
27,0.07248465716838837,0.009863524697721004,0.08170968294143677,0.012405197136104107
28,0.06955894082784653,0.009080978110432625,0.08768413960933685,0.014264564029872417
29,0.06746687740087509,0.008718890137970448,0.08382592350244522,0.01333894394338131
30,0.06598372012376785,0.008289140649139881,0.07812071591615677,0.011598593555390835
31,0.06529057770967484,0.00805185828357935,0.08241061121225357,0.013049429282546043
32,0.06351213902235031,0.007838714867830276,0.08086802065372467,0.01195907685905695
0,0.06201611086726189,0.007484852336347103,0.0821622759103775,0.012844384647905827
1,0.06079171970486641,0.007160675711929798,0.07816077023744583,0.011583288200199604
2,0.060556210577487946,0.006912346929311752,0.07951609790325165,0.011681878007948399
3,0.0596703439950943,0.006732748355716467,0.08147338777780533,0.01213871594518423
4,0.06015718728303909,0.006807839497923851,0.07637203484773636,0.011122970841825008
5,0.05763586610555649,0.006289770361036062,0.07559038698673248,0.010719499550759792
6,0.05813441053032875,0.00638954434543848,0.08324438333511353,0.013058309443295002
7,0.05669623240828514,0.006044316571205854,0.07586974650621414,0.011077449657022953
8,0.05773574113845825,0.006229524966329336,0.07618965953588486,0.011395475827157497
9,0.055713292211294174,0.005925072357058525,0.07604958862066269,0.011018292978405952
10,0.05557510629296303,0.005899682641029358,0.07388108223676682,0.01044504065066576
11,0.05428558588027954,0.005446607246994972,0.0793549045920372,0.011350402608513832
12,0.05508873239159584,0.005699928384274244,0.07680007815361023,0.01106349192559719
13,0.05342771112918854,0.005349758081138134,0.07244809716939926,0.010116631165146828
14,0.053445786237716675,0.005310140550136566,0.07557664066553116,0.010822423733770847
15,0.053695522248744965,0.005360324867069721,0.07420268654823303,0.010570766404271126
16,0.05179687216877937,0.00502027478069067,0.07360953092575073,0.010467966087162495
17,0.051905859261751175,0.004975250456482172,0.08203423768281937,0.01213585864752531
18,0.051007822155952454,0.004846333991736174,0.07274902611970901,0.010252873413264751
19,0.051247771829366684,0.00487828953191638,0.07417023926973343,0.010209387168288231
20,0.050388943403959274,0.004741216544061899,0.0751149132847786,0.010744473896920681
21,0.050811249762773514,0.004787778947502375,0.07225745171308517,0.009668892249464989
22,0.049519773572683334,0.004629095550626516,0.07478781044483185,0.010562555864453316
0,0.04944688826799393,0.004531934391707182,0.07265783846378326,0.010194051079452038
1,0.04925656318664551,0.0045393528416752815,0.07719828188419342,0.011286184191703796
2,0.048345137387514114,0.00426369858905673,0.07058164477348328,0.009899619966745377
3,0.04822593554854393,0.004296461120247841,0.07392839342355728,0.010245351120829582
4,0.04768044501543045,0.00420042872428894,0.07207551598548889,0.010065768845379353
5,0.04761552810668945,0.004195930901914835,0.07063137739896774,0.009897553361952305
6,0.04785206541419029,0.004265912808477879,0.07124567031860352,0.009891092777252197
7,0.04745323956012726,0.0041805775836110115,0.07217239588499069,0.010403224267065525
8,0.04790433496236801,0.004223785363137722,0.07589596509933472,0.011566932313144207
9,0.04687970504164696,0.004058695398271084,0.07158872485160828,0.009575257077813148
10,0.04604916647076607,0.0039061165880411863,0.07394114136695862,0.009970352053642273
11,0.04550497233867645,0.003837068099528551,0.07138557732105255,0.009978126734495163
12,0.046066153794527054,0.003918477334082127,0.0722552165389061,0.009857021272182465
13,0.04657435044646263,0.00398809602484107,0.07772257179021835,0.01183366496115923
14,0.04602590203285217,0.003801403334364295,0.07534594088792801,0.010677066631615162
15,0.04506758973002434,0.003725872840732336,0.07108230888843536,0.009622643701732159
16,0.044519077986478806,0.0036460261326283216,0.07021457701921463,0.009572052396833897
17,0.04421341419219971,0.003633882850408554,0.07552462816238403,0.01074292417615652
18,0.04438265040516853,0.0035877907648682594,0.0741439089179039,0.010562354698777199
19,0.043924909085035324,0.003511670045554638,0.0694422498345375,0.009358973242342472
20,0.04482352361083031,0.0036998947616666555,0.07517894357442856,0.010273166932165623
21,0.04461733624339104,0.0036112258676439524,0.0695820078253746,0.009762579575181007
22,0.04401395097374916,0.003539839992299676,0.07499008625745773,0.010512607172131538
23,0.04370082542300224,0.0034575085155665874,0.07218733429908752,0.009936799295246601
24,0.04389108344912529,0.0034937516320496798,0.07129288464784622,0.009812756441533566
25,0.0435316376388073,0.0034443235490471125,0.07207448780536652,0.009865738451480865
26,0.043662551790475845,0.0034728485625237226,0.07350876927375793,0.01020853966474533
27,0.043665651232004166,0.0034623583778738976,0.07137062400579453,0.009429422207176685
28,0.042554471641778946,0.003244831459596753,0.06976541876792908,0.00956222228705883
29,0.04308423772454262,0.0034415412228554487,0.06977324187755585,0.009360489435493946
30,0.04255406931042671,0.003288380103185773,0.07114554196596146,0.00999737810343504
31,0.04320983588695526,0.003430782351642847,0.07236222177743912,0.010016032494604588
32,0.04215259104967117,0.0032309480011463165,0.06921715289354324,0.009201453998684883
33,0.041939131915569305,0.003250086447224021,0.07309085875749588,0.01008128933608532
34,0.042015645653009415,0.0031417254358530045,0.07224103808403015,0.010301104746758938
35,0.0416426882147789,0.003141240682452917,0.0684235692024231,0.009086835198104382
36,0.041052237153053284,0.0030553771648555994,0.07141097635030746,0.009366587735712528
37,0.041926104575395584,0.0032603114377707243,0.06888192147016525,0.009070945903658867
38,0.04112895578145981,0.003091521793976426,0.07178331166505814,0.00978709477931261
39,0.040551990270614624,0.0030101449228823185,0.07182499766349792,0.010188782587647438
40,0.04129314422607422,0.003144240705296397,0.07114143669605255,0.009649156592786312
41,0.04120320454239845,0.0030997982248663902,0.0705077052116394,0.009897422976791859
42,0.04160092771053314,0.003124524839222431,0.06812947988510132,0.009285923093557358
43,0.04039378836750984,0.0029077257495373487,0.06925599277019501,0.009223110973834991
44,0.040482472628355026,0.0030115575063973665,0.07405368238687515,0.011371956206858158
