Epochs: 200
Input shape: 256
Loss function: mean_absolute_error
Metric: mean_squared_error
Test Percentage: 0.2
Test Part: 4
Train data length: 1960
Test data length: 490

MODEL SUMMARY
===========================
Model: "sequential"
_________________________________________________________________
 Layer (type)                Output Shape              Param #   
=================================================================
 Dense (Dense)               (None, 256)               65792     
                                                                 
 Final_Dense (Dense)         (None, 256)               65792     
                                                                 
 dropout (Dropout)           (None, 256)               0         
                                                                 
 FinalFinal_Dense (Dense)    (None, 256)               65792     
                                                                 
 output (Dense)              (None, 1)                 257       
                                                                 
=================================================================
Total params: 197,633
Trainable params: 197,633
Non-trainable params: 0
_________________________________________________________________

[0.1550336480140686, 0.1197614073753357, 0.11393258720636368, 0.09848736226558685, 0.09016695618629456, 0.08288949728012085, 0.07641599327325821, 0.0703640729188919, 0.0631917417049408, 0.06155324727296829, 0.05915265157818794, 0.05596481263637543, 0.05511866882443428, 0.049554042518138885, 0.04785779491066933, 0.04452008754014969, 0.04639457166194916, 0.04602807015180588, 0.04312746971845627, 0.03877183049917221, 0.039188504219055176, 0.038570910692214966, 0.03682105243206024, 0.03582462668418884, 0.03485308587551117, 0.03641480579972267, 0.03570528328418732, 0.03308217227458954, 0.03385625779628754, 0.03355458006262779, 0.03195352107286453, 0.031035179272294044, 0.03147241845726967, 0.02993796579539776, 0.03002510592341423, 0.028993848711252213, 0.028888508677482605, 0.027861379086971283, 0.027817687019705772, 0.027634283527731895, 0.026758641004562378, 0.027511456981301308, 0.026667892932891846, 0.026889493688941002, 0.02776351198554039, 0.025986231863498688, 0.02709881402552128, 0.02681834250688553, 0.025076333433389664, 0.023751690983772278, 0.023819345980882645, 0.023929476737976074, 0.0232660174369812, 0.02314366213977337, 0.02281475067138672, 0.02350076101720333, 0.022827403619885445, 0.022768937051296234, 0.02240276150405407, 0.022803599014878273, 0.022339461371302605, 0.02328099124133587, 0.022373845800757408, 0.02075006626546383, 0.021199002861976624, 0.020886238664388657, 0.021340934559702873, 0.0215136855840683, 0.019434798508882523, 0.020627355203032494, 0.01970858685672283, 0.02081817388534546, 0.019515346735715866, 0.0193492341786623, 0.01919122412800789, 0.019555913284420967, 0.017763862386345863, 0.01947793923318386, 0.018903538584709167, 0.01837504655122757, 0.02038189396262169, 0.019684214144945145, 0.019064493477344513, 0.020436381921172142, 0.01851513981819153, 0.01868014968931675, 0.017616434022784233, 0.017957672476768494, 0.018350962549448013, 0.01880800910294056, 0.016671106219291687, 0.017475716769695282, 0.01796831376850605, 0.017944565042853355, 0.01698393002152443, 0.017012499272823334, 0.017615897580981255, 0.01661555841565132, 0.016437750309705734, 0.016651827841997147, 0.015700411051511765, 0.016352664679288864, 0.01647348143160343, 0.016745947301387787, 0.015734557062387466, 0.01516624353826046, 0.015397460199892521, 0.015137053094804287, 0.015402373857796192, 0.015465584583580494, 0.014785366132855415, 0.014497961848974228, 0.015468994155526161, 0.014768639579415321, 0.014927187003195286, 0.01403139065951109, 0.01416349783539772, 0.014404085464775562, 0.015327729284763336, 0.014186815358698368, 0.014693436212837696, 0.01313063595443964, 0.014075120911002159, 0.013142142444849014, 0.012935593724250793, 0.01449266541749239, 0.013912087306380272, 0.012893951497972012, 0.012555628083646297, 0.013741577044129372, 0.013128059916198254, 0.013399912044405937, 0.012262511067092419, 0.013060946948826313, 0.012190251611173153, 0.013513334095478058, 0.01349566038697958, 0.01305503398180008, 0.01195911131799221, 0.011500393971800804, 0.012287944555282593, 0.012479386292397976, 0.012226313352584839, 0.013722186908125877, 0.011696386151015759, 0.01221414189785719, 0.01154296100139618, 0.01133438479155302, 0.011647009290754795, 0.012175588868558407, 0.012193582952022552, 0.011267013847827911, 0.011596450582146645, 0.013000781647861004, 0.011508255265653133, 0.011577914468944073, 0.010987031273543835, 0.011987519450485706, 0.01140226423740387, 0.011102569289505482, 0.011317756026983261, 0.011264944449067116, 0.011288287118077278, 0.011496935039758682, 0.010991424322128296, 0.010704034939408302, 0.01075076311826706, 0.01048662792891264, 0.010640665888786316, 0.011064667254686356, 0.010359024628996849, 0.010814735665917397, 0.010817374102771282, 0.011288209818303585, 0.011065707542002201, 0.010670765303075314, 0.01053067296743393, 0.010377432219684124, 0.010411915369331837, 0.010382555425167084, 0.010082858614623547, 0.010609169490635395, 0.0103900833055377, 0.010036835446953773, 0.010531011037528515, 0.010680953972041607, 0.01028965413570404, 0.010044414550065994, 0.01056036725640297, 0.010219203308224678, 0.010265301913022995, 0.009988725185394287, 0.010058079846203327, 0.010193642228841782, 0.009651725180447102, 0.009347973391413689, 0.00944568682461977, 0.009291366674005985, 0.009867073968052864, 0.009529819712042809]
[0.1344904601573944, 0.13362935185432434, 0.11854643374681473, 0.11648626625537872, 0.10937190055847168, 0.10422194004058838, 0.09389084577560425, 0.07755599170923233, 0.09489984065294266, 0.08206136524677277, 0.07670789957046509, 0.08766008913516998, 0.0845436379313469, 0.07055798172950745, 0.07552612572908401, 0.07956627756357193, 0.07513928413391113, 0.07763785123825073, 0.0757119357585907, 0.06982747465372086, 0.07206900417804718, 0.06899306923151016, 0.0651528611779213, 0.07205487042665482, 0.06597602367401123, 0.06634190678596497, 0.08116080611944199, 0.08002402633428574, 0.06857576966285706, 0.0646829679608345, 0.06330898404121399, 0.06680639088153839, 0.07609035074710846, 0.06644871085882187, 0.06416735798120499, 0.06335069984197617, 0.0668768361210823, 0.06191127002239227, 0.06346036493778229, 0.05846893787384033, 0.06817296147346497, 0.0648856982588768, 0.07117779552936554, 0.06582897156476974, 0.06218189746141434, 0.06285690516233444, 0.06711962074041367, 0.06556874513626099, 0.06597776710987091, 0.06149730831384659, 0.064252108335495, 0.06449846178293228, 0.06292461603879929, 0.06047119200229645, 0.06322688609361649, 0.06250692903995514, 0.06012444570660591, 0.06419406086206436, 0.06295671314001083, 0.0581660196185112, 0.06861434131860733, 0.06344559788703918, 0.06585433334112167, 0.06006212905049324, 0.06250288337469101, 0.06236029788851738, 0.06312503665685654, 0.06656923145055771, 0.061779577285051346, 0.06360112875699997, 0.06548485904932022, 0.061516690999269485, 0.060077399015426636, 0.061653509736061096, 0.06559203565120697, 0.06663064658641815, 0.06511461734771729, 0.06434178352355957, 0.06191370263695717, 0.059872254729270935, 0.06847020238637924, 0.05894022062420845, 0.0616808757185936, 0.058943722397089005, 0.06864848732948303, 0.06137425824999809, 0.06372170150279999, 0.055182427167892456, 0.0670287236571312, 0.06722023338079453, 0.05948878079652786, 0.06017922982573509, 0.06034338101744652, 0.060941729694604874, 0.05679367110133171, 0.06410003453493118, 0.06634768098592758, 0.06569163501262665, 0.06062055379152298, 0.06814433634281158, 0.06114770472049713, 0.06544338166713715, 0.06943957507610321, 0.056364793330430984, 0.06027602031826973, 0.060198619961738586, 0.058930668979883194, 0.06020133197307587, 0.061406299471855164, 0.06002776324748993, 0.0602877140045166, 0.056140851229429245, 0.06469587236642838, 0.06338417530059814, 0.05273834988474846, 0.05999374017119408, 0.05536096543073654, 0.05655971169471741, 0.05839564651250839, 0.058486778289079666, 0.05304795131087303, 0.04608337581157684, 0.05860656127333641, 0.05995200201869011, 0.05295513942837715, 0.05597260594367981, 0.055941399186849594, 0.058410439640283585, 0.0561068058013916, 0.05245846509933472, 0.05050870031118393, 0.05668318271636963, 0.04998089745640755, 0.05429190769791603, 0.0497947558760643, 0.052746083587408066, 0.05336214229464531, 0.05233151465654373, 0.05287688225507736, 0.05039907246828079, 0.048150137066841125, 0.04831206426024437, 0.05061786621809006, 0.052344128489494324, 0.05337625741958618, 0.05340776965022087, 0.05797848477959633, 0.049340054392814636, 0.05141806975007057, 0.04697003588080406, 0.052846312522888184, 0.04750194028019905, 0.04744475707411766, 0.046730585396289825, 0.04782940819859505, 0.048743076622486115, 0.04831916093826294, 0.06013801693916321, 0.04674695059657097, 0.050421666353940964, 0.05064128339290619, 0.048611246049404144, 0.052118923515081406, 0.04378722980618477, 0.05014676973223686, 0.05080172047019005, 0.048877276480197906, 0.04899931699037552, 0.05126657709479332, 0.04792441427707672, 0.041792865842580795, 0.050379373133182526, 0.050614651292562485, 0.05169670283794403, 0.04976680502295494, 0.048648860305547714, 0.04837410897016525, 0.04960065335035324, 0.05011940374970436, 0.05280246585607529, 0.04817229136824608, 0.04842318594455719, 0.05019453540444374, 0.05272664502263069, 0.05641096085309982, 0.053054384887218475, 0.055234845727682114, 0.050451308488845825, 0.05565520003437996, 0.058921005576848984, 0.05157160758972168, 0.04948565736413002, 0.054153889417648315, 0.049252331256866455, 0.04884454607963562, 0.05553153529763222, 0.05426924675703049, 0.053270842880010605, 0.05104050785303116, 0.05018605291843414]