epoch,loss,mean_squared_error,val_loss,val_mean_squared_error
0,0.5009028315544128,0.33145222067832947,0.49675124883651733,0.33060726523399353
1,0.4883638024330139,0.3184186518192291,0.49699732661247253,0.33087995648384094
2,0.4957788586616516,0.3258074223995209,0.49697190523147583,0.3308459520339966
3,0.5009022355079651,0.3306199908256531,0.49590498208999634,0.3300045430660248
4,0.49185580015182495,0.32199937105178833,0.4960094094276428,0.329714834690094
5,0.4854123890399933,0.31538811326026917,0.4988635182380676,0.33380991220474243
6,0.47318771481513977,0.303402304649353,0.3696422576904297,0.20089104771614075
7,0.36783555150032043,0.20118442177772522,0.32407665252685547,0.1625264436006546
8,0.3428305685520172,0.17811447381973267,0.28067177534103394,0.11846116930246353
9,0.33554336428642273,0.17334792017936707,0.22636999189853668,0.06958482414484024
10,0.31275475025177,0.1522950977087021,0.24870656430721283,0.08519767969846725
11,0.30330270528793335,0.1450439691543579,0.2986641824245453,0.13732154667377472
12,0.22401127219200134,0.07445676624774933,0.21987217664718628,0.07089021056890488
13,0.2093522995710373,0.06671593338251114,0.20904748141765594,0.06605309993028641
14,0.20548520982265472,0.06350203603506088,0.19979612529277802,0.05613958090543747
15,0.19390852749347687,0.05746783688664436,0.18660712242126465,0.048936087638139725
16,0.18710395693778992,0.055034417659044266,0.1728825569152832,0.04252538084983826
17,0.1834167242050171,0.05322122573852539,0.1774229258298874,0.04533765837550163
18,0.17613999545574188,0.049633048474788666,0.18874172866344452,0.048178400844335556
19,0.17598244547843933,0.050110623240470886,0.18268738687038422,0.04417719319462776
20,0.16994719207286835,0.046143244951963425,0.17401428520679474,0.04222219064831734
21,0.17080464959144592,0.046189744025468826,0.16134808957576752,0.039867132902145386
22,0.16254736483097076,0.04284141957759857,0.16423308849334717,0.03698507323861122
23,0.1609640121459961,0.04230730980634689,0.15231382846832275,0.034465499222278595
24,0.15468764305114746,0.03975563868880272,0.16542135179042816,0.03689306974411011
25,0.1576264500617981,0.04073691740632057,0.19667242467403412,0.061382368206977844
26,0.14940911531448364,0.03602614998817444,0.15528513491153717,0.03348654881119728
27,0.1436409205198288,0.034222766757011414,0.14015959203243256,0.028803572058677673
28,0.14244674146175385,0.03399767726659775,0.14679737389087677,0.03338681161403656
29,0.14035286009311676,0.0327017679810524,0.1461743414402008,0.031477831304073334
30,0.13570763170719147,0.030724065378308296,0.14092384278774261,0.029488293454051018
31,0.13146257400512695,0.02924148365855217,0.14525476098060608,0.030240939930081367
32,0.13418661057949066,0.03031747043132782,0.1380656510591507,0.02708708681166172
33,0.12992659211158752,0.028407488018274307,0.1438204050064087,0.03322700038552284
34,0.1254103183746338,0.0269172303378582,0.1363842785358429,0.027320746332406998
35,0.12492717802524567,0.02654031291604042,0.1321897655725479,0.026056047528982162
36,0.12534251809120178,0.02702123299241066,0.1456952840089798,0.031689003109931946
37,0.12558028101921082,0.027149314060807228,0.14262543618679047,0.030186550691723824
38,0.1287240982055664,0.027674896642565727,0.13945217430591583,0.029499420896172523
39,0.12495016306638718,0.02640722133219242,0.13773396611213684,0.028822049498558044
40,0.12956371903419495,0.028164327144622803,0.1773509383201599,0.05053670331835747
41,0.12195467948913574,0.025725657120347023,0.16076134145259857,0.03877583518624306
42,0.12056713551282883,0.024498088285326958,0.14286106824874878,0.03066936694085598
43,0.11982929706573486,0.024210771545767784,0.1378481686115265,0.028725961223244667
44,0.11515115946531296,0.02315448224544525,0.1308385282754898,0.02684391662478447
45,0.10909824073314667,0.020504338666796684,0.12945859134197235,0.026342084631323814
46,0.1112850159406662,0.020991146564483643,0.13649646937847137,0.029029816389083862
47,0.11253247410058975,0.021399639546871185,0.12899650633335114,0.024624917656183243
48,0.11224114894866943,0.021749630570411682,0.14131510257720947,0.0299251489341259
49,0.10916493833065033,0.020351221784949303,0.14523270726203918,0.03304482251405716
50,0.1097160130739212,0.020596086978912354,0.14261536300182343,0.03155781328678131
51,0.11024226248264313,0.02067014016211033,0.1318690925836563,0.025653855875134468
52,0.10662300139665604,0.0193097572773695,0.13516651093959808,0.02776482328772545
53,0.10358648747205734,0.01844959333539009,0.12029850482940674,0.022424248978495598
54,0.10551425069570541,0.01878630556166172,0.14700308442115784,0.033497098833322525
55,0.11068893224000931,0.021309735253453255,0.12802930176258087,0.025179432705044746
56,0.10182203352451324,0.017722468823194504,0.1441500335931778,0.028817662969231606
57,0.1031436175107956,0.01840369589626789,0.1186516061425209,0.021112659946084023
58,0.09981263428926468,0.01694950833916664,0.13039101660251617,0.026128726080060005
59,0.09465444833040237,0.0158087071031332,0.12427286058664322,0.02246825583279133
60,0.09252309054136276,0.015098251402378082,0.13021858036518097,0.025115184485912323
61,0.09579626470804214,0.015879414975643158,0.12635377049446106,0.023641977459192276
62,0.095356784760952,0.016076544299721718,0.11985399574041367,0.022011715918779373
0,0.09423457831144333,0.015621296130120754,0.1209224984049797,0.02292255125939846
1,0.09672925621271133,0.016231151297688484,0.12116711586713791,0.023135311901569366
2,0.09400336444377899,0.015271933749318123,0.12020523101091385,0.022945169359445572
3,0.09274645149707794,0.015033304691314697,0.12295849621295929,0.022499026730656624
4,0.09358558803796768,0.015484667383134365,0.1296612173318863,0.024627685546875
5,0.0928587019443512,0.015151144936680794,0.12111253291368484,0.021998481824994087
6,0.09123785048723221,0.014159563928842545,0.12183014303445816,0.02333330176770687
7,0.09107181429862976,0.01419846247881651,0.13473723828792572,0.02737227827310562
8,0.09079193323850632,0.014214670285582542,0.12066999077796936,0.02226477488875389
9,0.08292623609304428,0.012180577963590622,0.12134409695863724,0.023128248751163483
10,0.09063369035720825,0.0141765670850873,0.12166743725538254,0.02250290848314762
11,0.08824912458658218,0.01347125880420208,0.11865662038326263,0.021593518555164337
12,0.08658012002706528,0.013326414860785007,0.11559291183948517,0.020995980128645897
13,0.0862378254532814,0.013109246268868446,0.1216801106929779,0.02238493785262108
14,0.08776427060365677,0.013354595750570297,0.11679739505052567,0.020864337682724
15,0.08339568227529526,0.012244265526533127,0.11707006394863129,0.02055557258427143
16,0.08337590843439102,0.012619773857295513,0.1199079304933548,0.02289537899196148
17,0.08470957726240158,0.012439060024917126,0.12416844815015793,0.02256600931286812
18,0.08280476182699203,0.011998455040156841,0.11247307062149048,0.01970417983829975
19,0.08011048287153244,0.011187802068889141,0.11315479874610901,0.019697001203894615
20,0.07861930131912231,0.01068850141018629,0.11673524975776672,0.020518431439995766
21,0.07699228823184967,0.010474566370248795,0.11257930845022202,0.01977628841996193
22,0.07793428748846054,0.010678555816411972,0.11924667656421661,0.021869804710149765
23,0.07664583623409271,0.010571755468845367,0.11926770210266113,0.021290339529514313
24,0.0802864357829094,0.0111019816249609,0.11870229989290237,0.022441353648900986
25,0.07736220955848694,0.010672994889318943,0.12984851002693176,0.02595236897468567
26,0.07878300547599792,0.0108508775010705,0.12494294345378876,0.024264322593808174
27,0.07728548347949982,0.010532704181969166,0.11483591794967651,0.0197145976126194
28,0.07547734677791595,0.009962343610823154,0.11021803319454193,0.01986444741487503
29,0.0757073163986206,0.010212124325335026,0.11489898711442947,0.020603686571121216
30,0.07325910031795502,0.009604176506400108,0.11721829324960709,0.021615438163280487
31,0.0756077691912651,0.009566652588546276,0.1230752021074295,0.022997621446847916
32,0.07548411190509796,0.010165143758058548,0.11823096871376038,0.02201058715581894
33,0.0732216089963913,0.009345128200948238,0.11692312359809875,0.020902670919895172
34,0.0736076682806015,0.009598169475793839,0.12329338490962982,0.02369365096092224
35,0.07249380648136139,0.009292998351156712,0.11916753649711609,0.021433748304843903
36,0.07291146367788315,0.009499836713075638,0.11720072478055954,0.02172352746129036
