epoch,loss,mean_squared_error,val_loss,val_mean_squared_error
0,0.1142459586262703,0.032329630106687546,0.06787162274122238,0.014812895096838474
1,0.0756632462143898,0.016471222043037415,0.05763298645615578,0.010198472067713737
2,0.06422275304794312,0.012830602005124092,0.050756603479385376,0.008663581684231758
3,0.05970374494791031,0.011394212953746319,0.048289865255355835,0.007628990337252617
4,0.0560537688434124,0.010363173671066761,0.04585866630077362,0.0071815368719398975
5,0.0522250197827816,0.00901679415255785,0.04404700547456741,0.006730229593813419
6,0.05011329799890518,0.008685131557285786,0.046670906245708466,0.007726920768618584
7,0.04880451783537865,0.008088607341051102,0.043947260826826096,0.00675441138446331
8,0.04829069599509239,0.007978293113410473,0.04620245844125748,0.007228301838040352
9,0.045886434614658356,0.007252712268382311,0.04525573179125786,0.0069133020006120205
10,0.04565536975860596,0.007091115228831768,0.04285347834229469,0.006409414112567902
11,0.04440817981958389,0.0069879391230642796,0.04142292961478233,0.005829406902194023
12,0.04317484423518181,0.006602500099688768,0.04078655689954758,0.005870841443538666
13,0.04182876646518707,0.006381647195667028,0.03966595605015755,0.0055660163052380085
14,0.041383109986782074,0.006101706996560097,0.039446424692869186,0.005763305816799402
15,0.04197897017002106,0.0061226640827953815,0.03753175958991051,0.0052652303129434586
16,0.040387604385614395,0.0058228871785104275,0.0356629453599453,0.005036862101405859
17,0.03914943337440491,0.005587529391050339,0.037252798676490784,0.00534841138869524
18,0.04022109508514404,0.005897270981222391,0.03804042562842369,0.0051041170954704285
19,0.0389711931347847,0.005544740241020918,0.03683711588382721,0.0048875282518565655
20,0.03776927664875984,0.0052537438459694386,0.03512054309248924,0.005013715010136366
21,0.03819919005036354,0.005494388286024332,0.035417042672634125,0.004945102613419294
22,0.03710920363664627,0.005150125827640295,0.03356247767806053,0.004520241636782885
23,0.03814907371997833,0.005230613984167576,0.0356198325753212,0.004724123980849981
24,0.03626677766442299,0.004999008495360613,0.034098342061042786,0.004338237922638655
25,0.03722018748521805,0.005083235912024975,0.03569883108139038,0.0046125128865242004
26,0.03728058561682701,0.005242294631898403,0.036031149327754974,0.00504280673339963
27,0.03605663403868675,0.004820680245757103,0.03683335706591606,0.004708841443061829
28,0.035670991986989975,0.004650383722037077,0.034201472997665405,0.004436250310391188
29,0.03543323650956154,0.004792281426489353,0.034320857375860214,0.004691432695835829
30,0.03485522419214249,0.00461474247276783,0.03441371023654938,0.0044959839433431625
31,0.03502622991800308,0.004719296935945749,0.03285001963376999,0.004171706736087799
32,0.034500207751989365,0.004593038931488991,0.03480032831430435,0.004325466696172953
33,0.03517898917198181,0.0047654141671955585,0.03238629177212715,0.004294831771403551
34,0.035077374428510666,0.004615196492522955,0.03556211665272713,0.004767542704939842
35,0.03387679532170296,0.004450559616088867,0.03256459906697273,0.004240487236529589
36,0.033825527876615524,0.004409167915582657,0.030869757756590843,0.0038997679948806763
37,0.033161528408527374,0.004208254627883434,0.03484959527850151,0.004275460261851549
38,0.03367859125137329,0.004327284637838602,0.03212452679872513,0.0041396599262952805
39,0.03376496583223343,0.004281701985746622,0.03297080099582672,0.004332003649324179
40,0.03277772665023804,0.004119674675166607,0.03206106275320053,0.0039615323767066
41,0.03256577253341675,0.0040214634500443935,0.03162397816777229,0.003793386509642005
42,0.03260103240609169,0.003984232898801565,0.03284531459212303,0.00397833064198494
43,0.03217850998044014,0.0039520105347037315,0.03160972148180008,0.003968083765357733
44,0.0323680154979229,0.003965639974921942,0.03168002888560295,0.0037634794134646654
45,0.032659854739904404,0.0040957448072731495,0.029814761132001877,0.003660143818706274
46,0.030965100973844528,0.003724450711160898,0.03227798640727997,0.003996552899479866
47,0.031194234266877174,0.003754738951101899,0.03175313025712967,0.004010291304439306
48,0.03170374035835266,0.0038441219367086887,0.033265914767980576,0.003969588782638311
49,0.03125566244125366,0.003748935181647539,0.03148679807782173,0.00366556691005826
50,0.03097604215145111,0.003641019808128476,0.030898358672857285,0.0037037990987300873
51,0.03130751848220825,0.003831298789009452,0.029891856014728546,0.0036672730930149555
52,0.030702712014317513,0.0036004383582621813,0.03173019364476204,0.0038966231513768435
53,0.030456244945526123,0.0035621921997517347,0.032059479504823685,0.0039802235551178455
54,0.03058401681482792,0.0036285240203142166,0.0295476783066988,0.0035184393636882305
55,0.03120124526321888,0.003713538870215416,0.030503837391734123,0.0039042020216584206
56,0.03058113530278206,0.003598228795453906,0.03021358698606491,0.00358906970359385
57,0.029948683455586433,0.0034701882395893335,0.030043423175811768,0.0033358463551849127
58,0.02912980131804943,0.0033038209658116102,0.028697695583105087,0.003324085148051381
59,0.029292479157447815,0.0033559799194335938,0.03224831447005272,0.0037897664587944746
60,0.030184431001544,0.003621394746005535,0.031306225806474686,0.003881775075569749
61,0.02968880534172058,0.0034051951952278614,0.0290647242218256,0.0033757169730961323
62,0.029561137780547142,0.003355091204866767,0.02955726534128189,0.003275244263932109
63,0.02952592633664608,0.0034126630052924156,0.02852831594645977,0.0032973517663776875
64,0.029138412326574326,0.003300570650026202,0.028653202578425407,0.003535408526659012
65,0.028805820271372795,0.0032454414758831263,0.02990928292274475,0.0032679615542292595
66,0.02875787764787674,0.003236901480704546,0.02972036600112915,0.003538809483870864
67,0.029242267832159996,0.0033073497470468283,0.03112143464386463,0.0039491429924964905
68,0.02904689684510231,0.0033285277895629406,0.029317159205675125,0.0032778179738670588
69,0.028402898460626602,0.0031585933174937963,0.028162237256765366,0.0031699847895652056
70,0.02743840403854847,0.0029751767870038748,0.028427861630916595,0.0031944699585437775
71,0.028110571205615997,0.0030563832260668278,0.028688350692391396,0.003345759119838476
72,0.029032697901129723,0.0033400985412299633,0.02902458794414997,0.0032947128638625145
73,0.028946274891495705,0.003232017857953906,0.028666729107499123,0.0032932539470493793
74,0.028167005628347397,0.003184864530339837,0.02856203354895115,0.003254118375480175
75,0.028830988332629204,0.003223478328436613,0.029806027188897133,0.003285324899479747
76,0.02845229022204876,0.0030924661550670862,0.028241243213415146,0.0033361907117068768
77,0.028511911630630493,0.0033238751348108053,0.030352702364325523,0.00354574341326952
78,0.02745290845632553,0.0029760226607322693,0.028449906036257744,0.0033369874581694603
79,0.027099832892417908,0.0028694330248981714,0.027514856308698654,0.0030388645827770233
80,0.027602966874837875,0.003067272948101163,0.027393702417612076,0.003221795428544283
81,0.027580102905631065,0.003035029163584113,0.028566204011440277,0.0032138554379343987
82,0.026754852384328842,0.002912358148023486,0.0288507379591465,0.0033409674651920795
83,0.027518993243575096,0.0030279557686299086,0.02980443648993969,0.003585516009479761
84,0.02777794562280178,0.003024752251803875,0.028802085667848587,0.0033919524867087603
85,0.02780304290354252,0.003082149662077427,0.02850642055273056,0.0032591386698186398
86,0.027052687481045723,0.0028666772413998842,0.028036421164870262,0.0031805739272385836
87,0.027038870379328728,0.0028949049301445484,0.028995903208851814,0.0032986407168209553
88,0.02750338613986969,0.002999570220708847,0.027863407507538795,0.0031981526408344507
89,0.026868289336562157,0.0028731264173984528,0.028313256800174713,0.003232860704883933
90,0.0267200730741024,0.0027293681632727385,0.026864012703299522,0.0029516976792365313
91,0.027171233668923378,0.0029496720526367426,0.02751917578279972,0.002982872072607279
92,0.02734038606286049,0.0030483901500701904,0.0266781784594059,0.002948385663330555
93,0.026594014838337898,0.0028021251782774925,0.02738361246883869,0.0031493466813117266
94,0.026073159649968147,0.0027333665639162064,0.027244510129094124,0.0030812632758170366
95,0.026496069505810738,0.002793070627376437,0.028119612485170364,0.003202625783160329
96,0.025923853740096092,0.0026183866430073977,0.028805097565054893,0.003310085739940405
97,0.026715997606515884,0.002836870728060603,0.025831284001469612,0.002915857592597604
98,0.026175133883953094,0.002744277473539114,0.026923581957817078,0.0027897737454622984
99,0.026167050004005432,0.0026365607045590878,0.027430882677435875,0.0030707945115864277
100,0.02646019123494625,0.002789278980344534,0.02910725027322769,0.0033625324722379446
101,0.026553556323051453,0.002942110877484083,0.028341175988316536,0.0031475534196943045
102,0.026771126314997673,0.0028646511491388083,0.027608385309576988,0.0030897718388587236
103,0.025762762874364853,0.002733067376539111,0.028157362714409828,0.003295829752460122
104,0.025037584826350212,0.002502629067748785,0.02738261967897415,0.003250543726608157
105,0.02592727728188038,0.0026256104465574026,0.026292063295841217,0.002926042303442955
106,0.026349909603595734,0.0027733449824154377,0.02600555308163166,0.0029587161261588335
107,0.02465406432747841,0.00251596886664629,0.027319548651576042,0.002999414224177599
108,0.026090657338500023,0.00270437472499907,0.028694787994027138,0.003422587411478162
109,0.025551943108439445,0.0025879195891320705,0.02777978964149952,0.003025198355317116
110,0.025709053501486778,0.002654728712514043,0.027461664751172066,0.003159173298627138
111,0.02584484964609146,0.002751528052613139,0.027195801958441734,0.0031545499805361032
112,0.025251267477869987,0.002469186205416918,0.026100147515535355,0.002778289606794715
113,0.02509702928364277,0.002491864375770092,0.027645297348499298,0.00311577832326293
114,0.0254291370511055,0.002668468514457345,0.027804888784885406,0.0031287975143641233
115,0.02533729188144207,0.002512861741706729,0.026330014690756798,0.0029181174468249083
116,0.02489570714533329,0.0025427890941500664,0.026223808526992798,0.0029803263023495674
117,0.02476956509053707,0.0024539304431527853,0.025766458362340927,0.0028754270169883966
118,0.025554055348038673,0.0026446448173373938,0.027825426310300827,0.003091190941631794
119,0.024953598156571388,0.002568240510299802,0.02748139575123787,0.003018633695319295
120,0.02543824538588524,0.002695260802283883,0.027649328112602234,0.0032549663446843624
121,0.025424355641007423,0.002567479619756341,0.026436805725097656,0.002868706127628684
122,0.02508041262626648,0.0026537661906331778,0.026039956137537956,0.002726738341152668
123,0.02437775582075119,0.0024020669516175985,0.027091247960925102,0.003063039854168892
124,0.0249385517090559,0.0025206971913576126,0.025949882343411446,0.00283107184804976
125,0.024399463087320328,0.002325578825548291,0.02609197609126568,0.0029463707469403744
126,0.024140486493706703,0.002334834774956107,0.025968296453356743,0.0027035048697143793
127,0.025147652253508568,0.0025677538942545652,0.026374630630016327,0.0027840689290314913
128,0.02508871629834175,0.0025525770615786314,0.025725945830345154,0.0028909374959766865
129,0.02475801855325699,0.0025059182662516832,0.02587093412876129,0.0029827633406966925
130,0.024900740012526512,0.002485630800947547,0.025738248601555824,0.002913770265877247
131,0.02403070218861103,0.0023206276819109917,0.02562103420495987,0.002723685232922435
132,0.02465955540537834,0.0024382376577705145,0.025101397186517715,0.0027229010593146086
133,0.024068627506494522,0.002427496248856187,0.02500222809612751,0.0024709333665668964
134,0.024192193523049355,0.0023995970841497183,0.026205377653241158,0.002851747442036867
135,0.02416984736919403,0.0023334850557148457,0.024453675374388695,0.002605391899123788
136,0.024736791849136353,0.0024481278378516436,0.026506343856453896,0.00274943420663476
137,0.024631645530462265,0.002362660365179181,0.025987649336457253,0.0028579675126820803
138,0.023860756307840347,0.002250479534268379,0.024208344519138336,0.0025574741885066032
139,0.024995023384690285,0.0025501102209091187,0.025966757908463478,0.002707835054025054
140,0.02421373501420021,0.002322071697562933,0.02818521484732628,0.0030563201289623976
141,0.024618709459900856,0.0024262419901788235,0.027575945481657982,0.0028125399257987738
142,0.023905588313937187,0.0022357157431542873,0.027223480865359306,0.002792295068502426
143,0.023975294083356857,0.002271033124998212,0.02595333755016327,0.00289178011007607
144,0.023803289979696274,0.0023085344582796097,0.024994464591145515,0.002697973046451807
145,0.02385771833360195,0.0022440613247454166,0.025480197742581367,0.002679412020370364
146,0.023933524265885353,0.0023505152203142643,0.02649448812007904,0.0029843850061297417
147,0.02408471331000328,0.002434289315715432,0.025385504588484764,0.0028926203958690166
148,0.023736020550131798,0.0022488597314804792,0.025701751932501793,0.0028093757573515177
149,0.023795247077941895,0.002402347745373845,0.02495763823390007,0.0026609080377966166
150,0.023851191624999046,0.0022482527419924736,0.025626592338085175,0.0026989649049937725
151,0.023788373917341232,0.002249572891741991,0.02445090189576149,0.0026334673166275024
152,0.022725673392415047,0.0020878403447568417,0.02448328398168087,0.0025465567596256733
153,0.02380431443452835,0.0023335206788033247,0.026285305619239807,0.0028216491919010878
154,0.023900439962744713,0.0023439396172761917,0.02554544061422348,0.002723955549299717
155,0.022734135389328003,0.002133002271875739,0.025275059044361115,0.0027116797864437103
156,0.02329382486641407,0.0022378023713827133,0.02514290064573288,0.0025532515719532967
157,0.023778626695275307,0.0022702354472130537,0.026214955374598503,0.002897213911637664
158,0.023371003568172455,0.0022025294601917267,0.02505003660917282,0.002633738098666072
159,0.022654933854937553,0.002093978226184845,0.025788499042391777,0.002802594332024455
160,0.022955160588026047,0.002122352598235011,0.024870697408914566,0.0026397895999252796
161,0.02259735018014908,0.002073349431157112,0.02502402476966381,0.0026873843744397163
162,0.02303706295788288,0.0021728838328272104,0.025053273886442184,0.002695580245926976
163,0.022783799096941948,0.002157834591343999,0.02458377741277218,0.0025882667396217585
164,0.02304547280073166,0.0022295864764600992,0.024339810013771057,0.00260910508222878
165,0.022661760449409485,0.0020804384257644415,0.024781353771686554,0.002616030164062977
166,0.022951247170567513,0.002170109422877431,0.02460881695151329,0.0026004903484135866
167,0.022494526579976082,0.002069291193038225,0.02499273233115673,0.0025353359524160624
168,0.023179376497864723,0.0022614547051489353,0.027183301746845245,0.0029863007366657257
169,0.022864224389195442,0.0021457092370837927,0.024662258103489876,0.0025900453329086304
170,0.022746102884411812,0.0020768085960298777,0.024261994287371635,0.0025281424168497324
171,0.02313552051782608,0.0021613899152725935,0.024080950766801834,0.00255998270586133
172,0.023403000086545944,0.002220569411292672,0.02477182261645794,0.0026336312294006348
173,0.02294817939400673,0.0020996646489948034,0.0247918963432312,0.0026374347507953644
174,0.022678034380078316,0.002108176238834858,0.025072744116187096,0.0026712489780038595
175,0.022782601416110992,0.002220663707703352,0.024659739807248116,0.0025218836963176727
176,0.022707408294081688,0.0021262038499116898,0.024771958589553833,0.0026857974007725716
177,0.02267848514020443,0.002008717739954591,0.02543494664132595,0.002678573364391923
178,0.023237984627485275,0.0022651180624961853,0.025181354954838753,0.002714908216148615
179,0.022908201441168785,0.002112457761541009,0.02559996210038662,0.002457191003486514
180,0.02259034290909767,0.0021346763242036104,0.02491604909300804,0.00239744083955884
181,0.022738832980394363,0.002115944167599082,0.024990364909172058,0.0025984416715800762
182,0.023135138675570488,0.002183237113058567,0.02401043102145195,0.002533078659325838
183,0.0225917287170887,0.0020827394910156727,0.024583421647548676,0.0025510916020721197
184,0.022949231788516045,0.0021165425423532724,0.02445041760802269,0.002556753810495138
185,0.02244962565600872,0.0020637542475014925,0.024966135621070862,0.0024732528254389763
186,0.022990917786955833,0.002127666724845767,0.024557288736104965,0.0026116673834621906
187,0.02185753360390663,0.0019226785516366363,0.0247605312615633,0.0025801490992307663
188,0.022895315662026405,0.0021182717755436897,0.02562251128256321,0.0027629865799099207
189,0.022807791829109192,0.0020605786703526974,0.024539267644286156,0.002554933074861765
190,0.022271601483225822,0.0020451259333640337,0.024390362203121185,0.0025550760328769684
191,0.0217732023447752,0.0019155837362632155,0.024681759998202324,0.002634313888847828
192,0.022343292832374573,0.002032867632806301,0.02445065975189209,0.0026362459175288677
193,0.022805318236351013,0.0021486638579517603,0.025232557207345963,0.0027123785112053156
194,0.022199684754014015,0.0019991034641861916,0.024109700694680214,0.0025086291134357452
195,0.021963536739349365,0.001996035687625408,0.024897241964936256,0.0026727307122200727
196,0.022359589114785194,0.0020568743348121643,0.024759769439697266,0.002683487953618169
197,0.022122438997030258,0.0019813610706478357,0.025185631588101387,0.0027286831755191088
198,0.0226272139698267,0.0021854618098586798,0.024859074503183365,0.0026042840909212828
199,0.021859919652342796,0.00197950704023242,0.02517862059175968,0.002669510431587696
200,0.022504305467009544,0.0020941197872161865,0.023654591292142868,0.0023823759984225035
201,0.021878289058804512,0.002000457141548395,0.026301538571715355,0.002779687289148569
202,0.02257463149726391,0.0020987214520573616,0.0241926908493042,0.0025172908790409565
203,0.0223021749407053,0.0019812360405921936,0.024855131283402443,0.0027186726219952106
204,0.021858448162674904,0.0019173502223566175,0.023788979277014732,0.002342193154618144
205,0.021737268194556236,0.0019460800103843212,0.024077443405985832,0.0024850231129676104
206,0.02169312722980976,0.001850611180998385,0.024050679057836533,0.002489396370947361
207,0.02216595970094204,0.001978581538423896,0.023147057741880417,0.0022131730802357197
208,0.02193560265004635,0.0019495212472975254,0.023951278999447823,0.0024142293259501457
209,0.0215439535677433,0.0019061713246628642,0.023366669192910194,0.002265184186398983
210,0.021717680618166924,0.0019232144113630056,0.023590723052620888,0.002390818437561393
211,0.02139056660234928,0.001857114490121603,0.02241494134068489,0.002164442790672183
212,0.022004369646310806,0.0020147846080362797,0.024098092690110207,0.0025206818245351315
213,0.022174330428242683,0.0020292531698942184,0.023210342973470688,0.0023269944358617067
214,0.021784648299217224,0.0019194560591131449,0.023031111806631088,0.0022094608284533024
215,0.021953528746962547,0.0019704559817910194,0.024883339181542397,0.00246859947219491
216,0.02147297002375126,0.0018345623975619674,0.024469774216413498,0.0026240507140755653
217,0.021792123094201088,0.0019275748636573553,0.0238729827105999,0.002435243921354413
218,0.021275486797094345,0.0018552510300651193,0.022737648338079453,0.0023346238303929567
219,0.021991003304719925,0.002054970245808363,0.023056892678141594,0.002272780053317547
220,0.022187497466802597,0.00205110851675272,0.0233027134090662,0.0023419696372002363
221,0.020995108410716057,0.001829923246987164,0.02428162284195423,0.002558806911110878
222,0.02134496346116066,0.0018184855580329895,0.025125693529844284,0.0026780134066939354
223,0.021428201347589493,0.001920452923513949,0.023457515984773636,0.0024570473469793797
224,0.021836483851075172,0.0020382627844810486,0.02366275154054165,0.002434537513181567
225,0.021219952031970024,0.0018072573002427816,0.023178886622190475,0.00240336824208498
226,0.02133839949965477,0.0018550396198406816,0.02399749681353569,0.0025608788710087538
227,0.02119619958102703,0.0018302975222468376,0.02396642602980137,0.0025259782560169697
228,0.021672332659363747,0.0018934665713459253,0.025029925629496574,0.0027109819930046797
229,0.02106892690062523,0.0018598189344629645,0.02321995608508587,0.0024140439927577972
230,0.021112121641635895,0.0018714930629357696,0.024118103086948395,0.0025422938633710146
231,0.021014852449297905,0.0018559524323791265,0.0242496095597744,0.0025709308683872223
232,0.020885467529296875,0.0018550654640421271,0.023101862519979477,0.0023312647826969624
233,0.0215822234749794,0.0019424776546657085,0.02435433305799961,0.002458298811689019
234,0.021210461854934692,0.0018700670916587114,0.02367662638425827,0.0024129743687808514
235,0.021014349535107613,0.0018557735020294785,0.024899030104279518,0.002749118721112609
236,0.021354446187615395,0.0018291493179276586,0.02456272393465042,0.0026868151035159826
237,0.021135926246643066,0.0018108997028321028,0.025732044130563736,0.0027207841631025076
238,0.021309522911906242,0.0019368764478713274,0.02390317991375923,0.0024611458647996187
239,0.020743414759635925,0.001764372456818819,0.024476367980241776,0.002628362737596035
240,0.02145635522902012,0.0018325387500226498,0.023932337760925293,0.0023876442573964596
241,0.02061309479176998,0.0016898505855351686,0.02283712849020958,0.0022165700793266296
242,0.020510615780949593,0.0017013010801747441,0.023709489032626152,0.0024368518497794867
243,0.020107779651880264,0.0016264073783531785,0.02351505495607853,0.0024370935279875994
244,0.021293630823493004,0.0019249387551099062,0.023247286677360535,0.002317642793059349
245,0.02089405059814453,0.0018199968617409468,0.023686131462454796,0.0024191054981201887
246,0.020914003252983093,0.0017357113538309932,0.02434345707297325,0.002487816382199526
247,0.020554877817630768,0.0017365748062729836,0.02420060709118843,0.0025453802663832903
248,0.02111191861331463,0.001829843269661069,0.02347496710717678,0.0023062850814312696
249,0.02065994031727314,0.0019020956242457032,0.022788358852267265,0.002273949095979333
250,0.020319456234574318,0.0017540177796036005,0.02373534068465233,0.002446109429001808
251,0.02111995220184326,0.0018804091960191727,0.02394983544945717,0.002363070147112012
252,0.02053813636302948,0.0017322743078693748,0.023427052423357964,0.0023484809789806604
253,0.020778348669409752,0.0018450801726430655,0.023459017276763916,0.0023215424735099077
254,0.02101052552461624,0.0019797231070697308,0.02287360467016697,0.0021636877208948135
255,0.020833536982536316,0.001781886094249785,0.02328840270638466,0.0022556260228157043
256,0.020368119701743126,0.001732480595819652,0.0245217215269804,0.00254053738899529
257,0.02114858478307724,0.0018725524423643947,0.023634783923625946,0.0023192730732262135
258,0.020461756736040115,0.0017378735356032848,0.023981500416994095,0.002445169957354665
259,0.020882384851574898,0.0017979105468839407,0.021819988265633583,0.0020548307802528143
260,0.020149147137999535,0.0016952523728832603,0.022527411580085754,0.0022554181050509214
261,0.020689764991402626,0.0017436568159610033,0.0232293289154768,0.002356397220864892
262,0.020545709878206253,0.001784820226021111,0.022963175550103188,0.002371459733694792
263,0.020768877118825912,0.001751324045471847,0.023281291127204895,0.002417871495708823
264,0.020703567191958427,0.0017897614743560553,0.024262499064207077,0.0025205211713910103
265,0.02156531810760498,0.0019667427986860275,0.02425643987953663,0.002436796436086297
266,0.0203495305031538,0.0017292577540501952,0.024627283215522766,0.0026904793921858072
267,0.02042682096362114,0.0017234992701560259,0.02529391460120678,0.0025442710611969233
268,0.020228249952197075,0.0017001712694764137,0.023551275953650475,0.00229809433221817
269,0.01959978975355625,0.0016181753017008305,0.025134406983852386,0.0026409279089421034
270,0.020487964153289795,0.001736208563670516,0.024080267176032066,0.0026011818554252386
271,0.020360849797725677,0.001700649387203157,0.02409348264336586,0.0024762458633631468
272,0.020882662385702133,0.0018072868697345257,0.02320045791566372,0.0023569180630147457
273,0.020468086004257202,0.0017205332405865192,0.023845091462135315,0.002467876998707652
274,0.020300360396504402,0.0017145436722785234,0.024077296257019043,0.002439973410218954
275,0.021237967535853386,0.0019207370933145285,0.022301577031612396,0.002207542769610882
276,0.020021526142954826,0.0016396045684814453,0.022776728495955467,0.002144941594451666
277,0.02014744281768799,0.0016852972330525517,0.023506395518779755,0.0024797774385660887
278,0.019976431503891945,0.0016775036929175258,0.02325618825852871,0.002276429207995534
279,0.020595936104655266,0.0016831695102155209,0.023415300995111465,0.002438259543851018
280,0.020021041855216026,0.0016610074089840055,0.02268417552113533,0.002199000446125865
281,0.020497139543294907,0.0017795589519664645,0.023965945467352867,0.002512871753424406
282,0.020368658006191254,0.0017425124533474445,0.024472292512655258,0.002545662224292755
283,0.02005230262875557,0.0016933373408392072,0.02306647226214409,0.002417321316897869
284,0.019826428964734077,0.0015850553754717112,0.022939039394259453,0.0023514144122600555
285,0.020339909940958023,0.0017033112235367298,0.0218827947974205,0.002097367076203227
286,0.019853653386235237,0.0016148905269801617,0.023030338808894157,0.0023003490641713142
287,0.020388158038258553,0.0017869446892291307,0.02308136597275734,0.002288955496624112
288,0.020147377625107765,0.0017267810180783272,0.023182783275842667,0.0022526506800204515
289,0.020261211320757866,0.0016686859307810664,0.02295561507344246,0.00241610174998641
290,0.01996544562280178,0.0016972996527329087,0.02303183078765869,0.002307811751961708
291,0.019881922751665115,0.0017205511685460806,0.022787706926465034,0.002206067554652691
292,0.01979517564177513,0.0016899805050343275,0.02277238667011261,0.0021942597813904285
293,0.020395632833242416,0.0017154368106275797,0.022923683747649193,0.0023371996358036995
294,0.02031836472451687,0.001680933404713869,0.02286951243877411,0.002209447091445327
295,0.020077122375369072,0.0016883324133232236,0.023061877116560936,0.002285891678184271
296,0.02040647715330124,0.0017041238024830818,0.024706654250621796,0.002666517160832882
297,0.02020462602376938,0.0017288350500166416,0.023244231939315796,0.0023197701666504145
298,0.01981792412698269,0.0016025819350033998,0.022039692848920822,0.0020804372616112232
299,0.020088979974389076,0.0016729515045881271,0.022563574835658073,0.0022215640638023615
