Epochs: 75
Input shape: (1866, 1120, 2)
Loss function: mean_absolute_error
Metric: mean_squared_error
Seed: 1
Test Percentage: 0.2
Test Part: 1
Train data length: 2287
Test data length: 571

MODEL SUMMARY
===========================
Model: "sequential"
_________________________________________________________________
 Layer (type)                Output Shape              Param #   
=================================================================
 Block0_Conv (Conv2D)        (None, 1866, 1120, 16)    1168      
                                                                 
 Block0_Pool (MaxPooling2D)  (None, 933, 560, 16)      0         
                                                                 
 Block0_Norm (BatchNormaliza  (None, 933, 560, 16)     64        
 tion)                                                           
                                                                 
 Block1_Conv (Conv2D)        (None, 933, 560, 32)      4640      
                                                                 
 Block1_Pool (MaxPooling2D)  (None, 466, 280, 32)      0         
                                                                 
 Block1_Norm (BatchNormaliza  (None, 466, 280, 32)     128       
 tion)                                                           
                                                                 
 Block2_Conv (Conv2D)        (None, 466, 280, 64)      18496     
                                                                 
 Block2_Pool (MaxPooling2D)  (None, 233, 140, 64)      0         
                                                                 
 Block2_Norm (BatchNormaliza  (None, 233, 140, 64)     256       
 tion)                                                           
                                                                 
 Block3_Conv (Conv2D)        (None, 233, 140, 128)     73856     
                                                                 
 Block3_Pool (MaxPooling2D)  (None, 116, 70, 128)      0         
                                                                 
 Block3_Norm (BatchNormaliza  (None, 116, 70, 128)     512       
 tion)                                                           
                                                                 
 GlobalMaxPooling (GlobalMax  (None, 128)              0         
 Pooling2D)                                                      
                                                                 
 dropout (Dropout)           (None, 128)               0         
                                                                 
 Final_Dense (Dense)         (None, 256)               33024     
                                                                 
 output (Dense)              (None, 1)                 257       
                                                                 
=================================================================
Total params: 132,401
Trainable params: 131,921
Non-trainable params: 480
_________________________________________________________________

[0.2067660540342331, 0.15534406900405884, 0.1352282017469406, 0.1323387175798416, 0.23384734988212585, 0.1326133757829666, 0.1305658519268036, 0.12706907093524933, 0.12670904397964478, 0.1260409951210022, 0.12608031928539276, 0.12569038569927216, 0.12531840801239014, 0.12515117228031158, 0.1249207928776741, 0.12554877996444702, 0.12447182089090347, 0.12458956986665726, 0.12421946972608566, 0.1238829642534256, 0.1239156424999237, 0.12377047538757324, 0.12380144745111465, 0.12337787449359894, 0.12434160709381104, 0.12296139448881149, 0.1235959529876709, 0.12401296198368073, 0.12361142039299011, 0.12260521948337555, 0.12363419681787491, 0.12276650220155716, 0.12257254123687744, 0.12242329865694046, 0.12257232517004013, 0.12229067087173462, 0.12267666310071945, 0.12280227988958359, 0.12285381555557251, 0.12281911075115204, 0.12159006297588348, 0.12188734114170074, 0.12187015265226364, 0.12182027101516724, 0.12066618353128433, 0.12081340700387955, 0.12102257460355759, 0.12050151824951172, 0.12099450081586838, 0.11942928284406662, 0.11903608590364456, 0.1176036074757576, 0.11781089007854462, 0.11696217209100723, 0.11789590120315552, 0.11590314656496048, 0.11695680767297745, 0.1153564304113388, 0.11469294130802155, 0.11442013829946518, 0.11419682949781418, 0.11413566023111343, 0.11236071586608887, 0.1126149371266365, 0.11167600750923157, 0.11021818220615387, 0.11058320105075836, 0.10992498695850372, 0.10724581778049469, 0.10799095779657364, 0.10876129567623138, 0.10688498616218567, 0.10635180026292801, 0.10757413506507874, 0.10652930289506912]
[0.16832947731018066, 0.14511892199516296, 0.14806310832500458, 0.14288932085037231, 0.14435726404190063, 0.15510593354701996, 0.14669856429100037, 0.14592134952545166, 0.1454591155052185, 0.14617854356765747, 0.1489877849817276, 0.1451486498117447, 0.1494147777557373, 0.14934851229190826, 0.14568647742271423, 0.14539477229118347, 0.14618068933486938, 0.14454656839370728, 0.14409802854061127, 0.14263491332530975, 0.14262963831424713, 0.14074794948101044, 0.14409759640693665, 0.14830282330513, 0.1448981761932373, 0.14694446325302124, 0.1439938247203827, 0.14288562536239624, 0.14038006961345673, 0.1404750496149063, 0.13409805297851562, 0.14314112067222595, 0.1411576271057129, 0.1433921903371811, 0.14309996366500854, 0.14377976953983307, 0.14239655435085297, 0.14515860378742218, 0.14394235610961914, 0.14136306941509247, 0.14364895224571228, 0.1473993957042694, 0.14693404734134674, 0.14354339241981506, 0.14162053167819977, 0.14905832707881927, 0.1450507491827011, 0.14486651122570038, 0.139352947473526, 0.14851003885269165, 0.14453694224357605, 0.144563227891922, 0.14417029917240143, 0.14678849279880524, 0.14319996535778046, 0.14160408079624176, 0.1422087699174881, 0.14775127172470093, 0.14605331420898438, 0.1489703357219696, 0.1476244032382965, 0.1434643566608429, 0.14877431094646454, 0.14433029294013977, 0.14653849601745605, 0.14567334949970245, 0.18976420164108276, 0.14469856023788452, 0.1458323895931244, 0.14849403500556946, 0.14911505579948425, 0.14615896344184875, 0.14754970371723175, 0.14467285573482513, 0.14992786943912506]