epoch,loss,mean_squared_error,val_loss,val_mean_squared_error
0,0.10099028795957565,0.03106963075697422,0.06841940432786942,0.013174704276025295
1,0.061362605541944504,0.012429896742105484,0.05272357538342476,0.00892988033592701
2,0.05451418086886406,0.009995043277740479,0.05129282549023628,0.00829603336751461
3,0.0491458959877491,0.008701949380338192,0.048483725637197495,0.008457467891275883
4,0.046723682433366776,0.008035993203520775,0.044176675379276276,0.006763870362192392
5,0.044364865869283676,0.007330247201025486,0.04585203528404236,0.0074220080859959126
6,0.04094623029232025,0.00624976446852088,0.04172646254301071,0.006056200247257948
7,0.039657287299633026,0.006169861648231745,0.039256926625967026,0.00580647261813283
8,0.03862988203763962,0.005714437458664179,0.04097366705536842,0.005579056683927774
9,0.03694296255707741,0.005126357078552246,0.03853675723075867,0.005107557401061058
10,0.03602999448776245,0.004869838710874319,0.04115593433380127,0.005290556699037552
11,0.036556921899318695,0.00512955104932189,0.03937356173992157,0.005253405775874853
12,0.03609151393175125,0.00497171375900507,0.043061308562755585,0.00577640300616622
13,0.03442643582820892,0.004725995939224958,0.040802016854286194,0.0054710335098207
14,0.033301424235105515,0.004487661179155111,0.03496352955698967,0.004231768194586039
15,0.033113207668066025,0.004385131411254406,0.03742451220750809,0.005073205567896366
16,0.03371785208582878,0.004590387921780348,0.03751213103532791,0.004968286957591772
17,0.03241121768951416,0.004414757713675499,0.04456671327352524,0.006071142386645079
18,0.031623173505067825,0.0041526625864207745,0.03708647936582565,0.004907721653580666
19,0.0320950523018837,0.004040450323373079,0.036493249237537384,0.004791144747287035
20,0.030395712703466415,0.0038082024548202753,0.03604920208454132,0.004423435311764479
21,0.030417408794164658,0.0037349334452301264,0.03359387069940567,0.00428201025351882
22,0.030442912131547928,0.0036622106563299894,0.032662566751241684,0.0036332430317997932
23,0.029911551624536514,0.003509933827444911,0.032631855458021164,0.0038680280558764935
24,0.02950599044561386,0.003597780829295516,0.03515823930501938,0.004214761313050985
25,0.028930015861988068,0.003341170959174633,0.03439917787909508,0.004217573907226324
26,0.028448844328522682,0.0032699957955628633,0.03515784069895744,0.004264986142516136
27,0.02795765921473503,0.0032767849043011665,0.0355071946978569,0.004229459911584854
28,0.028252938762307167,0.003217371879145503,0.032800354063510895,0.0038793417625129223
29,0.0272830817848444,0.002970486180856824,0.030057378113269806,0.0031522377394139767
30,0.026940444484353065,0.002916994271799922,0.03486695885658264,0.004174378700554371
31,0.026130596175789833,0.002744052093476057,0.030338827520608902,0.0032479825895279646
32,0.02583433873951435,0.002775833010673523,0.030258316546678543,0.0035113561898469925
33,0.026295654475688934,0.002867852570489049,0.032571665942668915,0.003709204262122512
34,0.02625463902950287,0.0027664871886372566,0.030923930928111076,0.0032579528633505106
35,0.025967134162783623,0.002778834430500865,0.03273393586277962,0.0038069572765380144
36,0.025670956820249557,0.002724575577303767,0.031726110726594925,0.0034062834456562996
37,0.026072056964039803,0.002799707232043147,0.03281785920262337,0.003760967403650284
38,0.02489001862704754,0.0026472010649740696,0.02956240437924862,0.003123090136796236
39,0.02486320585012436,0.002564577618613839,0.02967182546854019,0.0032725809141993523
40,0.024761518463492393,0.002464905846863985,0.028863050043582916,0.0031178200151771307
41,0.024221114814281464,0.0024847800377756357,0.030375581234693527,0.003257950535044074
42,0.024328267201781273,0.0024710369762033224,0.03287939354777336,0.0037335201632231474
43,0.024784119799733162,0.0025804282631725073,0.03011491522192955,0.003219667822122574
44,0.024215733632445335,0.0025095927994698286,0.030512509867548943,0.0034808795899152756
45,0.023662829771637917,0.002367780776694417,0.027438176795840263,0.002755891066044569
46,0.02303859405219555,0.0022694021463394165,0.02849670872092247,0.0029781009070575237
47,0.023632846772670746,0.0023836931213736534,0.03344820812344551,0.003903913078829646
48,0.02381400391459465,0.002326472895219922,0.03143010288476944,0.003547580447047949
49,0.023403262719511986,0.002266679424792528,0.028503453359007835,0.0030428571626544
50,0.022632457315921783,0.002220448572188616,0.028146320953965187,0.0029028344433754683
51,0.023167813196778297,0.002294983249157667,0.030608488246798515,0.003361996030434966
52,0.022600043565034866,0.00218182266689837,0.02878718264400959,0.0028881183825433254
53,0.02275700680911541,0.0021521630696952343,0.027806570753455162,0.0028433711268007755
54,0.02255881391465664,0.0021441804710775614,0.029729235917329788,0.00333090010099113
55,0.022535299882292747,0.00210463791154325,0.02829732559621334,0.0029249507933855057
56,0.02184152603149414,0.002013570861890912,0.028765497729182243,0.0028487546369433403
57,0.02171279676258564,0.0020536347292363644,0.027113664895296097,0.00269514974206686
58,0.021689394488930702,0.002025880850851536,0.026396969333291054,0.0026132147759199142
59,0.021550141274929047,0.0019903171341866255,0.026998354122042656,0.002614093478769064
60,0.021664079278707504,0.0020300783216953278,0.02514190413057804,0.002360676182433963
61,0.021875154227018356,0.0020219094585627317,0.026813475415110588,0.0025295449886471033
62,0.02164025604724884,0.0019725484307855368,0.02608538791537285,0.0024742831010371447
63,0.020827854052186012,0.0018392534693703055,0.02651739865541458,0.0025562867522239685
64,0.020960194990038872,0.0018716135527938604,0.027155524119734764,0.0028212207835167646
65,0.020668726414442062,0.0018164145294576883,0.025570770725607872,0.002473323605954647
66,0.021178994327783585,0.0019023469649255276,0.025753697380423546,0.002438322873786092
67,0.020805083215236664,0.0018270118162035942,0.025939710438251495,0.002488016849383712
68,0.02076749876141548,0.001871315180324018,0.025309043005108833,0.0023971437476575375
69,0.0206352099776268,0.001812470960430801,0.02647901326417923,0.002614573109894991
70,0.020320950075984,0.0017608801135793328,0.02627510204911232,0.0024352686014026403
71,0.02041071467101574,0.001783048384822905,0.02619992010295391,0.002508251229301095
72,0.020617548376321793,0.0018124569905921817,0.02649279497563839,0.002524783369153738
73,0.019842073321342468,0.0017518384847790003,0.02512194961309433,0.002303875982761383
74,0.019456762820482254,0.0016221971018239856,0.025261465460062027,0.002276746090501547
75,0.019332578405737877,0.001605696277692914,0.023866446688771248,0.002075981581583619
76,0.01950843445956707,0.0016802010359242558,0.029689643532037735,0.0033003012649714947
77,0.019341548904776573,0.0016104849055409431,0.02605624496936798,0.0025108414702117443
78,0.01983179710805416,0.001703860703855753,0.02828763984143734,0.0027769412845373154
79,0.019290104508399963,0.0016081973444670439,0.025127513334155083,0.0023788565304130316
80,0.01919776387512684,0.0016120311338454485,0.0252547450363636,0.0022911459673196077
81,0.018773775547742844,0.0015622669598087668,0.028932783752679825,0.0028215511702001095
82,0.018772505223751068,0.0015651980647817254,0.024220174178481102,0.0021207367535680532
83,0.01862453855574131,0.0015164132928475738,0.027482770383358,0.002623985055834055
84,0.019254110753536224,0.0015869898488745093,0.024895884096622467,0.0022224741987884045
85,0.01967053860425949,0.0017249989323318005,0.02462606318295002,0.002175894333049655
86,0.018549393862485886,0.0015101165045052767,0.026362305507063866,0.0023401344660669565
87,0.018732544034719467,0.0015035325195640326,0.023867134004831314,0.002055621473118663
88,0.018360022455453873,0.001505563617683947,0.024955427274107933,0.002216034336015582
89,0.019059671089053154,0.0015599565813317895,0.023598581552505493,0.002054809592664242
90,0.01829780451953411,0.001425015041604638,0.023804770782589912,0.002030268544331193
91,0.018200824037194252,0.0014597139088436961,0.022947948426008224,0.002017625840380788
92,0.01853785291314125,0.001538975746370852,0.026513440534472466,0.002470185747370124
93,0.018453197553753853,0.0015155469300225377,0.02472616918385029,0.0022729418706148863
94,0.018442993983626366,0.0015246084658429027,0.023905718699097633,0.002101982943713665
95,0.01840769127011299,0.0015166240045800805,0.02489335648715496,0.002183042000979185
96,0.017857499420642853,0.001441746368072927,0.02457950823009014,0.0023555196821689606
97,0.018185846507549286,0.001447998103685677,0.02265947312116623,0.001947141601704061
98,0.017838316038250923,0.0013952101580798626,0.023932509124279022,0.001985807903110981
99,0.018003001809120178,0.0014451094903051853,0.02353365160524845,0.0019518983317539096
100,0.017397264018654823,0.0013374468544498086,0.024556905031204224,0.002125456230714917
101,0.017290161922574043,0.0013293364318087697,0.02365289442241192,0.0020894205663353205
102,0.017462672665715218,0.0013247020542621613,0.02364831231534481,0.0020978807006031275
103,0.017216907814145088,0.0012956534046679735,0.023533891886472702,0.00200411444529891
104,0.017488747835159302,0.0013013971038162708,0.02409743331372738,0.0021406321320682764
105,0.017034897580742836,0.001270208740606904,0.02286919765174389,0.0018455052049830556
106,0.017072781920433044,0.0012598329922184348,0.021981380879878998,0.0018932706443592906
107,0.01734636351466179,0.0013250113697722554,0.02510189078748226,0.002106686821207404
108,0.017256302759051323,0.0013180301757529378,0.023903490975499153,0.001969100907444954
109,0.016429033130407333,0.0012123549822717905,0.02282063290476799,0.001839745556935668
110,0.016440406441688538,0.0012462548911571503,0.023807574063539505,0.0020589192863553762
111,0.017020711675286293,0.0012635254533961415,0.02326357178390026,0.0020351610146462917
112,0.01668303832411766,0.0012304586125537753,0.023203380405902863,0.0019696715753525496
113,0.016541210934519768,0.0012040984584018588,0.02336377650499344,0.0019658838864415884
114,0.01631804369390011,0.0011987545294687152,0.024604162201285362,0.002180452225729823
115,0.01663094386458397,0.0012145147193223238,0.022352367639541626,0.0018440569983795285
116,0.016720041632652283,0.0012547967489808798,0.02203305810689926,0.0018869820050895214
117,0.015989812090992928,0.0011511531192809343,0.023585215210914612,0.0020697324071079493
118,0.016654038801789284,0.0012379534309729934,0.022337114438414574,0.0017735296860337257
119,0.016486141830682755,0.001176475896500051,0.024184731766581535,0.002168959705159068
120,0.015986930578947067,0.0011030429741367698,0.02380332350730896,0.002073519630357623
121,0.016172200441360474,0.0011570566566661,0.02203390747308731,0.0018921256996691227
122,0.0158426184207201,0.0010706090833991766,0.021919919177889824,0.001823551021516323
123,0.01673567108809948,0.0012763773556798697,0.021816831082105637,0.0018020590068772435
124,0.015806173905730247,0.0011416825000196695,0.02246255800127983,0.0019231312908232212
125,0.015734750777482986,0.001099637127481401,0.022408995777368546,0.0017864387482404709
126,0.01596650667488575,0.0011535115772858262,0.021378684788942337,0.0018506626365706325
127,0.01588677242398262,0.0011281328042969108,0.021751243621110916,0.0017551977653056383
128,0.015357683412730694,0.00104370410554111,0.022474238649010658,0.0018268816638737917
129,0.015515069477260113,0.0010795148555189371,0.021889181807637215,0.00190670695155859
130,0.01585409976541996,0.001069210353307426,0.021859686821699142,0.0018341599497944117
131,0.01550791785120964,0.0010922515066340566,0.022213399410247803,0.001737083774060011
132,0.015567731112241745,0.0011099412804469466,0.02172507718205452,0.0017460432136431336
133,0.015692826360464096,0.0010586207499727607,0.023542093113064766,0.0020376048050820827
134,0.015598309226334095,0.0010814398992806673,0.021365437656641006,0.0017439228249713778
135,0.015138031914830208,0.0010356026468798518,0.02282136306166649,0.0019246923038735986
136,0.015111163258552551,0.001014219829812646,0.022077029570937157,0.0018278895877301693
137,0.015250377357006073,0.0010837066220119596,0.02106023207306862,0.001726158894598484
138,0.015110752545297146,0.0009964805794879794,0.021252339705824852,0.0018045377219095826
139,0.015013808384537697,0.0009954598499462008,0.02397238463163376,0.0022181374952197075
140,0.015500321052968502,0.0010614743223413825,0.021500851958990097,0.0018844114383682609
141,0.015377290546894073,0.0010296943364664912,0.02188635803759098,0.0017315716249868274
142,0.015323951840400696,0.0010260496055707335,0.02261349931359291,0.001895133638754487
143,0.014962245710194111,0.0010337622370570898,0.022354071959853172,0.001893532113172114
144,0.01483814138919115,0.0009822857100516558,0.022201530635356903,0.001837557414546609
145,0.015139046125113964,0.001007660641334951,0.02223333902657032,0.00175296061206609
146,0.015087106265127659,0.0010270815109834075,0.022027863189578056,0.0019959283526986837
147,0.014729224145412445,0.0009594399016350508,0.022585615515708923,0.0019514237064868212
148,0.0157313235104084,0.001137066283263266,0.02098475955426693,0.001756433630362153
149,0.014523955062031746,0.0009716209024190903,0.020093567669391632,0.001544985338114202
150,0.014340807683765888,0.0009357424569316208,0.02244826965034008,0.0018370080506429076
151,0.014413174241781235,0.0009498010040260851,0.021684464067220688,0.0017973302165046334
152,0.014895815402269363,0.0009945845231413841,0.021371012553572655,0.0017584192100912333
153,0.014656896702945232,0.0009834496304392815,0.022672664374113083,0.002035715151578188
154,0.014306580647826195,0.000903631211258471,0.02136080153286457,0.0017624397296458483
155,0.013984610326588154,0.0009018996497616172,0.02039247378706932,0.0015829209005460143
156,0.01414556335657835,0.000890142226126045,0.021083347499370575,0.0017389535205438733
157,0.014444895088672638,0.000949673994909972,0.0216386541724205,0.0017864115070551634
158,0.014433452859520912,0.0009561074548400939,0.020450279116630554,0.0016293941298499703
159,0.014212747104465961,0.0009169457480311394,0.0225082915276289,0.0019384969491511583
160,0.014171630144119263,0.0009052451932802796,0.021846115589141846,0.0018309862352907658
161,0.01428177859634161,0.0009262596140615642,0.020336566492915154,0.0016434211283922195
162,0.014180450700223446,0.0009159592445939779,0.019817784428596497,0.0015246900729835033
163,0.01396743394434452,0.0008909525349736214,0.020535297691822052,0.0015938752330839634
164,0.014398062601685524,0.0009304976556450129,0.02035260573029518,0.001542789163067937
165,0.01402147114276886,0.0008833812898956239,0.02029349096119404,0.0016334890387952328
166,0.013831867836415768,0.0008845868869684637,0.02060251124203205,0.00155909382738173
167,0.013547033071517944,0.0008773330482654274,0.0204726904630661,0.0017069659661501646
168,0.014032173901796341,0.0008820759248919785,0.02102481760084629,0.0017246021889150143
169,0.013857468031346798,0.0008590398356318474,0.02133158966898918,0.0018941938178613782
170,0.014114498160779476,0.0008654039120301604,0.021828224882483482,0.0019383009057492018
171,0.013858296908438206,0.0008585661998949945,0.021632444113492966,0.00168851506896317
172,0.013813212513923645,0.0008875617641024292,0.02254307083785534,0.0020710332319140434
173,0.014247124083340168,0.0008634153637103736,0.02137606032192707,0.0017784504452720284
174,0.014132935553789139,0.0008994247182272375,0.023426173254847527,0.0020900091622024775
175,0.014235253445804119,0.0008994820527732372,0.02152515947818756,0.0017359884222969413
176,0.013796327635645866,0.0008378940401598811,0.020495621487498283,0.0017583862645551562
177,0.013950560241937637,0.0008918619132600725,0.020954737439751625,0.0016890099504962564
178,0.014319771900773048,0.0009215043974108994,0.022087562829256058,0.0016974494792521
179,0.013615282252430916,0.0008088760660029948,0.022208672016859055,0.0018720711814239621
180,0.013830794021487236,0.0008597259293310344,0.02200017124414444,0.001822939608246088
181,0.013477628119289875,0.0008317092433571815,0.021294957026839256,0.0016111131990328431
182,0.013292479328811169,0.000779853027779609,0.020055348053574562,0.001564651494845748
183,0.013654060661792755,0.0008366010151803493,0.022075580433011055,0.0019552865996956825
184,0.013599302619695663,0.0008153225644491613,0.02185063064098358,0.0017878044163808227
185,0.013430255465209484,0.0008058259845711291,0.021005772054195404,0.0016180936945602298
186,0.013309445232152939,0.0007871226407587528,0.021658092737197876,0.0017737789312377572
187,0.013382242061197758,0.0007818531012162566,0.021930202841758728,0.0018319216324016452
188,0.013844151049852371,0.0009107053047046065,0.021268721669912338,0.0018090488156303763
189,0.013136662542819977,0.0007820148603059351,0.020677605643868446,0.0016553563764318824
190,0.013002325780689716,0.0007749067735858262,0.019494008272886276,0.0014679257292300463
191,0.013489161618053913,0.0007794214761815965,0.019891029223799706,0.0014892526669427752
192,0.013093199580907822,0.0008371223811991513,0.020058216527104378,0.0015589611139148474
193,0.012856973335146904,0.0007622964913025498,0.0207066610455513,0.0015544351190328598
194,0.012773500755429268,0.0007382470066659153,0.020785750821232796,0.0016082294750958681
195,0.012747176922857761,0.0007232283242046833,0.02135666273534298,0.0017553805373609066
196,0.013005915097892284,0.0007437582244165242,0.02149372547864914,0.0018179332837462425
197,0.013276522047817707,0.0007944880635477602,0.02038848213851452,0.0017086149891838431
198,0.013010749593377113,0.000747442536521703,0.020427046343684196,0.001636092085391283
199,0.013066994026303291,0.0007670398917980492,0.022100921720266342,0.001777202938683331
200,0.013089193031191826,0.0007642207201570272,0.021443331614136696,0.0017663094913586974
201,0.013134715147316456,0.0008100589038804173,0.02084747515618801,0.0017609639326110482
202,0.012871291488409042,0.0007250414928421378,0.020171191543340683,0.001624550437554717
203,0.01324411854147911,0.0007890011765994132,0.020897449925541878,0.0016234199283644557
204,0.013157607056200504,0.0007930677966214716,0.02083411253988743,0.0016161028761416674
205,0.01272681262344122,0.000710656400769949,0.02100655436515808,0.001623441930860281
206,0.01271617691963911,0.0007309248903766274,0.022648165002465248,0.002204121556133032
207,0.013232083059847355,0.0007572364411316812,0.020433329045772552,0.0015223039081320167
208,0.01295100525021553,0.0007441098568961024,0.020829493179917336,0.0016049239784479141
209,0.012796251103281975,0.0007374938577413559,0.019920239225029945,0.0015468794154003263
210,0.012653019279241562,0.0007445096271112561,0.021445780992507935,0.0016309230122715235
211,0.012609561905264854,0.0007036723545752466,0.021170446649193764,0.0018017940456047654
212,0.012639107182621956,0.0007399694295600057,0.020234035328030586,0.0015129619278013706
213,0.01267602201551199,0.000702649587765336,0.020944057032465935,0.0015770398313179612
214,0.012710914015769958,0.0007316783885471523,0.02230951003730297,0.001901933690533042
215,0.01271430216729641,0.0006847684853710234,0.019787674769759178,0.001525114756077528
216,0.012506305240094662,0.0006984679494053125,0.01973077654838562,0.0015325932763516903
217,0.012506766244769096,0.0006936056888662279,0.019870005548000336,0.001714283716864884
218,0.01348099298775196,0.0008151881047524512,0.020753612741827965,0.0016803265316411853
219,0.012716137804090977,0.0007510189898312092,0.01982135884463787,0.0015558444429188967
220,0.012604834511876106,0.0006910313968546689,0.01967913657426834,0.0014980094274505973
221,0.012584715150296688,0.0007051911670714617,0.0212226752191782,0.001813624519854784
222,0.012838300317525864,0.0007709898054599762,0.02041728049516678,0.0016053193248808384
223,0.012712180614471436,0.0007108629215508699,0.020374096930027008,0.001521442667581141
224,0.012299380265176296,0.0007057616021484137,0.01961369812488556,0.001570705440826714
225,0.01215770747512579,0.0006590232951566577,0.021083086729049683,0.0016716246027499437
226,0.012032022699713707,0.0006670980365015566,0.020656127482652664,0.0016145110130310059
227,0.01262856274843216,0.000726406229659915,0.021507596597075462,0.00179381319321692
228,0.01260481309145689,0.0007156853680498898,0.019291944801807404,0.0014006721321493387
229,0.012406597845256329,0.0006922102766111493,0.019793881103396416,0.0015511338133364916
230,0.01231054775416851,0.0006994530558586121,0.02060195617377758,0.0015216298634186387
231,0.01233657170087099,0.0006929321098141372,0.02204887755215168,0.0018967337673529983
232,0.012532644905149937,0.0006850921199657023,0.019570283591747284,0.0014531821943819523
233,0.012230315245687962,0.0006750206230208278,0.021037984639406204,0.0016178913647308946
234,0.012329638004302979,0.0006767503218725324,0.019657587632536888,0.0015279434155672789
235,0.01200364250689745,0.0006387408939190209,0.01985258422791958,0.0015982220647856593
236,0.01227476354688406,0.0007339200819842517,0.020276909694075584,0.001536611351184547
237,0.012272113934159279,0.0006734667113050818,0.01860140450298786,0.001384284463711083
238,0.011874420568346977,0.0006127564120106399,0.019277147948741913,0.0014358158223330975
239,0.01176876574754715,0.000596411235164851,0.02107757329940796,0.0017881433013826609
240,0.012157200835645199,0.0006760300020687282,0.01887652277946472,0.0014368415577337146
241,0.011928982101380825,0.000628701294772327,0.019142724573612213,0.0014463197439908981
242,0.012182551436126232,0.0006550389807671309,0.019880902022123337,0.0015554660931229591
243,0.012087329290807247,0.0006640707142651081,0.021518738940358162,0.001797997858375311
244,0.012031030841171741,0.0006408672779798508,0.019397618249058723,0.0015324059640988708
245,0.012178302742540836,0.0006601112545467913,0.021014554426074028,0.0017552259378135204
246,0.01181708462536335,0.0006205718964338303,0.019765254110097885,0.0015542354667559266
247,0.012192483991384506,0.0006579793407581747,0.01927916333079338,0.0015263828681781888
248,0.01194482110440731,0.0006493553519248962,0.019975677132606506,0.0016874109860509634
249,0.012257209978997707,0.0006696763448417187,0.021281355991959572,0.0019172192551195621
250,0.012222313322126865,0.0006460451404564083,0.019103948026895523,0.0014598033158108592
251,0.011934923939406872,0.0006441171281039715,0.020505931228399277,0.0016733742086216807
252,0.011687284335494041,0.0006110088434070349,0.019768454134464264,0.0015491170343011618
253,0.011944872327148914,0.0006364483269862831,0.02131141722202301,0.0017178398557007313
254,0.012077362276613712,0.0006735336501151323,0.018436120823025703,0.0013084583915770054
255,0.011394847184419632,0.0005896741058677435,0.01902994140982628,0.0014387721894308925
256,0.011747893877327442,0.0006085460190661252,0.021137533709406853,0.0018274749163538218
257,0.012000161223113537,0.0006560604670085013,0.019732292741537094,0.001514805480837822
258,0.012168420478701591,0.0006575491861440241,0.019873084500432014,0.0015581719344481826
259,0.011186317540705204,0.0005699611501768231,0.019408168271183968,0.001526427106000483
260,0.011527012102305889,0.0005939854891039431,0.021089157089591026,0.0017225464107468724
261,0.011567050591111183,0.0005898637464269996,0.018107149749994278,0.0012829742627218366
262,0.011761658824980259,0.0006026198389008641,0.02085229381918907,0.0015790497418493032
263,0.01172649022191763,0.000624589214567095,0.020168393850326538,0.0016408798983320594
264,0.011895885691046715,0.0006264664116315544,0.019578702747821808,0.0016218330711126328
265,0.011305365711450577,0.0005953132640570402,0.019538208842277527,0.0015538434963673353
266,0.011637922376394272,0.0005954440566711128,0.019058384001255035,0.0014932166086509824
267,0.011645772494375706,0.0005998239503242075,0.021585937589406967,0.0018700481159612536
268,0.01184368971735239,0.0006271973252296448,0.021438252180814743,0.0018055344698950648
269,0.0118529899045825,0.0006211171275936067,0.01966293714940548,0.0014641173183918
270,0.011526501737535,0.0005848245928063989,0.01922721602022648,0.0015233232406899333
271,0.011491517536342144,0.0005819243378937244,0.01995011605322361,0.0016417659353464842
272,0.0114732775837183,0.0006051150849089026,0.019590018317103386,0.0016112091252580285
273,0.011481714434921741,0.0005676463479176164,0.019816532731056213,0.0015054470859467983
274,0.01188954059034586,0.000625543761998415,0.020346811041235924,0.001635177992284298
275,0.01149947289377451,0.0006213478045538068,0.019609639421105385,0.0014836579794064164
276,0.011007517576217651,0.0005536547978408635,0.019596632570028305,0.001531281159259379
277,0.011705364100635052,0.0006090602837502956,0.021004850044846535,0.0016095524188131094
278,0.011439042165875435,0.0005826507695019245,0.020247148349881172,0.001658570603467524
279,0.01110563613474369,0.0005513508804142475,0.01959684118628502,0.0014923710841685534
280,0.011604171246290207,0.0005790514987893403,0.020618019625544548,0.0016654768260195851
281,0.011599547229707241,0.0006201280630193651,0.022089658305048943,0.0017862834502011538
282,0.011246024630963802,0.0005577917327173054,0.018961410969495773,0.0015338030643761158
283,0.011076373979449272,0.0005381596274673939,0.01995716243982315,0.0016241080593317747
284,0.011387213133275509,0.0006024272879585624,0.021519863978028297,0.0017815945902839303
285,0.011058812029659748,0.000532474194187671,0.019154014065861702,0.0014673906844109297
286,0.010758217424154282,0.000508495606482029,0.01806202344596386,0.0013362789759412408
287,0.011240718886256218,0.0005512462230399251,0.01937180571258068,0.0014904373092576861
288,0.011301396414637566,0.0005634198896586895,0.02048991248011589,0.0017022574320435524
289,0.011389346793293953,0.0005736731109209359,0.019996197894215584,0.001595143461599946
290,0.011246338486671448,0.000569388794247061,0.019531534984707832,0.0015522318426519632
291,0.011455656029284,0.0005696337902918458,0.019314801320433617,0.0015303903492167592
292,0.010898983106017113,0.0005061120609752834,0.018903113901615143,0.001441525062546134
293,0.011062601581215858,0.0005423504044301808,0.01908828690648079,0.0015323696425184608
294,0.011008275672793388,0.0005356849287636578,0.018125683069229126,0.0013814839767292142
295,0.010933762416243553,0.0005088445614092052,0.019740229472517967,0.0016871654661372304
296,0.011123416014015675,0.000524729723110795,0.019655145704746246,0.0015588405076414347
297,0.0109000438824296,0.0005046650185249746,0.019606254994869232,0.0015962573233991861
298,0.011249716393649578,0.0005689326208084822,0.01885191723704338,0.0015102825127542019
299,0.010783586651086807,0.0005192700773477554,0.019531043246388435,0.001504741725511849
