epoch,loss,mean_squared_error,val_loss,val_mean_squared_error
0,0.2872413396835327,0.129612997174263,0.22159744799137115,0.07019033282995224
1,0.2086929827928543,0.0664062425494194,0.20413640141487122,0.05980478227138519
2,0.18800073862075806,0.05600354075431824,0.1553485095500946,0.03755205497145653
3,0.17597231268882751,0.048955049365758896,0.15896306931972504,0.037099841982126236
4,0.169379323720932,0.04647590219974518,0.14548124372959137,0.03360708802938461
5,0.16195139288902283,0.04317490756511688,0.13676252961158752,0.03020133450627327
6,0.15603747963905334,0.03981074318289757,0.1427304744720459,0.03038725070655346
7,0.14714853465557098,0.03641278296709061,0.15061575174331665,0.034587275236845016
8,0.1443842351436615,0.03520280122756958,0.1354280561208725,0.030773960053920746
9,0.13721194863319397,0.031882911920547485,0.14827287197113037,0.03212549164891243
10,0.13364124298095703,0.030588509514927864,0.13044027984142303,0.026664989069104195
11,0.13047559559345245,0.028987227007746696,0.11849555373191833,0.022290218621492386
12,0.12670956552028656,0.027391569688916206,0.11019102483987808,0.02080252207815647
13,0.12023381888866425,0.025048788636922836,0.13493777811527252,0.028585834428668022
14,0.11490851640701294,0.023196527734398842,0.15142066776752472,0.03576808422803879
15,0.11344178020954132,0.022543219849467278,0.10960384458303452,0.019205542281270027
16,0.11013428866863251,0.021506644785404205,0.10877324640750885,0.018479911610484123
17,0.10683852434158325,0.02038172073662281,0.10864859819412231,0.018767202273011208
18,0.10243179649114609,0.01863243617117405,0.10504759103059769,0.018405193462967873
19,0.10170182585716248,0.01828903704881668,0.10020975768566132,0.01736866869032383
20,0.09585437178611755,0.016438214108347893,0.105039581656456,0.018418297171592712
21,0.09505080431699753,0.01609290950000286,0.10089979320764542,0.016763312742114067
22,0.08753781020641327,0.013990065082907677,0.0955066904425621,0.016198614612221718
23,0.08448141813278198,0.013321434147655964,0.102057084441185,0.01856735348701477
24,0.08156876266002655,0.012223578989505768,0.08481042087078094,0.013771431520581245
25,0.07808944582939148,0.011202845722436905,0.08686134964227676,0.014859254471957684
26,0.0747285857796669,0.01032953429967165,0.09935290366411209,0.017596367746591568
27,0.07346729189157486,0.009920650161802769,0.08961021155118942,0.015090638771653175
28,0.07223586738109589,0.00973561406135559,0.09075275808572769,0.014940114691853523
29,0.06988345831632614,0.009086781181395054,0.08696811646223068,0.013604966923594475
30,0.06823574006557465,0.008694035932421684,0.08275454491376877,0.012671475298702717
31,0.0663948804140091,0.008241030387580395,0.09397658705711365,0.0163023192435503
32,0.06614865362644196,0.008165492676198483,0.08259423822164536,0.01247562188655138
33,0.06431977450847626,0.007740423083305359,0.08081233501434326,0.011800076812505722
34,0.06420499086380005,0.007615250535309315,0.08722982555627823,0.014130408875644207
35,0.06358873844146729,0.007432813290506601,0.08642810583114624,0.014952551573514938
36,0.06280366331338882,0.007286370266228914,0.089601531624794,0.014332477934658527
37,0.060600120574235916,0.006916410755366087,0.08186939358711243,0.012209347449243069
38,0.06129531189799309,0.006917663384228945,0.08550103008747101,0.01356055960059166
39,0.060058511793613434,0.006785332225263119,0.07862067222595215,0.011444680392742157
40,0.059054505079984665,0.006479961331933737,0.07915927469730377,0.011710762046277523
41,0.05815843492746353,0.006403957027941942,0.07872357219457626,0.011926204897463322
42,0.05796651542186737,0.006200307514518499,0.08161509037017822,0.012712567113339901
43,0.05609802156686783,0.005862293299287558,0.08041391521692276,0.012135646305978298
44,0.05600572004914284,0.005807106848806143,0.07691219449043274,0.01180427335202694
45,0.05597041919827461,0.005862534511834383,0.0744219571352005,0.010537650436162949
46,0.05546095222234726,0.005679268855601549,0.0784836858510971,0.012474240735173225
47,0.05526598170399666,0.005645379424095154,0.07520313560962677,0.010728889144957066
48,0.05385966598987579,0.00543098384514451,0.07254518568515778,0.010517217218875885
49,0.0527057982981205,0.005192346405237913,0.08110126852989197,0.013287783600389957
50,0.05224945396184921,0.005036910064518452,0.08163689821958542,0.012339004315435886
51,0.053081996738910675,0.005177286919206381,0.07620944082736969,0.011156963184475899
52,0.05143686756491661,0.004918911028653383,0.07303594052791595,0.010006674565374851
53,0.05202534422278404,0.0050108605064451694,0.0736183226108551,0.010563062503933907
54,0.051610175520181656,0.004925703629851341,0.08151282370090485,0.012529651634395123
55,0.05107787624001503,0.004793345462530851,0.0715324878692627,0.010029863566160202
56,0.049596432596445084,0.004496319219470024,0.08122298866510391,0.012154864147305489
57,0.05110627040266991,0.0047352854162454605,0.077943354845047,0.01099342480301857
58,0.05064460635185242,0.004670318681746721,0.07412654161453247,0.010675735771656036
59,0.04910971224308014,0.004363222047686577,0.07633417844772339,0.010818078182637691
60,0.04889786243438721,0.004394713789224625,0.07582753896713257,0.010607684962451458
61,0.04863327741622925,0.004332754760980606,0.07438183575868607,0.010764475911855698
62,0.04920961707830429,0.004514581523835659,0.08604798465967178,0.014126202091574669
63,0.04932668060064316,0.00443353271111846,0.07252412289381027,0.00976074580103159
64,0.04838220030069351,0.004291358403861523,0.07350853830575943,0.010381195694208145
65,0.047293778508901596,0.004068056121468544,0.07047667354345322,0.009903661906719208
66,0.04801664873957634,0.004204574506729841,0.07582186907529831,0.011426787823438644
67,0.04761967062950134,0.004055477678775787,0.08552414178848267,0.013234290294349194
68,0.0472557358443737,0.004062314983457327,0.0756029263138771,0.011098607443273067
69,0.04658551886677742,0.003914253786206245,0.07064865529537201,0.009993740357458591
70,0.04711095616221428,0.0040912809781730175,0.07601385563611984,0.011012297123670578
71,0.04622714966535568,0.003846199717372656,0.07720676809549332,0.011416228488087654
72,0.04610191658139229,0.003979937173426151,0.07676002383232117,0.010948843322694302
73,0.04585666209459305,0.003866079729050398,0.07300221920013428,0.01013907790184021
74,0.045842718333005905,0.003860840341076255,0.07368776947259903,0.01022612489759922
75,0.045825790613889694,0.003903893753886223,0.07106659561395645,0.009539053775370121
76,0.04577941447496414,0.0038091985043138266,0.07118462026119232,0.009616977535188198
77,0.04496607929468155,0.003636373905465007,0.06925743818283081,0.009744642302393913
78,0.04455044865608215,0.003597014117985964,0.07065462321043015,0.009395238012075424
79,0.04498743265867233,0.0036907584872096777,0.07280143350362778,0.010199892334640026
80,0.04427245631814003,0.0035777438897639513,0.07303879410028458,0.010380336083471775
81,0.04360012337565422,0.0035903663374483585,0.07309360802173615,0.010325971059501171
82,0.04388374835252762,0.00347336009144783,0.07173633575439453,0.010029005818068981
83,0.04435956850647926,0.0035931665915995836,0.07049560546875,0.0098015908151865
84,0.04384485259652138,0.0035232980735599995,0.07236207276582718,0.009937142953276634
85,0.044275183230638504,0.0035281393211334944,0.07534001022577286,0.010841564275324345
86,0.04293255880475044,0.0033763095270842314,0.07218950986862183,0.010635237209498882
87,0.04285865277051926,0.0033339469227939844,0.07493846118450165,0.010489742271602154
88,0.04274304211139679,0.0033133237157016993,0.07027029991149902,0.00977728795260191
89,0.04244232922792435,0.0033031138591468334,0.08500958234071732,0.013205931521952152
90,0.04356904327869415,0.0034623309038579464,0.07532170414924622,0.01036905962973833
91,0.04322122782468796,0.003412034595385194,0.0687713772058487,0.00940272118896246
92,0.04234969615936279,0.0032410204876214266,0.07371536642313004,0.010389634408056736
93,0.04240676015615463,0.003237614408135414,0.07128243148326874,0.009778356179594994
94,0.0422215461730957,0.003227061592042446,0.07651564478874207,0.011278641410171986
95,0.04201952740550041,0.00323474477045238,0.07486695796251297,0.010770734399557114
96,0.0420406199991703,0.0032330811955034733,0.07066451758146286,0.00933308806270361
97,0.04184943810105324,0.0031922806520015,0.07336264103651047,0.010424572043120861
98,0.041636619716882706,0.0031451918184757233,0.07659710943698883,0.011037757620215416
99,0.041904229670763016,0.003182372311130166,0.07786756008863449,0.011396060697734356
