epoch,loss,mean_squared_error,val_loss,val_mean_squared_error
0,0.15318238735198975,0.04251467436552048,0.12541189789772034,0.029505833983421326
1,0.09976592659950256,0.017548415809869766,0.08858387917280197,0.015875542536377907
2,0.08478957414627075,0.01289412286132574,0.06336025893688202,0.007442045491188765
3,0.0755777582526207,0.010415483266115189,0.07400800287723541,0.008522219955921173
4,0.06819704920053482,0.008410023525357246,0.06914371997117996,0.01080368086695671
5,0.06382670253515244,0.007374394219368696,0.05711210519075394,0.006247445475310087
6,0.06006426364183426,0.006701003760099411,0.05792281776666641,0.006287654396146536
7,0.05602337047457695,0.005821834318339825,0.05281840264797211,0.005743417423218489
8,0.05361499637365341,0.005437450483441353,0.05627310276031494,0.0055979094468057156
9,0.04986586049199104,0.004767242819070816,0.04973430559039116,0.004741421900689602
10,0.048355959355831146,0.004439694341272116,0.05383806303143501,0.0058530112728476524
11,0.04527127742767334,0.003931594081223011,0.04923101142048836,0.005060908384621143
12,0.043473608791828156,0.003668788354843855,0.04745447263121605,0.004790983162820339
13,0.042253296822309494,0.0034086210653185844,0.05824790894985199,0.005738801788538694
14,0.03956512361764908,0.0030277478508651257,0.05555132031440735,0.005408428143709898
15,0.03891634941101074,0.002993778558447957,0.051506295800209045,0.005438078660517931
16,0.03819870576262474,0.0028746158350259066,0.04858541861176491,0.004386998247355223
17,0.036550723016262054,0.0025964153464883566,0.04883895069360733,0.004348723217844963
18,0.03546403720974922,0.0024989473167806864,0.046232670545578,0.0042585995979607105
19,0.03498741239309311,0.0023989055771380663,0.04668515548110008,0.004615065176039934
20,0.03377733379602432,0.0022248004097491503,0.05674738809466362,0.00537559250369668
21,0.033445585519075394,0.0021907296031713486,0.045554451644420624,0.004215144086629152
22,0.0332551971077919,0.0021193146239966154,0.05165885388851166,0.004568114876747131
23,0.03132914379239082,0.0018955672858282924,0.04387321695685387,0.0037153258454054594
24,0.031123705208301544,0.001884096534922719,0.046029891818761826,0.003935292363166809
25,0.03003114089369774,0.0017048774752765894,0.04532080516219139,0.00391006376594305
26,0.02965369261801243,0.0017006989801302552,0.04158654436469078,0.0036823092959821224
27,0.02850165031850338,0.0015613366849720478,0.044106971472501755,0.0038268964271992445
28,0.028553616255521774,0.0016060973284766078,0.046147510409355164,0.00400786567479372
29,0.028217783197760582,0.0015424239682033658,0.0435735248029232,0.0040482524782419205
30,0.027488449588418007,0.0014376241015270352,0.04262568801641464,0.0039044925943017006
31,0.026641439646482468,0.0013623214326798916,0.04117654636502266,0.0038545168936252594
32,0.027112014591693878,0.0014286027289927006,0.041289668530225754,0.003594605950638652
33,0.02684102952480316,0.0013848816743120551,0.04309682920575142,0.003997663967311382
34,0.02547641657292843,0.0012180886697024107,0.04495197907090187,0.0038718951400369406
35,0.026269104331731796,0.0012975303689017892,0.03788188099861145,0.003138687927275896
36,0.0244611743837595,0.0011463043047115207,0.04153667762875557,0.004004326183348894
37,0.024612847715616226,0.00114456657320261,0.04251721501350403,0.0034975921735167503
38,0.024402804672718048,0.0011098046088591218,0.04277952015399933,0.0035393154248595238
39,0.0238835196942091,0.001097050029784441,0.04035006836056709,0.003518956247717142
40,0.02351660095155239,0.00103926716838032,0.040246643126010895,0.003689949633553624
41,0.023795288056135178,0.0010585543932393193,0.041150931268930435,0.0034740595147013664
42,0.02375534363090992,0.0010416731238365173,0.041937194764614105,0.0037837561685591936
43,0.023351622745394707,0.0010324562899768353,0.042108695954084396,0.003717110026627779
44,0.023545369505882263,0.0010237509850412607,0.048490025103092194,0.004093391355127096
45,0.02232799492776394,0.0009397269459441304,0.04121456667780876,0.0033601298928260803
46,0.023759061470627785,0.001050307764671743,0.03977619856595993,0.003410691861063242
47,0.0219257902354002,0.000912822550162673,0.0420282706618309,0.0035208987537771463
48,0.022066164761781693,0.0009082179749384522,0.038576021790504456,0.00318179652094841
49,0.022255506366491318,0.0009217223851010203,0.04180285334587097,0.0036282921209931374
50,0.020760059356689453,0.0008066992159001529,0.03880209103226662,0.0032594879157841206
51,0.02127082459628582,0.0008422912214882672,0.04026413708925247,0.003302257740870118
52,0.020357031375169754,0.0007718369015492499,0.04177428036928177,0.00368521548807621
53,0.02118510752916336,0.0008313892176374793,0.03926384821534157,0.0034641099628061056
54,0.02013583853840828,0.0007624045247212052,0.04023761674761772,0.003188412170857191
55,0.019546404480934143,0.0007165216957218945,0.044820040464401245,0.004498617723584175
56,0.019931666553020477,0.0007329772342927754,0.038403578102588654,0.003233319381251931
57,0.020600151270627975,0.0007724300376139581,0.03857880458235741,0.0031756735406816006
58,0.020030101761221886,0.0007436610176227987,0.03859836608171463,0.0032614280935376883
59,0.01959865912795067,0.0007148899021558464,0.0393361896276474,0.0034828661009669304
60,0.018799113109707832,0.000680900237057358,0.04037443548440933,0.0034697537776082754
61,0.01958182267844677,0.0006963095511309803,0.0406574010848999,0.003770550014451146
62,0.018987976014614105,0.0006809707847423851,0.04092223197221756,0.0033182259649038315
63,0.018992504104971886,0.0006699428195133805,0.03702125325798988,0.0030377914663404226
64,0.019710011780261993,0.0007160304812714458,0.043862003833055496,0.004198330454528332
65,0.01823386549949646,0.0006122019258327782,0.03712207078933716,0.003108366159722209
66,0.0180528461933136,0.0006089863018132746,0.03802427276968956,0.0030975204426795244
67,0.018941538408398628,0.0006639657076448202,0.03825042024254799,0.00324541749432683
68,0.018064221367239952,0.000607165158726275,0.04455286264419556,0.0041682845912873745
69,0.019022900611162186,0.00065398815786466,0.03823469206690788,0.003222912084311247
70,0.018120411783456802,0.0006217941991053522,0.03883275389671326,0.0032216645777225494
71,0.017807720229029655,0.0005899625248275697,0.03761288896203041,0.0031950906850397587
72,0.01753643900156021,0.0005674561252817512,0.03931664302945137,0.0033551400993019342
73,0.017834225669503212,0.0005791520234197378,0.039078183472156525,0.0034445615019649267
74,0.018062712624669075,0.0006030081422068179,0.03767944872379303,0.003035365603864193
75,0.017721131443977356,0.0005677492008544505,0.03787601739168167,0.0030599869787693024
76,0.01762566715478897,0.000564919610042125,0.03732595220208168,0.0031411501113325357
77,0.01696120761334896,0.0005367033299989998,0.0395624078810215,0.0033160350285470486
78,0.016866717487573624,0.0005173027166165411,0.038436394184827805,0.0033804860431700945
79,0.01694159395992756,0.0005374393658712506,0.039594147354364395,0.003444927278906107
80,0.016612296923995018,0.0005085690063424408,0.03895522281527519,0.0033785065170377493
81,0.017120344564318657,0.0005572587251663208,0.03729667514562607,0.0030297052580863237
82,0.016658280044794083,0.0005106698954477906,0.03730073198676109,0.0031429827213287354
83,0.016628190875053406,0.0005075362278148532,0.03783386945724487,0.003295363625511527
84,0.01669006235897541,0.0005059662507846951,0.03815772011876106,0.003354501212015748
85,0.016670074313879013,0.0005083407158963382,0.04519699886441231,0.004243940580636263
86,0.016264505684375763,0.00047647373867221177,0.04362558573484421,0.003797500394284725
87,0.016309669241309166,0.0004782556206919253,0.03931021690368652,0.0033745509572327137
88,0.016465427353978157,0.0005025197169743478,0.03695669397711754,0.002900528721511364
89,0.01608632691204548,0.00046264930278994143,0.038329288363456726,0.0032824843656271696
90,0.01567259430885315,0.0004511082370299846,0.041193872690200806,0.00361643941141665
91,0.016060251742601395,0.0004659817204810679,0.03787250444293022,0.003171113319694996
92,0.01582488976418972,0.0004627688613254577,0.04264802113175392,0.0036833861377090216
93,0.015466684475541115,0.00043991277925670147,0.04356520622968674,0.0038486234843730927
94,0.01620279811322689,0.0004838998429477215,0.03706268593668938,0.0030105721671134233
95,0.016075704246759415,0.0004699817509390414,0.037671539932489395,0.0029985113069415092
96,0.015463549643754959,0.0004391836700960994,0.03857394680380821,0.0032816315069794655
97,0.016149869188666344,0.00048168402281589806,0.0417727492749691,0.0037686708383262157
98,0.015372692607343197,0.00043382804142311215,0.042013201862573624,0.0033919038251042366
99,0.01574690081179142,0.0004477427573874593,0.039950184524059296,0.0031736206728965044
