Epochs: 300
Input shape: 256
Loss function: mean_absolute_error
Metric: mean_squared_error
Test Percentage: 0.2
Test Part: 4
Train data length: 1960
Test data length: 490

MODEL SUMMARY
===========================
Model: "sequential"
_________________________________________________________________
 Layer (type)                Output Shape              Param #   
=================================================================
 Dense (Dense)               (None, 25)                150       
                                                                 
 Dense2 (Dense)              (None, 50)                1300      
                                                                 
 dropout (Dropout)           (None, 50)                0         
                                                                 
 Final_Dense (Dense)         (None, 100)               5100      
                                                                 
 output (Dense)              (None, 1)                 101       
                                                                 
=================================================================
Total params: 6,651
Trainable params: 6,651
Non-trainable params: 0
_________________________________________________________________

[0.23719823360443115, 0.17830976843833923, 0.1555778831243515, 0.15049989521503448, 0.14746876060962677, 0.14241181313991547, 0.14104872941970825, 0.1398666650056839, 0.1381353735923767, 0.13624145090579987, 0.13309447467327118, 0.12995347380638123, 0.12541785836219788, 0.12267451733350754, 0.12129294127225876, 0.1201637014746666, 0.11215751618146896, 0.11767931282520294, 0.1180744469165802, 0.11683570593595505, 0.11056708544492722, 0.11010082066059113, 0.1105688288807869, 0.1117047518491745, 0.11318481713533401, 0.11122586578130722, 0.1082935631275177, 0.10851999372243881, 0.10764443874359131, 0.10647036135196686, 0.1059989184141159, 0.1086738333106041, 0.10669487714767456, 0.1045568510890007, 0.10480134189128876, 0.1063094213604927, 0.10497251898050308, 0.10423004627227783, 0.10218320041894913, 0.10339775681495667, 0.10312525182962418, 0.1019914299249649, 0.10012898594141006, 0.10263384133577347, 0.10472453385591507, 0.10403989255428314, 0.10259557515382767, 0.10120955854654312, 0.10331972688436508, 0.10399536788463593, 0.10036461055278778, 0.10224852710962296, 0.10278551280498505, 0.10429953783750534, 0.10214176774024963, 0.10042086988687515, 0.10119814425706863, 0.10091656446456909, 0.09807804226875305, 0.10189566761255264, 0.10088405758142471, 0.10082318633794785, 0.10138674825429916, 0.10051245987415314, 0.09900080412626266, 0.09928242117166519, 0.09635762125253677, 0.09843961149454117, 0.09825818240642548, 0.09728695452213287, 0.0980943962931633, 0.09729006886482239, 0.09663297981023788, 0.09792133420705795, 0.09560942649841309, 0.09793443232774734, 0.09512247145175934, 0.09757973998785019, 0.09739688783884048, 0.09334970265626907, 0.09609858691692352, 0.09480495005846024, 0.09579900652170181, 0.09397884458303452, 0.09636346250772476, 0.09594741463661194, 0.09344532340765, 0.09617983549833298, 0.09348634630441666, 0.09394458681344986, 0.09433820098638535, 0.09223335981369019, 0.09312131255865097, 0.09224119037389755, 0.09640160202980042, 0.09216724336147308, 0.09510921686887741, 0.09666003286838531, 0.09342076629400253, 0.08970417082309723, 0.08765104413032532, 0.08858005702495575, 0.08994966000318527, 0.09049765765666962, 0.08808249235153198, 0.08808355778455734, 0.08825284242630005, 0.08640106767416, 0.08970208466053009, 0.08624453842639923, 0.08519764989614487, 0.08441999554634094, 0.08822193741798401, 0.08481293171644211, 0.08405633270740509, 0.08590025454759598, 0.08577654510736465, 0.08451417833566666, 0.08510498702526093, 0.08396728336811066, 0.08744009584188461, 0.08754413574934006, 0.08556224405765533, 0.08432446420192719, 0.0846514105796814, 0.08180729299783707, 0.08331728726625443, 0.08563171327114105, 0.0837537944316864, 0.08344090729951859, 0.08551901578903198, 0.0815991461277008, 0.08361788094043732, 0.0831197053194046, 0.08268747478723526, 0.08156800270080566, 0.08347916603088379, 0.08088210970163345, 0.08258091658353806, 0.08235830068588257, 0.08074308186769485, 0.07833993434906006, 0.08020428568124771, 0.08342846482992172, 0.08141636848449707, 0.08075357228517532, 0.08116144686937332, 0.08377812802791595, 0.0801767110824585, 0.08200466632843018, 0.0825367122888565, 0.08080911636352539, 0.08034998178482056, 0.0785626694560051, 0.07755857706069946, 0.08066607266664505, 0.07894573360681534, 0.08237941563129425, 0.08094830065965652, 0.07892883569002151, 0.08052796870470047, 0.07950366288423538, 0.07752511650323868, 0.08059965819120407, 0.07722990214824677, 0.07814598828554153, 0.0804252177476883, 0.07939483970403671, 0.08043064922094345, 0.07779622822999954, 0.08117570728063583, 0.07785086333751678, 0.08017642050981522, 0.07715073227882385, 0.08003097027540207, 0.0790528953075409, 0.07720516622066498, 0.0773712694644928, 0.07773218303918839, 0.07970493286848068, 0.07824691385030746, 0.07578444480895996, 0.07879137992858887, 0.07550488412380219, 0.07919657975435257, 0.08010255545377731, 0.07516789436340332, 0.07493781298398972, 0.07866932451725006, 0.07683835923671722, 0.07787000387907028, 0.07698484510183334, 0.07876995950937271, 0.07621628791093826, 0.07756936550140381, 0.07645450532436371, 0.07799416035413742, 0.0760423094034195, 0.07576518505811691, 0.07592855393886566, 0.0776936411857605, 0.07614896446466446, 0.07554313540458679, 0.07622227072715759, 0.07692891359329224, 0.07900069653987885, 0.07573801279067993, 0.07589392364025116, 0.07556010782718658, 0.07555919140577316, 0.07562828809022903, 0.0758233368396759, 0.07831846177577972, 0.07629633694887161, 0.07742242515087128, 0.07633499056100845, 0.07739317417144775, 0.07708333432674408, 0.07443030923604965, 0.07688740640878677, 0.07573091983795166, 0.07540074735879898, 0.0755322128534317, 0.0750519335269928, 0.07826116681098938, 0.07571988552808762, 0.07498937845230103, 0.07566036283969879, 0.07392604649066925, 0.07603766769170761, 0.07405433058738708, 0.0755402147769928, 0.07417163997888565, 0.07533690333366394, 0.07481159269809723, 0.07465775310993195, 0.07674118876457214, 0.07297708839178085, 0.07489386945962906, 0.0736883357167244, 0.0731205865740776, 0.07498941570520401, 0.07568146288394928, 0.07656746357679367, 0.07360579073429108, 0.0753328949213028, 0.07667039334774017, 0.0736900120973587, 0.07567567378282547, 0.07289157062768936, 0.0753844603896141, 0.07555125653743744, 0.07430478185415268, 0.07403963804244995, 0.07437396794557571, 0.07320315390825272, 0.07591630518436432, 0.07520730048418045, 0.07315386831760406, 0.07540123909711838, 0.07452896982431412, 0.07465815544128418, 0.07230266183614731, 0.07561413198709488, 0.07231875509023666, 0.07427814602851868, 0.0739777460694313, 0.07609125971794128, 0.07409428060054779, 0.07282456010580063, 0.07595033943653107, 0.07337392121553421, 0.07405054569244385, 0.07290242612361908, 0.07223030924797058, 0.07591599971055984, 0.07216472178697586, 0.07633696496486664, 0.07416098564863205, 0.0747976079583168, 0.07398997247219086, 0.07223749905824661, 0.0759897455573082, 0.07362638413906097, 0.07252777367830276, 0.07301387935876846, 0.07438445091247559, 0.07354853302240372, 0.07484952360391617, 0.07319770008325577, 0.070721335709095, 0.07254710048437119, 0.07251425087451935, 0.0739530473947525, 0.07697238028049469, 0.07368727028369904, 0.07368534058332443, 0.07338753342628479, 0.0728847086429596, 0.07447406649589539]
[0.20902884006500244, 0.1617407351732254, 0.15594933927059174, 0.15471656620502472, 0.14656400680541992, 0.13685135543346405, 0.13613077998161316, 0.1313948631286621, 0.13031724095344543, 0.12465064972639084, 0.12328445166349411, 0.11845967173576355, 0.11558511108160019, 0.1145591139793396, 0.1189039945602417, 0.10908468812704086, 0.1129375696182251, 0.11456163972616196, 0.1071653664112091, 0.11092427372932434, 0.11123476922512054, 0.11680803447961807, 0.11464553326368332, 0.11063670367002487, 0.11011447757482529, 0.11548753827810287, 0.10533256083726883, 0.10271095484495163, 0.11253248900175095, 0.10832515358924866, 0.10263574123382568, 0.10671087354421616, 0.11078868806362152, 0.10926514863967896, 0.11261551082134247, 0.1055646538734436, 0.10897862166166306, 0.10557664930820465, 0.11270081996917725, 0.10596269369125366, 0.11233940720558167, 0.10601422935724258, 0.10617917776107788, 0.11403591185808182, 0.10195872187614441, 0.10487139970064163, 0.10723046213388443, 0.10737384110689163, 0.1031704768538475, 0.10183016955852509, 0.10819689184427261, 0.11351607739925385, 0.1149946078658104, 0.11152421683073044, 0.12323886156082153, 0.10250651091337204, 0.10647603124380112, 0.11029647290706635, 0.1169312447309494, 0.10390780121088028, 0.11302898079156876, 0.10438196361064911, 0.10848415642976761, 0.11093999445438385, 0.10417893528938293, 0.10869359225034714, 0.10983126610517502, 0.11304328590631485, 0.11194460839033127, 0.11449532955884933, 0.10843098163604736, 0.1094672679901123, 0.11180686950683594, 0.10171536356210709, 0.09817944467067719, 0.10426361858844757, 0.1050148457288742, 0.10696656256914139, 0.10579665005207062, 0.10323210805654526, 0.10319024324417114, 0.10883898288011551, 0.10135574638843536, 0.10976321995258331, 0.10428506135940552, 0.10732536762952805, 0.10559433698654175, 0.10906271636486053, 0.1047135591506958, 0.09994887560606003, 0.10318882018327713, 0.09973762929439545, 0.1068212166428566, 0.11124472320079803, 0.10677226632833481, 0.11304688453674316, 0.09635375440120697, 0.11100895702838898, 0.10371553897857666, 0.10147987306118011, 0.10248882323503494, 0.10305506736040115, 0.09624641388654709, 0.11118927597999573, 0.09243792295455933, 0.09996315091848373, 0.09703132510185242, 0.09416316449642181, 0.0942976176738739, 0.09943819791078568, 0.09657249599695206, 0.09651224315166473, 0.0983179360628128, 0.0932917445898056, 0.097965307533741, 0.08712032437324524, 0.09116223454475403, 0.09745662659406662, 0.09571097791194916, 0.08911619335412979, 0.09685781598091125, 0.09760637581348419, 0.09985443204641342, 0.0862392857670784, 0.08555922657251358, 0.09013401716947556, 0.09111599624156952, 0.09876639395952225, 0.09370364248752594, 0.09608504176139832, 0.0869896337389946, 0.09042486548423767, 0.10904429107904434, 0.0937097817659378, 0.09799729287624359, 0.08180850744247437, 0.09115248173475266, 0.08767794072628021, 0.09259089082479477, 0.0897550880908966, 0.0839170590043068, 0.09137588739395142, 0.09330956637859344, 0.08939020335674286, 0.08726439625024796, 0.08637849241495132, 0.09253320842981339, 0.08972828835248947, 0.09014656394720078, 0.08561171591281891, 0.09079225361347198, 0.08847889304161072, 0.09334950149059296, 0.08693675696849823, 0.08490045368671417, 0.09073731303215027, 0.08215693384408951, 0.08661863207817078, 0.08849747478961945, 0.08223176747560501, 0.08756063878536224, 0.08643940836191177, 0.08740771561861038, 0.08238427340984344, 0.085276298224926, 0.09157594293355942, 0.0893516093492508, 0.08449812233448029, 0.08123721927404404, 0.09100962430238724, 0.09243369102478027, 0.096492238342762, 0.08681867271661758, 0.08675307035446167, 0.08578141033649445, 0.08622445166110992, 0.08184745907783508, 0.08933417499065399, 0.09256251156330109, 0.08832050859928131, 0.08661521971225739, 0.08269654214382172, 0.08991220593452454, 0.08903869986534119, 0.08897873014211655, 0.09009291231632233, 0.08701500296592712, 0.09338042140007019, 0.08951146900653839, 0.08686040341854095, 0.08824653923511505, 0.08915790170431137, 0.08987385034561157, 0.08207203447818756, 0.09429462254047394, 0.08713669329881668, 0.08383069932460785, 0.086307592689991, 0.08623261749744415, 0.08489541709423065, 0.0888451337814331, 0.09275475889444351, 0.086246557533741, 0.08978863060474396, 0.08715444803237915, 0.08528625220060349, 0.0911598652601242, 0.08770675957202911, 0.09044719487428665, 0.081812784075737, 0.09446942061185837, 0.08583777397871017, 0.09012679755687714, 0.09001797437667847, 0.08707867562770844, 0.08813665807247162, 0.09373865276575089, 0.08853976428508759, 0.08572574704885483, 0.08497636765241623, 0.09611858427524567, 0.09220005571842194, 0.08547309041023254, 0.0870296061038971, 0.07878636568784714, 0.08645081520080566, 0.08353005349636078, 0.08785252273082733, 0.08211264759302139, 0.09186095744371414, 0.08493384718894958, 0.09249845147132874, 0.09306466579437256, 0.09735003113746643, 0.08966831117868423, 0.09438246488571167, 0.08862199634313583, 0.08949927985668182, 0.08706910908222198, 0.08566929399967194, 0.0902315303683281, 0.09395836293697357, 0.08428920060396194, 0.0931631550192833, 0.09648486226797104, 0.08748426288366318, 0.08661256730556488, 0.09200634062290192, 0.0905505046248436, 0.08659704029560089, 0.08975847065448761, 0.08972883224487305, 0.09851760417222977, 0.08913445472717285, 0.08523400127887726, 0.08136642724275589, 0.0886947363615036, 0.08948081731796265, 0.08407485485076904, 0.09041090309619904, 0.08918162435293198, 0.08673997223377228, 0.08949191123247147, 0.08187910169363022, 0.08387938886880875, 0.08859652280807495, 0.08593287318944931, 0.0845268964767456, 0.08264502882957458, 0.08457323908805847, 0.09160663932561874, 0.09472627192735672, 0.08384373784065247, 0.08597199618816376, 0.08451216667890549, 0.08951187133789062, 0.08452976495027542, 0.07950204610824585, 0.09416744112968445, 0.08780843019485474, 0.09536009281873703, 0.08581271022558212, 0.08525137603282928, 0.08620332181453705, 0.0858483836054802, 0.09122767299413681, 0.09325715899467468, 0.08909987658262253, 0.08734375238418579, 0.08937191218137741, 0.0882907584309578, 0.0864332988858223, 0.08444474637508392, 0.08845710754394531, 0.0869554951786995, 0.09034503251314163, 0.08922513574361801, 0.08981174230575562, 0.08672496676445007, 0.08944545686244965]